Removed Pin From Net: NetName=CAN_P Pin=XP4-1
Removed Pin From Net: NetName=CAN_N Pin=XP4-2
Removed Pin From Net: NetName=serv_RS485_P Pin=XP4-3
Removed Pin From Net: NetName=serv_RS485_N Pin=XP4-4
Added Pin To Net: NetName=serv_RS485_P Pin=XP4-1
Added Pin To Net: NetName=serv_RS485_N Pin=XP4-2
Added Pin To Net: NetName=CAN_P Pin=XP4-3
Added Pin To Net: NetName=CAN_N Pin=XP4-4
