Removed Pin From Net: NetName=MCU_AIN3 Pin=DD7-20
Removed Pin From Net: NetName=MCU_AIN1 Pin=DD7-27
Added Pin To Net: NetName=MCU_AIN1 Pin=DD7-20
Added Pin To Net: NetName=MCU_AIN3 Pin=DD7-27
Added Room: Name=MCU_PIC_P2
