%FSTAX24Y24*%
%MOIN*%
%SFA1B1*%

%IPPOS*%
%AMD16*
4,1,8,-0.021600,0.022600,-0.021600,-0.022600,-0.010800,-0.033400,0.010800,-0.033400,0.021600,-0.022600,0.021600,0.022600,0.010800,0.033400,-0.010800,0.033400,-0.021600,0.022600,0.0*
1,1,0.021600,-0.010800,0.022600*
1,1,0.021600,-0.010800,-0.022600*
1,1,0.021600,0.010800,-0.022600*
1,1,0.021600,0.010800,0.022600*
%
%AMD17*
4,1,8,-0.031800,-0.023800,0.031800,-0.023800,0.043700,-0.011900,0.043700,0.011900,0.031800,0.023800,-0.031800,0.023800,-0.043700,0.011900,-0.043700,-0.011900,-0.031800,-0.023800,0.0*
1,1,0.023800,-0.031800,-0.011900*
1,1,0.023800,0.031800,-0.011900*
1,1,0.023800,0.031800,0.011900*
1,1,0.023800,-0.031800,0.011900*
%
%AMD20*
4,1,8,-0.027500,0.003800,-0.027500,-0.003800,-0.023800,-0.007500,0.023800,-0.007500,0.027500,-0.003800,0.027500,0.003800,0.023800,0.007500,-0.023800,0.007500,-0.027500,0.003800,0.0*
1,1,0.007400,-0.023800,0.003800*
1,1,0.007400,-0.023800,-0.003800*
1,1,0.007400,0.023800,-0.003800*
1,1,0.007400,0.023800,0.003800*
%
%AMD21*
4,1,8,-0.043300,0.013700,-0.043300,-0.013700,-0.029500,-0.027500,0.029500,-0.027500,0.043300,-0.013700,0.043300,0.013700,0.029500,0.027500,-0.029500,0.027500,-0.043300,0.013700,0.0*
1,1,0.027600,-0.029500,0.013700*
1,1,0.027600,-0.029500,-0.013700*
1,1,0.027600,0.029500,-0.013700*
1,1,0.027600,0.029500,0.013700*
%
%AMD23*
4,1,8,-0.009900,-0.031500,0.009900,-0.031500,0.019700,-0.021700,0.019700,0.021700,0.009900,0.031500,-0.009900,0.031500,-0.019700,0.021700,-0.019700,-0.021700,-0.009900,-0.031500,0.0*
1,1,0.019600,-0.009900,-0.021700*
1,1,0.019600,0.009900,-0.021700*
1,1,0.019600,0.009900,0.021700*
1,1,0.019600,-0.009900,0.021700*
%
%AMD24*
4,1,8,-0.019700,0.016700,-0.019700,-0.016700,-0.009900,-0.026500,0.009900,-0.026500,0.019700,-0.016700,0.019700,0.016700,0.009900,0.026500,-0.009900,0.026500,-0.019700,0.016700,0.0*
1,1,0.019600,-0.009900,0.016700*
1,1,0.019600,-0.009900,-0.016700*
1,1,0.019600,0.009900,-0.016700*
1,1,0.019600,0.009900,0.016700*
%
%AMD25*
4,1,8,-0.023800,0.031800,-0.023800,-0.031800,-0.011900,-0.043700,0.011900,-0.043700,0.023800,-0.031800,0.023800,0.031800,0.011900,0.043700,-0.011900,0.043700,-0.023800,0.031800,0.0*
1,1,0.023800,-0.011900,0.031800*
1,1,0.023800,-0.011900,-0.031800*
1,1,0.023800,0.011900,-0.031800*
1,1,0.023800,0.011900,0.031800*
%
%AMD26*
4,1,8,-0.013700,-0.043300,0.013700,-0.043300,0.027500,-0.029500,0.027500,0.029500,0.013700,0.043300,-0.013700,0.043300,-0.027500,0.029500,-0.027500,-0.029500,-0.013700,-0.043300,0.0*
1,1,0.027600,-0.013700,-0.029500*
1,1,0.027600,0.013700,-0.029500*
1,1,0.027600,0.013700,0.029500*
1,1,0.027600,-0.013700,0.029500*
%
%AMD54*
4,1,8,-0.019600,-0.055100,0.019600,-0.055100,0.039300,-0.035400,0.039300,0.035400,0.019600,0.055100,-0.019600,0.055100,-0.039300,0.035400,-0.039300,-0.035400,-0.019600,-0.055100,0.0*
1,1,0.039400,-0.019600,-0.035400*
1,1,0.039400,0.019600,-0.035400*
1,1,0.039400,0.019600,0.035400*
1,1,0.039400,-0.019600,0.035400*
%
G04~CAMADD=16~8~0.0~0.0~669.0~433.0~108.0~0.0~15~0.0~0.0~0.0~0.0~0~0.0~0.0~0.0~0.0~0~0.0~0.0~0.0~90.0~432.0~668.0*
%ADD16D16*%
G04~CAMADD=17~8~0.0~0.0~874.0~476.0~119.0~0.0~15~0.0~0.0~0.0~0.0~0~0.0~0.0~0.0~0.0~0~0.0~0.0~0.0~180.0~874.0~476.0*
%ADD17D17*%
%ADD18R,0.141700X0.255900*%
%ADD19R,0.055100X0.015000*%
G04~CAMADD=20~8~0.0~0.0~150.0~551.0~37.0~0.0~15~0.0~0.0~0.0~0.0~0~0.0~0.0~0.0~0.0~0~0.0~0.0~0.0~90.0~550.0~150.0*
%ADD20D20*%
G04~CAMADD=21~8~0.0~0.0~551.0~866.0~138.0~0.0~15~0.0~0.0~0.0~0.0~0~0.0~0.0~0.0~0.0~0~0.0~0.0~0.0~90.0~866.0~550.0*
%ADD21D21*%
%ADD22R,0.086600X0.055100*%
G04~CAMADD=23~8~0.0~0.0~394.0~630.0~98.0~0.0~15~0.0~0.0~0.0~0.0~0~0.0~0.0~0.0~0.0~0~0.0~0.0~0.0~180.0~394.0~630.0*
%ADD23D23*%
G04~CAMADD=24~8~0.0~0.0~531.0~394.0~98.0~0.0~15~0.0~0.0~0.0~0.0~0~0.0~0.0~0.0~0.0~0~0.0~0.0~0.0~90.0~394.0~530.0*
%ADD24D24*%
G04~CAMADD=25~8~0.0~0.0~874.0~476.0~119.0~0.0~15~0.0~0.0~0.0~0.0~0~0.0~0.0~0.0~0.0~0~0.0~0.0~0.0~90.0~476.0~874.0*
%ADD25D25*%
G04~CAMADD=26~8~0.0~0.0~551.0~866.0~138.0~0.0~15~0.0~0.0~0.0~0.0~0~0.0~0.0~0.0~0.0~0~0.0~0.0~0.0~180.0~550.0~865.0*
%ADD26D26*%
%ADD27R,0.055100X0.086600*%
%ADD45C,0.011800*%
%ADD46C,0.015700*%
%ADD47C,0.029500*%
%ADD48C,0.019700*%
%ADD49C,0.039400*%
%ADD50C,0.118100*%
%ADD51C,0.059100*%
%ADD52C,0.078700*%
%ADD53C,0.025000*%
G04~CAMADD=54~8~0.0~0.0~787.0~1102.0~197.0~0.0~15~0.0~0.0~0.0~0.0~0~0.0~0.0~0.0~0.0~0~0.0~0.0~0.0~180.0~786.0~1101.0*
%ADD54D54*%
%ADD55R,0.078700X0.110200*%
%ADD56C,0.055100*%
%ADD57C,0.078700*%
%ADD58C,0.255900*%
%ADD59C,0.031500*%
%LNpcb_up_invert_01022019-1*%
%LPD*%
G36*
X020819Y021422D02*
X020963Y021378D01*
X021096Y021307*
X021212Y021212*
X021307Y021096*
X021378Y020963*
X021422Y020819*
X021436Y020676*
X021435Y020669*
Y000984*
X021436Y000977*
X021422Y000835*
X021378Y000691*
X021307Y000558*
X021212Y000442*
X021096Y000346*
X020963Y000275*
X020819Y000232*
X020676Y000217*
X020669Y000218*
X000984*
X000977Y000217*
X000835Y000232*
X000691Y000275*
X000558Y000346*
X000442Y000442*
X000346Y000558*
X000275Y000691*
X000232Y000835*
X000217Y000977*
X000218Y000984*
Y002689*
Y005794*
Y005863*
Y00929*
Y009293*
Y009661*
Y00971*
Y010236*
Y010241*
Y011005*
Y011008*
Y0112*
Y011206*
Y011773*
Y011777*
Y014783*
Y01499*
Y014999*
Y016801*
Y017008*
Y017028*
Y017513*
Y017557*
Y01774*
Y017746*
Y018112*
Y01813*
Y018405*
Y018445*
Y018578*
Y018639*
Y018778*
Y019685*
Y020591*
Y020592*
Y020669*
X000224Y020746*
X000232Y020819*
X000275Y020963*
X000346Y021096*
X000442Y021212*
X000558Y021307*
X000691Y021378*
X000835Y021422*
X000977Y021436*
X000984Y021435*
X020669*
X020676Y021436*
X020819Y021422*
G37*
%LNpcb_up_invert_01022019-2*%
%LPC*%
G36*
X019685Y021165D02*
X019492Y021152D01*
X019302Y021114*
X019119Y021052*
X018945Y020966*
X018784Y020859*
X018639Y020731*
X018511Y020586*
X018404Y020425*
X018318Y020251*
X018256Y020068*
X018218Y019878*
X018205Y019685*
X018218Y019492*
X018256Y019302*
X018318Y019119*
X018404Y018945*
X018511Y018784*
X018639Y018639*
X018784Y018511*
X018945Y018404*
X019119Y018318*
X019302Y018256*
X019492Y018218*
X019685Y018205*
X019878Y018218*
X020068Y018256*
X020251Y018318*
X020425Y018404*
X020586Y018511*
X020731Y018639*
X020859Y018784*
X020966Y018945*
X021052Y019119*
X021114Y019302*
X021152Y019492*
X021165Y019685*
X021152Y019878*
X021114Y020068*
X021052Y020251*
X020966Y020425*
X020859Y020586*
X020731Y020731*
X020586Y020859*
X020425Y020966*
X020251Y021052*
X020068Y021114*
X019878Y021152*
X019685Y021165*
G37*
G36*
X001969D02*
X001775Y021152D01*
X001586Y021114*
X001402Y021052*
X001229Y020966*
X001068Y020859*
X000922Y020731*
X000795Y020586*
X000687Y020425*
X000602Y020251*
X000539Y020068*
X000502Y019878*
X000489Y019685*
X000502Y019492*
X000539Y019302*
X000602Y019119*
X000687Y018945*
X000795Y018784*
X000922Y018639*
X001068Y018511*
X001229Y018404*
X001402Y018318*
X001586Y018256*
X001775Y018218*
X001969Y018205*
X002162Y018218*
X002351Y018256*
X002535Y018318*
X002708Y018404*
X002869Y018511*
X003015Y018639*
X003142Y018784*
X00325Y018945*
X003335Y019119*
X003398Y019302*
X003435Y019492*
X003448Y019685*
X003435Y019878*
X003398Y020068*
X003335Y020251*
X00325Y020425*
X003142Y020586*
X003015Y020731*
X002869Y020859*
X002708Y020966*
X002535Y021052*
X002351Y021114*
X002162Y021152*
X001969Y021165*
G37*
G36*
X017665Y019685D02*
X003957D01*
Y019555*
X003942Y019546*
X003908Y019541*
X003884Y019516*
X003883Y019499*
X003869Y01939*
X003823Y019174*
X003752Y018965*
X003658Y018766*
X003541Y018578*
X003404Y018405*
X003248Y018249*
X003075Y018112*
X002888Y017996*
X002689Y017902*
X00248Y017831*
X002264Y017785*
X002154Y017771*
X002135Y017769*
X002109Y01774*
X002092Y017734*
X002077Y017722*
X002032Y017697*
X001969*
Y003989*
X002043*
X002107Y003942*
X002112Y003914*
Y003908*
X002136Y003885*
X002137Y003884*
X002154Y003883*
X002264Y003869*
X00248Y003823*
X002689Y003752*
X002888Y003658*
X003075Y003541*
X003248Y003404*
X003404Y003248*
X003541Y003075*
X003658Y002888*
X003752Y002689*
X003823Y00248*
X003869Y002264*
X003883Y002154*
X003885Y002135*
X003913Y002109*
X003988Y002046*
X003989Y002045*
Y001969*
X017697*
Y002098*
X017712Y002107*
X017728Y00211*
X01773*
X017746Y002112*
X017748Y002115*
X017769Y002137*
X017771Y002154*
X017778Y002209*
X017785Y002264*
X017831Y00248*
X017902Y002689*
X017996Y002888*
X018112Y003075*
X018249Y003248*
X018405Y003404*
X018578Y003541*
X018766Y003658*
X018965Y003752*
X019174Y003823*
X01939Y003869*
X019499Y003883*
X019518Y003885*
X019545Y003913*
X019607Y003988*
X019608Y003989*
X019685*
Y017697*
X019555*
X019546Y017712*
X019541Y017746*
X019538Y017748*
X019516Y017769*
X019499Y017771*
X019486Y017773*
X019422Y017781*
X01939Y017785*
X019174Y017831*
X018965Y017902*
X018766Y017996*
X018578Y018112*
X018405Y018249*
X018249Y018405*
X018112Y018578*
X017996Y018766*
X017902Y018965*
X017831Y019174*
X017785Y01939*
X017771Y019499*
X017769Y019518*
X01774Y019545*
X017665Y019607*
Y019608*
Y019685*
G37*
G36*
X019685Y003448D02*
X019492Y003435D01*
X019302Y003398*
X019119Y003335*
X018945Y00325*
X018784Y003142*
X018639Y003015*
X018511Y002869*
X018404Y002708*
X018318Y002535*
X018256Y002351*
X018218Y002162*
X018205Y001969*
X018218Y001775*
X018256Y001586*
X018318Y001402*
X018404Y001229*
X018511Y001068*
X018639Y000922*
X018784Y000795*
X018945Y000687*
X019119Y000602*
X019302Y000539*
X019492Y000502*
X019685Y000489*
X019878Y000502*
X020068Y000539*
X020251Y000602*
X020425Y000687*
X020586Y000795*
X020731Y000922*
X020859Y001068*
X020966Y001229*
X021052Y001402*
X021114Y001586*
X021152Y001775*
X021165Y001969*
X021152Y002162*
X021114Y002351*
X021052Y002535*
X020966Y002708*
X020859Y002869*
X020731Y003015*
X020586Y003142*
X020425Y00325*
X020251Y003335*
X020068Y003398*
X019878Y003435*
X019685Y003448*
G37*
G36*
X001969D02*
X001775Y003435D01*
X001586Y003398*
X001402Y003335*
X001229Y00325*
X001068Y003142*
X000922Y003015*
X000795Y002869*
X000687Y002708*
X000602Y002535*
X000539Y002351*
X000502Y002162*
X000489Y001969*
X000502Y001775*
X000539Y001586*
X000602Y001402*
X000687Y001229*
X000795Y001068*
X000922Y000922*
X001068Y000795*
X001229Y000687*
X001402Y000602*
X001586Y000539*
X001775Y000502*
X001969Y000489*
X002162Y000502*
X002351Y000539*
X002535Y000602*
X002708Y000687*
X002869Y000795*
X003015Y000922*
X003142Y001068*
X00325Y001229*
X003335Y001402*
X003398Y001586*
X003435Y001775*
X003448Y001969*
X003435Y002162*
X003398Y002351*
X003335Y002535*
X00325Y002708*
X003142Y002869*
X003015Y003015*
X002869Y003142*
X002708Y00325*
X002535Y003335*
X002351Y003398*
X002162Y003435*
X001969Y003448*
G37*
%LNpcb_up_invert_01022019-3*%
%LPD*%
G36*
X007972Y017264D02*
X007402Y016693D01*
X00626*
Y01628*
Y015423*
X00625Y015433*
X005591*
X005443Y015285*
Y014793*
X00436*
X004331Y014823*
Y015896*
X004715Y01628*
X005699*
Y016673*
X005827Y016801*
Y017224*
X005846*
Y017264*
X005935Y017352*
X007028*
X007185Y01751*
Y01813*
X007972*
Y017264*
G37*
G36*
X015827Y018356D02*
Y017628D01*
X015502Y017303*
Y015984*
X01525Y015732*
X013773*
X013622Y015581*
Y01498*
X012756Y01499*
Y015965*
X012968Y016177*
X014612*
X015079Y016644*
Y018287*
X015236Y018445*
X015738*
X015827Y018356*
G37*
G36*
X011651Y016523D02*
Y015817D01*
X011647Y015812*
X011619Y015744*
X01161Y015672*
Y015036*
X011619Y014964*
X011647Y014897*
X011651Y014892*
Y014833*
X011594Y014776*
X01144*
X011413Y014854*
X01143Y014867*
X011468Y014917*
X011492Y014974*
X0115Y015036*
Y015207*
X011142*
Y015354*
X010994*
Y015908*
X010961Y015903*
X010903Y015879*
X010853Y015841*
X010815Y015792*
X010792Y015734*
X010783Y015672*
Y015663*
X010619*
X010596Y01568*
X010541Y015703*
X010522Y015705*
Y015256*
X010226*
Y015705*
X010207Y015703*
X010152Y01568*
X010104Y015644*
X010068Y015596*
X010045Y015541*
X010037Y015482*
Y015475*
X00998*
X009888Y015463*
X009802Y015428*
X009767Y015401*
X009688Y01544*
Y015545*
X009722Y015573*
X010269Y016119*
X010915*
X011023Y01613*
X011127Y016162*
X011223Y016213*
X011307Y016282*
X011578Y016553*
X011651Y016523*
G37*
G36*
X013622Y016476D02*
X012411D01*
X012244Y016309*
Y015039*
Y014803*
X011978Y014537*
X011604*
Y014616*
X011772Y014783*
Y01503*
Y016654*
X012146Y017028*
X013622*
Y016476*
G37*
G36*
X009439Y014921D02*
X008435D01*
X008268Y014754*
Y013976*
X007854*
Y015157*
X008268Y015571*
X009439*
Y014921*
G37*
G36*
X007657Y013917D02*
X007736Y013839D01*
Y013691*
X007697Y013652*
X007362*
X007185Y013829*
Y014646*
X007657*
Y013917*
G37*
G36*
X007866Y01611D02*
Y0156D01*
X007394Y015128*
X007136*
X006791Y014783*
Y014596*
Y01378*
X006998Y013573*
Y013366*
X006929Y013297*
X006506*
X006319Y013484*
Y014596*
Y015167*
X006486Y015335*
X006949*
X007313Y015699*
Y016117*
X007387Y016191*
X007785*
X007866Y01611*
G37*
G36*
X007785Y013159D02*
X007864Y013081D01*
Y012959*
X006443*
X006201Y012717*
Y012274*
X005797*
Y013159*
X007785*
G37*
G36*
X016876Y007294D02*
X016823Y00724D01*
X01674*
X016594Y007225*
X016453Y007183*
X016323Y007113*
X016209Y00702*
X016115Y006906*
X016046Y006776*
X016003Y006635*
X015989Y006488*
X016003Y006342*
X016046Y006201*
X016115Y006071*
X016209Y005957*
X016323Y005863*
X016453Y005794*
X016594Y005751*
X01674Y005737*
X016801*
X016821Y005735*
X016841Y005737*
X018467*
X018613Y005751*
X018754Y005794*
X018884Y005863*
X018998Y005957*
X019213Y006171*
X019291Y006139*
Y00435*
X01906Y004303*
X018794Y004215*
X01854Y004096*
X018301Y00395*
X018081Y003776*
X017883Y003578*
X017708Y003359*
X017561Y00312*
X017442Y002867*
X017353Y002601*
X017303Y002362*
X00435*
X004303Y002593*
X004215Y002859*
X004096Y003114*
X00395Y003352*
X003776Y003572*
X003578Y003771*
X003359Y003945*
X00312Y004093*
X002867Y004212*
X002601Y004301*
X002364Y00435*
X002363Y006075*
X002442Y006112*
X002496Y006068*
X002626Y005998*
X002767Y005956*
X002913Y005941*
X003913*
X00406Y005956*
X004201Y005998*
X004331Y006068*
X004445Y006161*
X005445Y007161*
X005538Y007275*
X005565Y007325*
X005647Y007311*
X005651Y007278*
X005687Y007191*
X005743Y007117*
X006421Y00644*
X006495Y006383*
X006581Y006348*
X006673Y006336*
X007604*
X00765Y006298*
X007732Y006254*
X007821Y006227*
X007913Y006218*
X008006Y006227*
X008095Y006254*
X008177Y006298*
X008249Y006357*
X008308Y006429*
X008352Y006511*
X008379Y0066*
X008388Y006693*
X008379Y006786*
X008352Y006875*
X008308Y006957*
X008249Y007029*
X008177Y007088*
X008095Y007132*
X008006Y007159*
X007913Y007168*
X007821Y007159*
X007732Y007132*
X00765Y007088*
X007604Y00705*
X006821*
X006353Y007518*
Y008875*
Y008881*
Y009091*
X006344Y009158*
X006318Y00922*
X006277Y009274*
X006252Y009293*
X006244Y009375*
X006249Y009389*
Y00939*
X006284Y009435*
X006305Y009487*
X006313Y009544*
Y009613*
X005996*
Y009908*
X006313*
Y009932*
X006392Y009964*
X006646Y00971*
X00671Y009661*
X006784Y009631*
X006821Y009626*
Y009544*
X006829Y009477*
X006855Y009415*
X006869Y009396*
Y009239*
X006855Y00922*
X006829Y009158*
X006821Y009091*
Y008658*
X006829Y008591*
X006855Y008529*
X006896Y008476*
X00695Y008435*
X007012Y008409*
X007079Y0084*
X007276*
X007342Y008409*
X007405Y008435*
X007458Y008476*
X007499Y008529*
X007525Y008591*
X007534Y008658*
Y009091*
X007525Y009158*
X007499Y00922*
X007485Y009239*
Y009396*
X007499Y009415*
X007525Y009477*
X007534Y009544*
Y009626*
X007567Y009631*
X007597Y009643*
X007641Y009661*
X007704Y00971*
X007954Y00996*
X008003Y010023*
X008033Y010098*
X008044Y010177*
Y011926*
X008209*
X008288Y011937*
X008363Y011968*
X008399Y011996*
X008661*
X008678Y011998*
X0089*
X008937Y012006*
X009016Y011988*
X009426*
Y011319*
X009438Y011226*
X009447Y011206*
Y011093*
X009455Y011033*
X009477Y010978*
X009485Y010969*
X009437Y010901*
X009401Y010912*
X0094Y010919*
X009365Y011005*
X009308Y011079*
X009234Y011136*
X009148Y011172*
X0091Y011178*
X009097Y011182*
Y011545*
X009088Y011615*
X009061Y011679*
X009018Y011735*
X008963Y011777*
X008898Y011804*
X008829Y011813*
X008612*
X008543Y011804*
X008478Y011777*
X008423Y011735*
X00838Y011679*
X008353Y011615*
X008344Y011545*
Y011312*
Y011309*
Y011008*
X008342Y011005*
X008306Y010919*
X008294Y010827*
X008306Y010734*
X008342Y010648*
X008344Y010646*
Y010614*
X008342Y010612*
X008306Y010526*
X008294Y010433*
X008306Y010341*
X008342Y010254*
X008344Y010252*
Y008327*
X008354Y008247*
X008385Y008173*
X008434Y008109*
X010078Y006465*
X010141Y006417*
X010216Y006386*
X010295Y006375*
X014764*
X014843Y006386*
X014874Y006399*
X014918Y006417*
X014981Y006465*
X016094Y007578*
X016142Y007641*
X016173Y007716*
X016184Y007795*
Y008627*
X016198Y008646*
X016224Y008708*
X016233Y008775*
Y009208*
X016224Y009275*
X016198Y009337*
X016184Y009356*
Y009478*
X016198Y009497*
X016224Y009559*
X016233Y009626*
Y010059*
X016224Y010126*
X016198Y010188*
X016157Y010242*
X016103Y010283*
X016041Y010308*
X015974Y010317*
X015778*
X015711Y010308*
X015648Y010283*
X015595Y010242*
X015554Y010188*
X015528Y010126*
X015519Y010059*
Y009626*
X015528Y009559*
X015554Y009497*
X015568Y009478*
Y009356*
X015554Y009337*
X015528Y009275*
X015519Y009208*
Y008775*
X015528Y008708*
X015554Y008646*
X015568Y008627*
Y007923*
X014636Y006991*
X013979*
X013959Y00707*
X014004Y007093*
X014076Y007153*
X014135Y007224*
X014179Y007307*
X014206Y007396*
X014215Y007488*
X014206Y007581*
X014179Y00767*
X014135Y007752*
X014076Y007824*
X014004Y007883*
X013922Y007927*
X013833Y007954*
X01374Y007963*
X013648Y007954*
X013558Y007927*
X013476Y007883*
X013404Y007824*
X013345Y007752*
X013302Y00767*
X013275Y007581*
X013265Y007488*
X013275Y007396*
X013302Y007307*
X013345Y007224*
X013404Y007153*
X013476Y007093*
X013521Y00707*
X013501Y006991*
X010423*
X008959Y008454*
Y010009*
X009038Y010078*
X009055Y010076*
X009148Y010088*
X009215Y010116*
X009281*
X009287Y010112*
X009354Y010084*
X009391Y010079*
Y01*
X009354Y009995*
X009287Y009967*
X009229Y009923*
X009185Y009865*
X009157Y009798*
X009147Y009725*
Y009487*
X009157Y009415*
X009185Y009348*
X009229Y00929*
X009287Y009246*
X009317Y009233*
Y009094*
X009333Y008976*
X009378Y008866*
X009451Y008772*
X009805Y008417*
X0099Y008345*
X01001Y008299*
X010128Y008284*
X011565*
X011683Y008299*
X011793Y008345*
X011888Y008417*
X012085Y008614*
X012157Y008709*
X012203Y008819*
X012218Y008937*
X012216Y008956*
X012285Y009025*
X012333Y009088*
X012364Y009162*
X012375Y009242*
Y00958*
X012453Y009613*
X013231Y008835*
X013207Y008758*
X013196Y008642*
X013207Y008526*
X013241Y008415*
X013296Y008312*
X01337Y008222*
X01346Y008148*
X013562Y008093*
X013674Y00806*
X013789Y008048*
X013905Y00806*
X014016Y008093*
X014119Y008148*
X014209Y008222*
X014283Y008312*
X014338Y008415*
X014371Y008526*
X014454Y008562*
X014467Y008551*
X01453Y008526*
X014596Y008517*
X014793*
X01486Y008526*
X014922Y008551*
X014976Y008593*
X015017Y008646*
X015043Y008708*
X015051Y008775*
Y009208*
X015043Y009275*
X015017Y009337*
X014998Y009361*
X014976Y009443*
X015017Y009497*
X015043Y009559*
X015051Y009626*
Y010059*
X015043Y010126*
X015017Y010188*
X014976Y010242*
X014922Y010283*
X01486Y010308*
X014793Y010317*
X014596*
X01453Y010308*
X014467Y010283*
X014414Y010242*
X014389Y010209*
X014319Y010206*
X014298Y010213*
X014283Y010241*
X014209Y010331*
X014119Y010405*
X014016Y01046*
X013905Y010493*
X013789Y010505*
X01373Y010499*
X013715Y010577*
X01377Y010593*
X013873Y010648*
X013963Y010722*
X014037Y010812*
X014092Y010915*
X014125Y011026*
X014137Y011142*
X014126Y011253*
X014132Y01126*
X014202Y011288*
X014265Y011239*
X01434Y011209*
X014407Y0112*
Y011093*
X014416Y011023*
X014443Y010958*
X014486Y010903*
X014541Y01086*
X014606Y010834*
X014675Y010824*
X014892*
X014961Y010834*
X015026Y01086*
X015081Y010903*
X015124Y010958*
X015151Y011023*
X01516Y011093*
Y011274*
X015178Y011288*
X015431Y011541*
X01551Y011509*
Y011467*
X016183*
Y011545*
X016175Y011604*
X016152Y011659*
X016116Y011707*
X016107Y011714*
X016105Y011758*
X016115Y011806*
X016157Y011838*
X016198Y011892*
X016224Y011954*
X016233Y012021*
Y012454*
X016224Y012521*
X016198Y012583*
X016157Y012637*
X016103Y012678*
X016056Y012697*
X016047Y012743*
X016052Y012781*
X016089Y012796*
X016144Y012839*
X016187Y012894*
X016214Y012959*
X016223Y013028*
Y013481*
X016214Y01355*
X016187Y013615*
X016144Y013671*
X016148Y013767*
X016157Y013774*
X016189Y013816*
X016876*
Y007294*
G37*
G36*
X011298Y011936D02*
Y011787D01*
X011275Y011777*
X011219Y011735*
X011176Y011679*
X01115Y011615*
X011141Y011545*
Y011093*
X01115Y011023*
X011176Y010958*
X011201Y010927*
X011203Y010915*
X011189Y010853*
X011178Y010835*
X01115Y010824*
X011097Y010783*
X011056Y010729*
X011045Y010703*
X01096*
X010957Y01071*
X010928Y010747*
Y011035*
X010917Y011114*
X010887Y011188*
X010838Y011252*
X010807Y011283*
X010811Y011319*
X010799Y011411*
X01079Y011432*
Y011545*
X010783Y011604*
X01076Y011659*
X010724Y011707*
X010676Y011743*
X010621Y011766*
X010601Y011768*
Y011319*
X010306*
Y011768*
X010286Y011766*
X010231Y011743*
X01022Y011734*
X010141Y011773*
Y011988*
X010669*
Y012002*
X011232*
X011298Y011936*
G37*
G36*
X008937Y011171D02*
X009402Y010707D01*
X009793*
Y010236*
X008504*
Y011526*
X008937*
Y011171*
G37*
G36*
X017303Y019289D02*
X017351Y01906D01*
X017439Y018794*
X017557Y01854*
X017704Y018301*
X017878Y018081*
X018075Y017883*
X018295Y017708*
X018533Y017561*
X018787Y017442*
X019053Y017353*
X019291Y017303*
Y008105*
X019213Y008068*
X019158Y008113*
X019028Y008183*
X018887Y008225*
X01874Y00824*
X018594Y008225*
X018458Y008184*
X018439*
X01838Y00822*
Y014163*
Y015177*
X018365Y015324*
X018322Y015465*
X018253Y015595*
X018159Y015709*
X01686Y017008*
X016746Y017101*
X016616Y017171*
X016475Y017214*
X016329Y017228*
X015719*
X015692Y017301*
X015751Y017362*
X016043*
Y018858*
X014862*
Y017362*
X014867*
X014923Y017283*
X014919Y017254*
Y016801*
X014928Y016732*
X014948Y016683*
X014562Y016297*
X01385*
X01378Y016317*
Y017183*
X012598*
Y017148*
X012146*
X0121Y017139*
X012061Y017113*
X012042Y017095*
X011967Y01713*
X011971Y017175*
Y017362*
X012008*
Y018858*
X010827*
Y017368*
X010686Y017227*
X010039*
X009931Y017216*
X009827Y017185*
X009732Y017134*
X009648Y017065*
X008939Y016356*
X00887Y016272*
X008819Y016177*
X008788Y016073*
X008777Y015965*
X008788Y015857*
X008814Y015768*
X008729Y015733*
X008706Y015715*
X008683Y015733*
X008596Y015768*
X008504Y015781*
X008411Y015768*
X008325Y015733*
X008271Y015691*
X008268*
X008222Y015682*
X008183Y015656*
X008111Y015584*
X008032Y015617*
Y016142*
X008022Y016219*
X007992Y016291*
X007945Y016352*
X007883Y0164*
X007811Y016429*
X007734Y01644*
X007459*
X007382Y016429*
X00731Y0164*
X007248Y016352*
X007201Y016291*
X007171Y016219*
X007161Y016142*
Y015717*
X006899Y015455*
X006486*
X006419Y015519*
Y016437*
X00638*
Y016572*
X007402*
X007448Y016582*
X007487Y016608*
X008058Y017179*
X008084Y017218*
X008093Y017264*
Y017362*
X008169*
Y018858*
X006988*
Y017483*
X006978Y017473*
X006303*
X006286Y017486*
X006221Y017513*
X006152Y017522*
X005935*
X005866Y017513*
X005801Y017486*
X005745Y017443*
X005703Y017388*
X005676Y017323*
X005667Y017254*
Y016812*
X005614Y016758*
X005588Y016719*
X005578Y016673*
Y016437*
X005553*
Y0164*
X004715*
X004668Y016391*
X004629Y016365*
X004246Y015981*
X004219Y015942*
X00421Y015896*
Y015111*
X004176Y014999*
X004162Y014852*
Y01249*
Y008004*
X003602Y007445*
X002913*
X002767Y00743*
X002626Y007387*
X002496Y007318*
X002442Y007274*
X002363Y007311*
X00236Y017303*
X002593Y017351*
X002859Y017439*
X003114Y017557*
X003352Y017704*
X003572Y017878*
X003771Y018075*
X003945Y018295*
X004093Y018533*
X004212Y018787*
X004301Y019053*
X004351Y019293*
X017303Y019289*
G37*
%LNpcb_up_invert_01022019-4*%
%LPC*%
G36*
X011289Y015908D02*
Y015502D01*
X0115*
Y015672*
X011492Y015734*
X011468Y015792*
X01143Y015841*
X01138Y015879*
X011323Y015903*
X011289Y015908*
G37*
G36*
X016183Y011171D02*
X015994D01*
Y010869*
X016014Y010872*
X016069Y010895*
X016116Y010931*
X016152Y010978*
X016175Y011033*
X016183Y011093*
Y011171*
G37*
G36*
X015699D02*
X01551D01*
Y011093*
X015518Y011033*
X01554Y010978*
X015577Y010931*
X015624Y010895*
X015679Y010872*
X015699Y010869*
Y011171*
G37*
G36*
X005128Y017477D02*
Y017175D01*
X005317*
Y017254*
X005309Y017313*
X005286Y017368*
X00525Y017415*
X005203Y017452*
X005148Y017474*
X005128Y017477*
G37*
G36*
X004833D02*
X004813Y017474D01*
X004758Y017452*
X004711Y017415*
X004674Y017368*
X004651Y017313*
X004644Y017254*
Y017175*
X004833*
Y017477*
G37*
G36*
X01438D02*
Y017175D01*
X014569*
Y017254*
X014561Y017313*
X014538Y017368*
X014502Y017415*
X014455Y017452*
X0144Y017474*
X01438Y017477*
G37*
G36*
X014085D02*
X014065Y017474D01*
X01401Y017452*
X013963Y017415*
X013926Y017368*
X013903Y017313*
X013896Y017254*
Y017175*
X014085*
Y017477*
G37*
G36*
X005317Y01688D02*
X005128D01*
Y016578*
X005148Y016581*
X005203Y016603*
X00525Y01664*
X005286Y016687*
X005309Y016742*
X005317Y016801*
Y01688*
G37*
G36*
X004833D02*
X004644D01*
Y016801*
X004651Y016742*
X004674Y016687*
X004711Y01664*
X004758Y016603*
X004813Y016581*
X004833Y016578*
Y01688*
G37*
G36*
X014085D02*
X013896D01*
Y016801*
X013903Y016742*
X013926Y016687*
X013963Y01664*
X01401Y016603*
X014065Y016581*
X014085Y016578*
Y01688*
G37*
G36*
X014569D02*
X01438D01*
Y016578*
X0144Y016581*
X014455Y016603*
X014502Y01664*
X014538Y016687*
X014561Y016742*
X014569Y016801*
Y01688*
G37*
%LNpcb_up_invert_01022019-5*%
%LPD*%
G54D16*
X00872Y011319D03*
X009783D03*
X015295Y017028D03*
X014232D03*
X014783Y013255D03*
X015846D03*
Y011319D03*
X014783D03*
X011517D03*
X010454D03*
X007148Y010713D03*
X006085D03*
X006043Y017028D03*
X00498D03*
X009311Y015256D03*
X010374D03*
G54D17*
X009744Y009606D03*
Y010472D03*
G54D18*
X009843Y013386D03*
G54D19*
X011024Y012234D03*
G54D20*
X011024Y01249D03*
Y012746D03*
Y013258D03*
Y013002D03*
Y014026D03*
Y014282D03*
Y01377D03*
Y013514D03*
Y014537D03*
X008661D03*
Y013514D03*
Y01377D03*
Y014282D03*
Y014026D03*
Y013002D03*
Y013258D03*
Y012746D03*
Y01249D03*
Y012234D03*
G54D21*
X013189Y01514D03*
G54D22*
X013189Y01675D03*
G54D23*
X015876Y015167D03*
X014695D03*
X015876Y014173D03*
X014695D03*
Y012238D03*
X015876D03*
Y009843D03*
X014695D03*
X015876Y008992D03*
X014695D03*
X005996Y008875D03*
X007177D03*
Y009761D03*
X005996D03*
Y011631D03*
X007177D03*
X007185Y012493D03*
X006004D03*
G54D24*
X010669Y009646D03*
X011378D03*
X010669Y010433D03*
X011378D03*
G54D25*
X006555Y014468D03*
X007421D03*
X012008Y015354D03*
X011142D03*
G54D26*
X007596Y015846D03*
G54D27*
X005986Y015846D03*
G54D45*
X007185Y012493D02*
Y01259D01*
X007342Y012746*
X008661*
X012933Y010768D02*
Y011782D01*
Y010768D02*
X013789Y009911D01*
X012136Y012579D02*
X012933Y011782D01*
X011909Y01311D02*
X012785D01*
X011762Y013258D02*
X011909Y01311D01*
X012785D02*
X013337Y012559D01*
X011699Y012579D02*
X012136D01*
X007579Y01377D02*
X008661D01*
X00815Y014026D02*
X008661D01*
X012325Y014282D02*
X012453Y014409D01*
X011683Y014282D02*
X012325D01*
X011683D02*
D01*
X011024D02*
X011683D01*
X012025Y011901D02*
X012598Y011327D01*
X012015Y011901D02*
X012025D01*
X011441Y012474D02*
X012015Y011901D01*
X01124Y012474D02*
X011441D01*
X011224Y01249D02*
X01124Y012474D01*
X011024Y01249D02*
X011224D01*
X013789Y009911D02*
X013858Y009843D01*
X014695*
X008661Y01249D02*
X009213D01*
X008661Y013258D02*
X009715D01*
X007866Y013514D02*
X008661D01*
X012254Y012835D02*
X013455Y011634D01*
X011823Y012835D02*
X012254D01*
X012598Y010827D02*
Y011327D01*
X011306Y012238D02*
X011537Y012007D01*
X011027Y012238D02*
X011306D01*
X011535Y012742D02*
X011699Y012579D01*
X011028Y012742D02*
X011535D01*
X013455Y011392D02*
Y011634D01*
Y011392D02*
X013543Y011304D01*
Y011142D02*
Y011304D01*
X011656Y013002D02*
X011823Y012835D01*
X011024Y013002D02*
X011656D01*
X011024Y013258D02*
X011762D01*
X01188Y014026D02*
X012018Y013888D01*
X011545Y014026D02*
X01188D01*
X012018Y013888D02*
X012697D01*
X011545Y014026D02*
D01*
X011024D02*
X011545D01*
X011024Y012234D02*
X011027Y012238D01*
G54D46*
X006752Y013415D02*
X007768D01*
X006545Y013622D02*
X006752Y013415D01*
X007768D02*
X007866Y013514D01*
X006181Y013002D02*
X008661D01*
X008061Y014114D02*
X00815Y014026D01*
X008209Y012234D02*
X008661D01*
X006004Y012825D02*
X006181Y013002D01*
X006004Y012493D02*
Y012825D01*
X009213Y01249D02*
X009783Y013061D01*
X009715Y013258D02*
X009783Y013327D01*
X006545Y013622D02*
Y014459D01*
X006555Y014468*
X007461Y013888D02*
Y014429D01*
X007421Y014468D02*
X007461Y014429D01*
Y013888D02*
X007579Y01377D01*
X011537Y011339D02*
Y012007D01*
X011742Y01377D02*
X012008Y013504D01*
X011024Y01377D02*
X011742D01*
X011024D02*
D01*
X012008Y014724D02*
Y015354D01*
X011821Y014537D02*
X012008Y014724D01*
X011024Y014537D02*
X011821D01*
X00813Y014282D02*
X008661D01*
X00813Y014537D02*
X008661D01*
G54D47*
X007736Y012075D02*
X007896Y012234D01*
X007736Y010177D02*
Y012075D01*
X007487Y009928D02*
X007736Y010177D01*
X014446Y015177D02*
X014695D01*
X013898Y013888D02*
X014419Y013366D01*
X012697Y013888D02*
X013898D01*
X008652Y008327D02*
Y011309D01*
Y008327D02*
X010295Y006683D01*
X014764*
X015876Y007795*
Y008992*
Y009843*
X014277Y008996D02*
X01469D01*
X014695Y008992*
X013923Y008642D02*
X014277Y008996D01*
X013789Y008642D02*
X013923D01*
X014715Y011506D02*
X014961D01*
X015525Y01207*
X015827*
X015876Y012119*
Y012238*
X007274Y009928D02*
X007487D01*
X007128D02*
X007177Y009879D01*
Y009761D02*
Y009879D01*
X007896Y012234D02*
X008209D01*
X004913Y015673D02*
X005086Y015846D01*
X005986*
X004913Y014852D02*
Y015673D01*
X010454Y011201D02*
Y011319D01*
Y011201D02*
X01062Y011035D01*
Y010482D02*
Y011035D01*
Y010482D02*
X010669Y010433D01*
Y009646D02*
D01*
Y010433D01*
X006085Y010707D02*
X006864Y009928D01*
X006085Y010707D02*
Y010713D01*
X006864Y009928D02*
X007128D01*
X007177Y009761D02*
Y00976D01*
Y008875D02*
Y00976D01*
Y008875D02*
D01*
X01186Y011309D02*
X012067Y011102D01*
Y009242D02*
Y011102D01*
X013583Y013445D02*
X014203Y012825D01*
X012067Y013445D02*
X013583D01*
X012008Y013504D02*
X012067Y013445D01*
X014203Y011722D02*
Y012825D01*
X014419Y011506D02*
X014715D01*
X014783Y011437*
Y011319D02*
Y011437D01*
X014203Y011722D02*
X014419Y011506D01*
Y013366D02*
X014744D01*
X014705Y014163D02*
X015148D01*
X014695Y014173D02*
X014705Y014163D01*
X015148D02*
X015354Y013957D01*
Y013455D02*
Y013957D01*
Y013455D02*
X015541Y013268D01*
X015833*
X015846Y013255*
X014739Y01321D02*
X014783Y013255D01*
X014739Y012282D02*
Y01321D01*
X014695Y012238D02*
X014739Y012282D01*
X011762Y008937D02*
X012067Y009242D01*
G54D48*
X013678Y014409D02*
X014446Y015177D01*
X012453Y014409D02*
X013678D01*
X012598Y009833D02*
X013789Y008642D01*
X012598Y009833D02*
Y010827D01*
G54D49*
X010374Y015256D02*
Y015285D01*
X010394Y015305*
X0111*
X011142Y015346*
Y015354*
X009449Y014173D02*
X009843Y014567D01*
Y01498D02*
X00998Y015118D01*
X010354*
X010374Y015138*
Y015256*
X009843Y014567D02*
Y01498D01*
X017618Y014173D02*
X017628Y014163D01*
X017618Y015167D02*
X017628Y015177D01*
X015876Y015167D02*
X017618D01*
X015876Y014173D02*
X017618D01*
X006673Y006693D02*
X007913D01*
X005996Y00737D02*
X006673Y006693D01*
X005996Y00737D02*
Y008875D01*
X009783Y013061D02*
Y013327D01*
Y011319D02*
Y013061D01*
Y013327D02*
X009843Y013386D01*
X009783Y011319D02*
X010454D01*
X007177Y011512D02*
Y011631D01*
X007167Y011503D02*
X007177Y011512D01*
X007167Y010733D02*
Y011503D01*
X007148Y010713D02*
X007167Y010733D01*
X009331Y015276D02*
Y015965D01*
X011378Y009646D02*
X011998D01*
X011378Y010433D02*
X011998D01*
X011537Y011339D02*
X011772D01*
X011517Y011319D02*
X011537Y011339D01*
X009311Y015256D02*
X009331Y015276D01*
G54D50*
X017628Y006488D02*
Y014163D01*
X016823Y006488D02*
X017628D01*
X018467*
X017628Y014163D02*
Y015177D01*
X016821Y006486D02*
X016823Y006488D01*
X01674D02*
X016823D01*
X01874Y006762D02*
Y007488D01*
X018467Y006488D02*
X01874Y006762D01*
X016329Y016476D02*
X017628Y015177D01*
X015718Y016476D02*
X016329D01*
X004913Y01249D02*
Y014852D01*
Y007693D02*
Y01249D01*
X003913Y006693D02*
X004913Y007693D01*
X002913Y006693D02*
X003913D01*
G54D51*
X004906Y011628D02*
X005888D01*
X004913Y01249D02*
X005896D01*
X009774Y009094D02*
X010128Y00874D01*
X009774Y009094D02*
Y009518D01*
X010128Y00874D02*
X011565D01*
X011762Y008937*
G54D52*
X010039Y016673D02*
X010915D01*
X009331Y015965D02*
X010039Y016673D01*
X010915D02*
X011417Y017175D01*
Y01811*
G54D53*
X008061Y014114D02*
Y014882D01*
X008435Y015256*
X009311*
G54D54*
X014075Y01811D03*
X010039D03*
X006201D03*
G54D55*
X015453Y01811D03*
X011417D03*
X007579D03*
G54D56*
X007913Y006693D03*
X002913D03*
X004913Y007693D03*
X01374Y007488D03*
X01874D03*
X01674Y006488D03*
G54D57*
X013337Y012559D03*
X013543Y011142D03*
X013789Y009911D03*
Y008642D03*
G54D58*
X001969Y019685D03*
X019685D03*
Y001969D03*
X001969D03*
G54D59*
X020079Y015354D03*
Y01063D03*
Y005906D03*
X018898Y012992D03*
X016535Y017717D03*
Y012992D03*
Y008268D03*
X015354Y005906D03*
X016535Y003543D03*
X012992Y005906D03*
X014173Y003543D03*
X01063Y005906D03*
X011811Y003543D03*
X009449Y008268D03*
X008268Y005906D03*
X009449Y003543D03*
X005906Y005906D03*
X007087Y003543D03*
X004724Y017717D03*
X003543Y015354D03*
Y01063D03*
X004724Y003543D03*
X002362Y012992D03*
Y008268D03*
X013898Y013888D03*
X020669Y018307D03*
X020965Y017717D03*
X020669Y017126D03*
X020965Y016535D03*
X020669Y015945D03*
X020965Y015354D03*
X020669Y014764D03*
X020965Y014173D03*
X020669Y013583D03*
X020965Y012992D03*
X020669Y012402D03*
X020965Y011811D03*
X020669Y01122D03*
X020965Y01063D03*
X020669Y010039D03*
X020965Y009449D03*
X020669Y008858D03*
X020965Y008268D03*
X020669Y007677D03*
X020965Y007087D03*
X020669Y006496D03*
X020965Y005906D03*
X020669Y005315D03*
X020965Y004724D03*
X020669Y004134D03*
X020965Y003543D03*
X020669Y000591D03*
X020374Y017717D03*
X020079Y017126D03*
X020374Y016535D03*
X020079Y015945D03*
Y014764D03*
X020374Y014173D03*
X020079Y013583D03*
X020374Y012992D03*
X020079Y012402D03*
X020374Y011811D03*
X020079Y01122D03*
Y010039D03*
X020374Y009449D03*
X020079Y008858D03*
X020374Y008268D03*
X020079Y007677D03*
X020374Y007087D03*
X020079Y006496D03*
Y005315D03*
X020374Y004724D03*
X020079Y004134D03*
X020374Y003543D03*
X019193D03*
X018307Y020669D03*
Y002953D03*
Y000591D03*
X017717Y020669D03*
X018012Y020079D03*
Y002362D03*
X017717Y001772D03*
Y000591D03*
X017126Y020669D03*
X017421Y020079D03*
X017126Y001772D03*
X017421Y001181D03*
X017126Y000591D03*
X016535Y020669D03*
X016831Y020079D03*
X016535Y001772D03*
X016831Y001181D03*
X016535Y000591D03*
X015945Y020669D03*
X01624Y020079D03*
X015945Y001772D03*
X01624Y001181D03*
X015945Y000591D03*
X015354Y020669D03*
X01565Y020079D03*
X015354Y001772D03*
X01565Y001181D03*
X015354Y000591D03*
X014764Y020669D03*
X015059Y020079D03*
X014764Y001772D03*
X015059Y001181D03*
X014764Y000591D03*
X014173Y020669D03*
X014468Y020079D03*
X014173Y001772D03*
X014468Y001181D03*
X014173Y000591D03*
X013583Y020669D03*
X013878Y020079D03*
X013583Y001772D03*
X013878Y001181D03*
X013583Y000591D03*
X012992Y020669D03*
X013287Y020079D03*
X012992Y001772D03*
X013287Y001181D03*
X012992Y000591D03*
X012402Y020669D03*
X012697Y020079D03*
X012402Y001772D03*
X012697Y001181D03*
X012402Y000591D03*
X011811Y020669D03*
X012106Y020079D03*
X011811Y001772D03*
X012106Y001181D03*
X011811Y000591D03*
X01122Y020669D03*
X011516Y020079D03*
X01122Y001772D03*
X011516Y001181D03*
X01122Y000591D03*
X01063Y020669D03*
X010925Y020079D03*
X01063Y001772D03*
X010925Y001181D03*
X01063Y000591D03*
X010039Y020669D03*
X010335Y020079D03*
X010039Y001772D03*
X010335Y001181D03*
X010039Y000591D03*
X009449Y020669D03*
X009744Y020079D03*
X009449Y001772D03*
X009744Y001181D03*
X009449Y000591D03*
X008858Y020669D03*
X009154Y020079D03*
X008858Y001772D03*
X009154Y001181D03*
X008858Y000591D03*
X008268Y020669D03*
X008563Y020079D03*
X008268Y001772D03*
X008563Y001181D03*
X008268Y000591D03*
X007677Y020669D03*
X007972Y020079D03*
X007677Y001772D03*
X007972Y001181D03*
X007677Y000591D03*
X007087Y020669D03*
X007382Y020079D03*
X007087Y001772D03*
X007382Y001181D03*
X007087Y000591D03*
X006496Y020669D03*
X006791Y020079D03*
X006496Y001772D03*
X006791Y001181D03*
X006496Y000591D03*
X005906Y020669D03*
X006201Y020079D03*
X005906Y001772D03*
X006201Y001181D03*
X005906Y000591D03*
X005315Y020669D03*
X00561Y020079D03*
X005315Y001772D03*
X00561Y001181D03*
X005315Y000591D03*
X004724Y020669D03*
X00502Y020079D03*
X004724Y001772D03*
X00502Y001181D03*
X004724Y000591D03*
X004134Y020669D03*
X004429Y020079D03*
X004134Y001772D03*
X004429Y001181D03*
X004134Y000591D03*
X003543Y020669D03*
X002953Y018307D03*
Y000591D03*
X002657Y003543D03*
X001772Y017126D03*
Y015945D03*
Y014764D03*
Y013583D03*
Y012402D03*
Y01122D03*
Y010039D03*
Y008858D03*
Y007677D03*
Y006496D03*
Y005315D03*
Y004134D03*
X001476Y017717D03*
X001181Y017126D03*
X001476Y016535D03*
X001181Y015945D03*
X001476Y015354D03*
X001181Y014764D03*
X001476Y014173D03*
X001181Y013583D03*
X001476Y012992D03*
X001181Y012402D03*
X001476Y011811D03*
X001181Y01122D03*
X001476Y01063D03*
X001181Y010039D03*
X001476Y009449D03*
X001181Y008858D03*
X001476Y008268D03*
X001181Y007677D03*
X001476Y007087D03*
X001181Y006496D03*
X001476Y005906D03*
X001181Y005315D03*
X001476Y004724D03*
X001181Y004134D03*
X001476Y003543D03*
X000591Y020669D03*
Y018307D03*
X000886Y017717D03*
X000591Y017126D03*
X000886Y016535D03*
X000591Y015945D03*
X000886Y015354D03*
X000591Y014764D03*
X000886Y014173D03*
X000591Y013583D03*
X000886Y012992D03*
X000591Y012402D03*
X000886Y011811D03*
X000591Y01122D03*
X000886Y01063D03*
X000591Y010039D03*
X000886Y009449D03*
X000591Y008858D03*
X000886Y008268D03*
X000591Y007677D03*
X000886Y007087D03*
X000591Y006496D03*
X000886Y005906D03*
X000591Y005315D03*
X000886Y004724D03*
X000591Y004134D03*
X000886Y003543D03*
X000591Y002953D03*
Y000591D03*
X014277Y013514D03*
X009449Y012603D03*
Y012997D03*
X010236Y012603D03*
Y012997D03*
Y013386D03*
Y01378D03*
Y014173D03*
X009843Y012603D03*
Y012997D03*
X009449Y013386D03*
Y01378D03*
Y014173D03*
X009843D03*
Y01378D03*
Y013386D03*
X008907Y015059D03*
X008504D03*
X008907Y015423D03*
X008504D03*
X008652Y010827D03*
Y010433D03*
X009055D03*
Y010827D03*
X001969Y017771D03*
X003937Y019685D03*
X017717D03*
X019685Y017717D03*
X018012Y000984D03*
X003642D03*
M02*