LIS3MDL.c:31:6:Init_LIS3MDL	32	static
LIS3MDL.c:46:9:check_LIS3MDL_ID	16	static
LIS3MDL.c:54:6:LIS3MD_Magn_GetXYZ	24	static
LIS3MDL.c:75:13:I2C_GPIO_Init_LIS3MDL	40	static
LIS3MDL.c:95:6:LIS3MDL_Peripheral_Settings	32	static
LIS3MDL.c:150:13:Peripheral_I2C_LIS3MDL	8	static
LIS3MDL.c:189:13:LIS3MDL_IO_Write	40	static
LIS3MDL.c:200:16:LIS3MDL_IO_Read	40	static
