%FSTAX24Y24*%
%MOIN*%
%SFA1B1*%

%IPPOS*%
%AMD14*
4,1,8,0.029500,0.088600,-0.029500,0.088600,-0.059000,0.059100,-0.059000,-0.059100,-0.029500,-0.088600,0.029500,-0.088600,0.059000,-0.059100,0.059000,0.059100,0.029500,0.088600,0.0*
1,1,0.059000,0.029500,0.059100*
1,1,0.059000,-0.029500,0.059100*
1,1,0.059000,-0.029500,-0.059100*
1,1,0.059000,0.029500,-0.059100*
%
%AMD15*
4,1,8,0.039300,0.088600,-0.039300,0.088600,-0.078700,0.049200,-0.078700,-0.049200,-0.039300,-0.088600,0.039300,-0.088600,0.078700,-0.049200,0.078700,0.049200,0.039300,0.088600,0.0*
1,1,0.078800,0.039300,0.049200*
1,1,0.078800,-0.039300,0.049200*
1,1,0.078800,-0.039300,-0.049200*
1,1,0.078800,0.039300,-0.049200*
%
%AMD16*
4,1,8,-0.021600,0.022600,-0.021600,-0.022600,-0.010800,-0.033400,0.010800,-0.033400,0.021600,-0.022600,0.021600,0.022600,0.010800,0.033400,-0.010800,0.033400,-0.021600,0.022600,0.0*
1,1,0.021600,-0.010800,0.022600*
1,1,0.021600,-0.010800,-0.022600*
1,1,0.021600,0.010800,-0.022600*
1,1,0.021600,0.010800,0.022600*
%
%AMD17*
4,1,8,0.009900,0.031500,-0.009900,0.031500,-0.019700,0.021700,-0.019700,-0.021700,-0.009900,-0.031500,0.009900,-0.031500,0.019700,-0.021700,0.019700,0.021700,0.009900,0.031500,0.0*
1,1,0.019600,0.009900,0.021700*
1,1,0.019600,-0.009900,0.021700*
1,1,0.019600,-0.009900,-0.021700*
1,1,0.019600,0.009900,-0.021700*
%
%AMD18*
4,1,8,0.043300,-0.013700,0.043300,0.013700,0.029500,0.027500,-0.029500,0.027500,-0.043300,0.013700,-0.043300,-0.013700,-0.029500,-0.027500,0.029500,-0.027500,0.043300,-0.013700,0.0*
1,1,0.027600,0.029500,-0.013700*
1,1,0.027600,0.029500,0.013700*
1,1,0.027600,-0.029500,0.013700*
1,1,0.027600,-0.029500,-0.013700*
%
%AMD20*
4,1,8,-0.022600,-0.021600,0.022600,-0.021600,0.033400,-0.010800,0.033400,0.010800,0.022600,0.021600,-0.022600,0.021600,-0.033400,0.010800,-0.033400,-0.010800,-0.022600,-0.021600,0.0*
1,1,0.021600,-0.022600,-0.010800*
1,1,0.021600,0.022600,-0.010800*
1,1,0.021600,0.022600,0.010800*
1,1,0.021600,-0.022600,0.010800*
%
%AMD21*
4,1,8,0.031500,-0.009900,0.031500,0.009900,0.021700,0.019700,-0.021700,0.019700,-0.031500,0.009900,-0.031500,-0.009900,-0.021700,-0.019700,0.021700,-0.019700,0.031500,-0.009900,0.0*
1,1,0.019600,0.021700,-0.009900*
1,1,0.019600,0.021700,0.009900*
1,1,0.019600,-0.021700,0.009900*
1,1,0.019600,-0.021700,-0.009900*
%
%AMD22*
4,1,8,0.059000,-0.133900,0.059000,0.133900,0.029500,0.163400,-0.029500,0.163400,-0.059000,0.133900,-0.059000,-0.133900,-0.029500,-0.163400,0.029500,-0.163400,0.059000,-0.133900,0.0*
1,1,0.059000,0.029500,-0.133900*
1,1,0.059000,0.029500,0.133900*
1,1,0.059000,-0.029500,0.133900*
1,1,0.059000,-0.029500,-0.133900*
%
%AMD24*
4,1,8,0.009900,0.078700,-0.009900,0.078700,-0.019700,0.068900,-0.019700,-0.068900,-0.009900,-0.078700,0.009900,-0.078700,0.019700,-0.068900,0.019700,0.068900,0.009900,0.078700,0.0*
1,1,0.019600,0.009900,0.068900*
1,1,0.019600,-0.009900,0.068900*
1,1,0.019600,-0.009900,-0.068900*
1,1,0.019600,0.009900,-0.068900*
%
%AMD47*
4,1,8,-0.055100,0.019600,-0.055100,-0.019600,-0.035400,-0.039300,0.035400,-0.039300,0.055100,-0.019600,0.055100,0.019600,0.035400,0.039300,-0.035400,0.039300,-0.055100,0.019600,0.0*
1,1,0.039400,-0.035400,0.019600*
1,1,0.039400,-0.035400,-0.019600*
1,1,0.039400,0.035400,-0.019600*
1,1,0.039400,0.035400,0.019600*
%
G04~CAMADD=14~8~0.0~0.0~1181.0~1772.0~295.0~0.0~15~0.0~0.0~0.0~0.0~0~0.0~0.0~0.0~0.0~0~0.0~0.0~0.0~0.0~1181.0~1772.0*
%ADD14D14*%
G04~CAMADD=15~8~0.0~0.0~1575.0~1772.0~394.0~0.0~15~0.0~0.0~0.0~0.0~0~0.0~0.0~0.0~0.0~0~0.0~0.0~0.0~0.0~1575.0~1772.0*
%ADD15D15*%
G04~CAMADD=16~8~0.0~0.0~669.0~433.0~108.0~0.0~15~0.0~0.0~0.0~0.0~0~0.0~0.0~0.0~0.0~0~0.0~0.0~0.0~90.0~432.0~668.0*
%ADD16D16*%
G04~CAMADD=17~8~0.0~0.0~394.0~630.0~98.0~0.0~15~0.0~0.0~0.0~0.0~0~0.0~0.0~0.0~0.0~0~0.0~0.0~0.0~0.0~394.0~630.0*
%ADD17D17*%
G04~CAMADD=18~8~0.0~0.0~551.0~866.0~138.0~0.0~15~0.0~0.0~0.0~0.0~0~0.0~0.0~0.0~0.0~0~0.0~0.0~0.0~270.0~866.0~550.0*
%ADD18D18*%
%ADD19R,0.086600X0.055100*%
G04~CAMADD=20~8~0.0~0.0~669.0~433.0~108.0~0.0~15~0.0~0.0~0.0~0.0~0~0.0~0.0~0.0~0.0~0~0.0~0.0~0.0~180.0~668.0~432.0*
%ADD20D20*%
G04~CAMADD=21~8~0.0~0.0~394.0~630.0~98.0~0.0~15~0.0~0.0~0.0~0.0~0~0.0~0.0~0.0~0.0~0~0.0~0.0~0.0~270.0~630.0~394.0*
%ADD21D21*%
G04~CAMADD=22~8~0.0~0.0~3268.0~1181.0~295.0~0.0~15~0.0~0.0~0.0~0.0~0~0.0~0.0~0.0~0.0~0~0.0~0.0~0.0~270.0~1180.0~3267.0*
%ADD22D22*%
%ADD23R,0.393700X0.433100*%
G04~CAMADD=24~8~0.0~0.0~394.0~1575.0~98.0~0.0~15~0.0~0.0~0.0~0.0~0~0.0~0.0~0.0~0.0~0~0.0~0.0~0.0~0.0~394.0~1575.0*
%ADD24D24*%
%ADD25R,0.039400X0.157500*%
%ADD42C,0.039400*%
%ADD43C,0.059100*%
%ADD44C,0.078700*%
%ADD45C,0.029500*%
%ADD46R,0.110200X0.078700*%
G04~CAMADD=47~8~0.0~0.0~787.0~1102.0~197.0~0.0~15~0.0~0.0~0.0~0.0~0~0.0~0.0~0.0~0.0~0~0.0~0.0~0.0~90.0~1102.0~786.0*
%ADD47D47*%
%ADD48C,0.255900*%
%ADD49C,0.055100*%
%ADD50C,0.031500*%
%LNpcbxls6009_28012019-1*%
%LPD*%
G36*
X059205Y031265D02*
X059349Y031221D01*
X059482Y03115*
X059598Y031054*
X059693Y030938*
X059764Y030806*
X059808Y030662*
X059822Y030519*
X059821Y030512*
Y017717*
X059822Y017709*
X059808Y017567*
X059764Y017423*
X059693Y01729*
X059598Y017174*
X059482Y017078*
X059349Y017007*
X059205Y016964*
X059062Y01695*
X059055Y016951*
X048743*
X048713Y017069*
X048769Y017099*
X048844Y01716*
X049267Y017583*
X049328Y017658*
X049374Y017744*
X049402Y017837*
X049412Y017933*
Y018033*
X049487Y018073*
X049562Y018135*
X049624Y01821*
X049669Y018295*
X049698Y018388*
X049707Y018484*
Y021161*
X049698Y021258*
X049669Y021351*
X049624Y021436*
X049562Y021511*
X049487Y021573*
X049402Y021618*
X049379Y021625*
X049374Y021642*
X049328Y021728*
X049319Y021739*
X049333Y021854*
X049347Y021882*
X049351Y021886*
X049397Y021921*
X049444Y021983*
X049474Y022054*
X049484Y022132*
Y022814*
X049485Y02282*
Y023363*
X050134*
Y023159*
X050148Y023057*
X050188Y022961*
X050251Y022879*
X05066Y022469*
X050646Y022316*
X050624Y022298*
X05055Y022208*
X050495Y022105*
X050461Y021994*
X05045Y021878*
X050461Y021762*
X050495Y021651*
X05055Y021548*
X050624Y021458*
X050714Y021385*
X050816Y02133*
X050826Y021327*
X052661Y019492*
X052751Y019418*
X052854Y019363*
X052965Y019329*
X053081Y019318*
X055768*
X055883Y019329*
X055995Y019363*
X056097Y019418*
X056187Y019492*
X057427Y020732*
X057501Y020822*
X057556Y020924*
X05759Y021036*
X057601Y021152*
Y024193*
X057756*
Y025374*
X057037*
X057008Y025377*
X055974*
X054963Y026388*
Y027018*
Y027023*
Y027904*
X054954Y028*
X054925Y028093*
X05488Y028178*
X054818Y028253*
X054743Y028315*
X054658Y02836*
X054565Y028389*
X054468Y028398*
X053878*
X053781Y028389*
X053689Y02836*
X053603Y028315*
X053528Y028253*
X053467Y028178*
X053421Y028093*
X053393Y028*
X053383Y027904*
Y027834*
X053278Y027808*
X053181Y027798*
X053088Y02777*
X053003Y027724*
X052928Y027663*
X0521Y026835*
X051093*
X050996Y026826*
X050962Y026815*
X050955*
X050858Y026806*
X050817Y026793*
X050443*
Y026325*
X050441Y026301*
Y025827*
X049915*
Y027437*
X051073*
X051169Y027446*
X051201Y027456*
X051368*
X051455Y027467*
X051537Y027501*
X051607Y027555*
X05166Y027625*
X051694Y027706*
X051706Y027793*
Y028069*
X051694Y028156*
X05166Y028238*
X051607Y028308*
X051537Y028361*
X051455Y028395*
X051368Y028406*
X051201*
X051169Y028416*
X051073Y028426*
X049915*
Y028962*
X045584*
Y024238*
X046441*
X046558Y024235*
Y023726*
Y02282*
X046411*
Y022673*
X046096*
Y02207*
X046053*
X045963Y022058*
X045879Y022023*
X045807Y021968*
X045682Y021843*
X045443*
X045366Y021833*
X045294Y021803*
X045232Y021756*
X045199Y021713*
X045133Y021685*
X045049Y021675*
X04502Y021687*
X044961Y021695*
X044882*
Y021358*
Y021022*
X044961*
Y020711*
X044508*
X044428Y020701*
X044408Y020692*
X043727*
X043499Y020921*
X043417Y020984*
X043321Y021023*
X043218Y021037*
X042143*
X042021Y021159*
Y022306*
X042261Y022546*
X042717*
X042742Y022549*
X042884*
X042913Y022546*
X043071*
X0431Y022549*
X043661*
Y023111*
X043664Y02314*
Y023544*
X043776Y023655*
X04385Y023745*
X043905Y023848*
X043938Y023959*
X04395Y024075*
Y024222*
X043991Y024257*
X044053Y024332*
X044099Y024417*
X044127Y02451*
X044136Y024606*
Y025787*
X044127Y025884*
X044099Y025977*
X044053Y026062*
X043991Y026137*
X043916Y026199*
X043831Y026244*
X043738Y026272*
X043642Y026282*
X043051*
X042955Y026272*
X042862Y026244*
X042776Y026199*
X042702Y026137*
X04264Y026062*
X042594Y025977*
X042566Y025884*
X042557Y025787*
Y024606*
X042566Y02451*
X042594Y024417*
X04264Y024332*
X0427Y024258*
X042651Y024209*
X042577Y024119*
X042523Y024016*
X042489Y023905*
X042477Y023789*
Y02373*
X042165*
Y02334*
X042096*
X041994Y023326*
X041898Y023287*
X041816Y023224*
X041343Y022751*
X04128Y022669*
X04124Y022573*
X041227Y02247*
Y020994*
X04124Y020891*
X04128Y020796*
X041343Y020713*
X041698Y020359*
X04178Y020296*
X041876Y020256*
X041932Y020249*
X04194Y02013*
X041757Y020068*
X041583Y019982*
X041422Y019875*
X041277Y019747*
X041149Y019601*
X041042Y019441*
X040956Y019267*
X040894Y019084*
X040856Y018894*
X040843Y018701*
X040856Y018508*
X040894Y018318*
X040956Y018135*
X041042Y017961*
X041149Y0178*
X041277Y017655*
X041422Y017527*
X041583Y017419*
X041757Y017334*
X04194Y017272*
X04213Y017234*
X042323Y017221*
X042516Y017234*
X042706Y017272*
X042889Y017334*
X043063Y017419*
X043224Y017527*
X043369Y017655*
X043497Y0178*
X043604Y017961*
X04369Y018135*
X043752Y018318*
X04379Y018508*
X043802Y018701*
X04379Y018894*
X043752Y019084*
X04369Y019267*
X043604Y019441*
X043497Y019601*
X043369Y019747*
X043224Y019875*
X043063Y019982*
X042889Y020068*
X042706Y02013*
X042733Y020243*
X043054*
X043282Y020014*
X043364Y019951*
X04346Y019912*
X043563Y019898*
X044408*
X044428Y01989*
X044508Y019879*
X044732*
Y018002*
X044741Y017905*
X04477Y017813*
X044815Y017727*
X044877Y017652*
X045369Y01716*
X045444Y017099*
X0455Y017069*
X04547Y016951*
X041339*
X041332Y01695*
X041189Y016964*
X041045Y017007*
X040912Y017078*
X040796Y017174*
X0407Y01729*
X04063Y017423*
X040586Y017567*
X040572Y017709*
X040573Y017717*
Y030512*
X040572Y030519*
X040586Y030662*
X04063Y030806*
X0407Y030938*
X040796Y031054*
X040912Y03115*
X041045Y031221*
X041189Y031265*
X041332Y031279*
X041339Y031278*
X059055*
X059062Y031279*
X059205Y031265*
G37*
G36*
X053408Y026577D02*
X053421Y026533D01*
X053467Y026448*
X053528Y026373*
X053603Y026311*
X053689Y026266*
X053777Y026239*
Y026142*
X053788Y026026*
X053822Y025915*
X053877Y025812*
X05395Y025722*
X054583Y02509*
X054578Y025055*
X054533Y024973*
X054321*
Y024114*
X055081*
Y024424*
X055164Y02447*
X055198Y024474*
X055309Y024364*
X055399Y02429*
X055501Y024235*
X055613Y024201*
X055728Y02419*
X056414*
Y022483*
X056296Y022412*
X05627Y022426*
X056159Y02246*
X056043Y022471*
X055928Y02246*
X055816Y022426*
X055714Y022371*
X055624Y022298*
X054798Y021471*
X054043*
X053928Y02146*
X053887Y021448*
X052397Y022938*
X052315Y023001*
X052219Y023041*
X052116Y023055*
X051198*
X050929Y023324*
Y023671*
X050928Y023678*
Y023679*
X050938Y02376*
X050928Y023841*
Y023888*
X050918Y023965*
X050888Y024037*
X050846Y024091*
X050887Y024123*
X050936Y024187*
X050967Y024261*
X050977Y024341*
Y024581*
X050978Y024587*
Y02484*
X051023Y024864*
X051098Y024926*
X051285Y025113*
X051346Y025188*
X051392Y025273*
X05142Y025366*
X05143Y025463*
Y025846*
X052305*
X052402Y025856*
X052494Y025884*
X05258Y025929*
X052655Y025991*
X053283Y026619*
X053408Y026577*
G37*
%LNpcbxls6009_28012019-2*%
%LPC*%
G36*
X04374Y02955D02*
X043494D01*
Y028691*
X044254*
Y029035*
X044245Y029136*
X044215Y029232*
X044168Y029321*
X044104Y029399*
X044026Y029463*
X043937Y029511*
X04384Y02954*
X04374Y02955*
G37*
G36*
X043199D02*
X042953D01*
X042852Y02954*
X042756Y029511*
X042667Y029463*
X042589Y029399*
X042525Y029321*
X042478Y029232*
X042448Y029136*
X042438Y029035*
Y028691*
X043199*
Y02955*
G37*
G36*
X058071Y031007D02*
X057878Y030994D01*
X057688Y030957*
X057505Y030894*
X057331Y030809*
X05717Y030701*
X057025Y030574*
X056897Y030428*
X05679Y030267*
X056704Y030094*
X056642Y02991*
X056604Y029721*
X056591Y029528*
X056604Y029334*
X056642Y029145*
X056704Y028961*
X05679Y028788*
X056897Y028627*
X057025Y028481*
X05717Y028354*
X057331Y028246*
X057505Y028161*
X057688Y028098*
X057878Y028061*
X058071Y028048*
X058264Y028061*
X058454Y028098*
X058637Y028161*
X058811Y028246*
X058972Y028354*
X059117Y028481*
X059245Y028627*
X059352Y028788*
X059438Y028961*
X0595Y029145*
X059538Y029334*
X05955Y029528*
X059538Y029721*
X0595Y02991*
X059438Y030094*
X059352Y030267*
X059245Y030428*
X059117Y030574*
X058972Y030701*
X058811Y030809*
X058637Y030894*
X058454Y030957*
X058264Y030994*
X058071Y031007*
G37*
G36*
X044254Y028396D02*
X043494D01*
Y027537*
X04374*
X04384Y027547*
X043937Y027576*
X044026Y027624*
X044104Y027688*
X044168Y027765*
X044215Y027854*
X044245Y027951*
X044254Y028051*
Y028396*
G37*
G36*
X043199D02*
X042438D01*
Y028051*
X042448Y027951*
X042478Y027854*
X042525Y027765*
X042589Y027688*
X042667Y027624*
X042756Y027576*
X042852Y027547*
X042953Y027537*
X043199*
Y028396*
G37*
G36*
X046263Y023726D02*
X046096D01*
Y022968*
X046263*
Y023726*
G37*
G36*
X044587Y021695D02*
X044508D01*
X044449Y021687*
X044394Y021664*
X044346Y021628*
X04431Y021581*
X044287Y021526*
X044285Y021506*
X044587*
Y021695*
G37*
G36*
Y021211D02*
X044285D01*
X044287Y021191*
X04431Y021136*
X044346Y021089*
X044394Y021052*
X044449Y021029*
X044508Y021022*
X044587*
Y021211*
G37*
G36*
X058071Y02018D02*
X057878Y020168D01*
X057688Y02013*
X057505Y020068*
X057331Y019982*
X05717Y019875*
X057025Y019747*
X056897Y019601*
X05679Y019441*
X056704Y019267*
X056642Y019084*
X056604Y018894*
X056591Y018701*
X056604Y018508*
X056642Y018318*
X056704Y018135*
X05679Y017961*
X056897Y0178*
X057025Y017655*
X05717Y017527*
X057331Y017419*
X057505Y017334*
X057688Y017272*
X057878Y017234*
X058071Y017221*
X058264Y017234*
X058454Y017272*
X058637Y017334*
X058811Y017419*
X058972Y017527*
X059117Y017655*
X059245Y0178*
X059352Y017961*
X059438Y018135*
X0595Y018318*
X059538Y018508*
X05955Y018701*
X059538Y018894*
X0595Y019084*
X059438Y019267*
X059352Y019441*
X059245Y019601*
X059117Y019747*
X058972Y019875*
X058811Y019982*
X058637Y020068*
X058454Y02013*
X058264Y020168*
X058071Y02018*
G37*
G36*
X051772Y025016D02*
Y024715D01*
X051961*
Y024793*
X051953Y024852*
X05193Y024907*
X051894Y024955*
X051846Y024991*
X051791Y025014*
X051772Y025016*
G37*
G36*
X051476D02*
X051457Y025014D01*
X051402Y024991*
X051354Y024955*
X051318Y024907*
X051295Y024852*
X051287Y024793*
Y024715*
X051476*
Y025016*
G37*
G36*
X054026Y024973D02*
X05378D01*
X053679Y024963*
X053583Y024934*
X053494Y024886*
X053416Y024822*
X053352Y024744*
X053304Y024655*
X053275Y024559*
X053265Y024459*
Y024114*
X054026*
Y024973*
G37*
G36*
X051961Y024419D02*
X051624D01*
X051287*
Y024341*
X051295Y024281*
X051318Y024226*
X051354Y024179*
X051402Y024143*
X051413Y024123*
X051435Y024015*
X051433Y024008*
X051425Y023997*
X051403Y023944*
X051396Y023888*
Y023819*
X052029*
Y023888*
X052022Y023944*
X052Y023997*
X051965Y024042*
X051937Y024064*
X051919Y024113*
X051915Y024207*
X05193Y024226*
X051953Y024281*
X051961Y024341*
Y024419*
G37*
G36*
X052029Y023524D02*
X05186D01*
Y023243*
X051868Y023244*
X05192Y023266*
X051965Y0233*
X052Y023346*
X052022Y023398*
X052029Y023455*
Y023524*
G37*
G36*
X051565D02*
X051396D01*
Y023455*
X051403Y023398*
X051425Y023346*
X05146Y0233*
X051505Y023266*
X051558Y023244*
X051565Y023243*
Y023524*
G37*
G36*
X055081Y023819D02*
X054321D01*
Y02296*
X054567*
X054667Y02297*
X054764Y022999*
X054853Y023047*
X054931Y023111*
X054995Y023189*
X055042Y023278*
X055071Y023374*
X055081Y023474*
Y023819*
G37*
G36*
X054026D02*
X053265D01*
Y023474*
X053275Y023374*
X053304Y023278*
X053352Y023189*
X053416Y023111*
X053494Y023047*
X053583Y022999*
X053679Y02297*
X05378Y02296*
X054026*
Y023819*
G37*
%LNpcbxls6009_28012019-3*%
%LPD*%
G54D14*
X043346Y025197D03*
X054173Y027313D03*
G54D15*
X043346Y028543D03*
X054173Y023967D03*
G54D16*
X050561Y024567D03*
X051624D03*
G54D17*
X050532Y023671D03*
X051713D03*
G54D18*
X051073Y027931D03*
G54D19*
X051073Y026321D03*
G54D20*
X044734Y020295D03*
Y021358D03*
G54D21*
X045659Y021447D03*
Y020266D03*
G54D22*
X048917Y019823D03*
X046791D03*
G54D23*
X047749Y0266D03*
G54D24*
X049088Y02282D03*
X048418D03*
X047749D03*
X04708D03*
G54D25*
X046411Y02282D03*
G54D42*
X04923Y02376D02*
X050541D01*
X053866Y020908D02*
X054013D01*
X052116Y022657D02*
X053866Y020908D01*
X051033Y022657D02*
X052116D01*
X047559Y021654D02*
X047749Y021844D01*
Y02282*
X050581Y025108D02*
X050748Y025276D01*
X050581Y024587D02*
Y025108D01*
X050561Y024567D02*
X050581Y024587D01*
X049088Y023618D02*
X04923Y02376D01*
X049088Y02282D02*
Y023618D01*
X054013Y020908D02*
X054043Y020878D01*
X050532Y023159D02*
X051033Y022657D01*
X050532Y023159D02*
Y023671D01*
X048418Y021952D02*
Y02282D01*
Y021952D02*
X04855Y021821D01*
X047749Y02282D02*
Y0266D01*
X044882Y020266D02*
X045659D01*
X043218Y02064D02*
X043563Y020295D01*
X041978Y02064D02*
X043218D01*
X041624Y020994D02*
X041978Y02064D01*
X041624Y02247D02*
X042096Y022943D01*
X042717*
X042913Y02314*
X041624Y020994D02*
Y02247D01*
X043563Y020295D02*
X044734D01*
X044852*
X044882Y020266*
G54D43*
X048917Y019823D02*
Y021453D01*
Y019724D02*
Y019823D01*
X04855Y021821D02*
X048917Y021453D01*
X053278Y027313D02*
X054173D01*
X050748Y025276D02*
X050935Y025463D01*
Y026301*
X050955Y026321*
X051073*
X052305Y026341D02*
X053278Y027313D01*
X051093Y026341D02*
X052305D01*
X051073Y026321D02*
X051093Y026341D01*
X047749Y0266D02*
X04908Y027931D01*
X051073*
X046791Y020866D02*
X047474Y021548D01*
X046791Y019823D02*
Y020866D01*
X048917Y019823D02*
D01*
Y017933D02*
Y019823D01*
X045226Y018002D02*
Y020156D01*
Y018002D02*
X045718Y01751D01*
X048494*
X048917Y017933*
G54D44*
X043071Y02314D02*
Y023789D01*
X057008Y021152D02*
Y024783D01*
X055768Y019911D02*
X057008Y021152D01*
X053081Y019911D02*
X055768D01*
X051043Y021878D02*
X051114D01*
X053081Y019911*
X055043Y020878D02*
X056043Y021878D01*
X054043Y020878D02*
X055043D01*
X055728Y024783D02*
X057008D01*
X05437Y026142D02*
X055728Y024783D01*
X05437Y026142D02*
Y027018D01*
X043071Y023789D02*
X043356Y024075D01*
X042913Y02314D02*
X043071D01*
X043356Y024075D02*
Y025187D01*
X043346Y025197D02*
X043356Y025187D01*
G54D45*
X04708Y022132D02*
Y02282D01*
X046873Y021925D02*
X04708Y022132D01*
X046873Y021923D02*
Y021925D01*
X046673Y021722D02*
X046873Y021923D01*
X046053Y021722D02*
X046673D01*
X045778Y021447D02*
X046053Y021722D01*
X045659Y021447D02*
X045778D01*
G54D46*
X057008Y024783D03*
X042913Y02314D03*
G54D47*
X057008Y026161D03*
X042913Y021762D03*
G54D48*
X042323Y018701D03*
X058071Y029528D03*
Y018701D03*
G54D49*
X051043Y021878D03*
X056043D03*
X054043Y020878D03*
G54D50*
X052696Y025591D03*
X053346Y026161D03*
X05315Y025591D03*
X053603D03*
X050039Y022638D03*
Y022047D03*
X052224Y023664D03*
X051705Y023159D03*
X051201Y023678D03*
X051112Y024574D03*
X051631Y025079D03*
X052136Y02456D03*
X044727Y020846D03*
X044222Y021365D03*
X044741Y02187D03*
X043346Y029616D03*
X044419Y028543D03*
X043346Y02747D03*
X042274Y028543D03*
X054193Y025089D03*
X055295Y023947D03*
X053051Y023986D03*
X059646Y028346D03*
X059055Y027165D03*
X059646Y025984D03*
X059055Y024803D03*
X059646Y023622D03*
X059055Y022441D03*
X059646Y02126D03*
X059055Y020079D03*
X057874Y027165D03*
X058465Y025984D03*
Y023622D03*
X057874Y022441D03*
X058465Y02126D03*
X056693Y027165D03*
Y017717D03*
X055512Y029528D03*
X056102Y028346D03*
X055512Y027165D03*
X056102Y025984D03*
Y023622D03*
X055512Y022441D03*
X056102Y018898D03*
X055512Y017717D03*
X054331Y029528D03*
Y022441D03*
X054921Y018898D03*
X054331Y017717D03*
X05315Y029528D03*
Y024803D03*
X05374Y018898D03*
X05315Y017717D03*
X051968Y029528D03*
X052559Y028346D03*
X051968Y027165D03*
X052559Y018898D03*
X051968Y017717D03*
X050787Y029528D03*
Y027165D03*
Y020079D03*
X051378Y018898D03*
X050787Y017717D03*
X049606Y029528D03*
X050197Y025984D03*
Y02126D03*
Y018898D03*
X049606Y017717D03*
X048425Y029528D03*
X047244D03*
X046063D03*
X044882D03*
Y027165D03*
Y024803D03*
X045472Y023622D03*
X044882Y022441D03*
X044291Y025984D03*
Y023622D03*
Y018898D03*
X043701Y017717D03*
X04252Y027165D03*
X041339Y029528D03*
Y027165D03*
X041929Y025984D03*
X041339Y024803D03*
X041929Y023622D03*
X041339Y020079D03*
M02*