Removed Pin From Net: NetName=ST_AIN1 Pin=DD1-1
Removed Pin From Net: NetName=ST_DRV_U_H Pin=DD1-3
Removed Pin From Net: NetName=ST_DRV_W_H Pin=DD1-4
Removed Pin From Net: NetName=ST_HOLA Pin=DD1-5
Removed Pin From Net: NetName=ST_HOLB Pin=DD1-6
Removed Pin From Net: NetName=ST_AIN6 Pin=DD1-7
Removed Pin From Net: NetName=ST_AIN4 Pin=DD1-8
Removed Pin From Net: NetName=ST_AIN3 Pin=DD1-9
Removed Pin From Net: NetName=OSCIN Pin=DD1-10
Removed Pin From Net: NetName=OSCOUT Pin=DD1-11
Removed Pin From Net: NetName=3.3VA Pin=DD1-15
Removed Pin From Net: NetName=GND Pin=DD1-16
Removed Pin From Net: NetName=SCK Pin=DD1-20
Removed Pin From Net: NetName=SDA Pin=DD1-23
Removed Pin From Net: NetName=GPIO_IN2 Pin=DD1-29
Removed Pin From Net: NetName=GPIO_IN3 Pin=DD1-31
Removed Pin From Net: NetName=ST_RS485TX Pin=DD1-35
Removed Pin From Net: NetName=CS Pin=DD1-36
Removed Pin From Net: NetName=ST_AIN7 Pin=DD1-44
Removed Pin From Net: NetName=ST_RS485RX Pin=DD1-47
Removed Pin From Net: NetName=MOSI Pin=DD1-48
Added Pin To Net: NetName=GPIO_IN1 Pin=DD1-2
Added Pin To Net: NetName=GPIO_IN2 Pin=DD1-3
Added Pin To Net: NetName=GPIO_IN3 Pin=DD1-4
Added Pin To Net: NetName=OSCIN Pin=DD1-5
Added Pin To Net: NetName=OSCOUT Pin=DD1-6
Added Pin To Net: NetName=ST_RST Pin=DD1-7
Added Pin To Net: NetName=GND Pin=DD1-8
Added Pin To Net: NetName=3.3VA Pin=DD1-9
Added Pin To Net: NetName=ST_HOLA Pin=DD1-10
Added Pin To Net: NetName=ST_HOLB Pin=DD1-11
Added Pin To Net: NetName=ST_HOLC Pin=DD1-12
Added Pin To Net: NetName=ST_AIN1 Pin=DD1-13
Added Pin To Net: NetName=ST_AIN2 Pin=DD1-14
Added Pin To Net: NetName=ST_AIN3 Pin=DD1-15
Added Pin To Net: NetName=ST_AIN4 Pin=DD1-16
Added Pin To Net: NetName=ST_AIN5 Pin=DD1-17
Added Pin To Net: NetName=ST_AIN6 Pin=DD1-18
Added Pin To Net: NetName=ST_AIN7 Pin=DD1-19
Added Pin To Net: NetName=ST_RE485 Pin=DD1-20
Added Pin To Net: NetName=ST_RS485TX Pin=DD1-21
Added Pin To Net: NetName=ST_RS485RX Pin=DD1-22
Added Pin To Net: NetName=GND Pin=DD1-23
Added Pin To Net: NetName=3.3V Pin=DD1-24
Added Pin To Net: NetName=LED_STAT Pin=DD1-25
Added Pin To Net: NetName=ST_DRV_W_L Pin=DD1-26
Added Pin To Net: NetName=ST_DRV_V_L Pin=DD1-27
Added Pin To Net: NetName=ST_DRV_U_L Pin=DD1-28
Added Pin To Net: NetName=ST_DRV_U_H Pin=DD1-29
Added Pin To Net: NetName=ST_DRV_V_H Pin=DD1-30
Added Pin To Net: NetName=ST_DRV_W_H Pin=DD1-31
Added Pin To Net: NetName=ST_CANRX Pin=DD1-32
Added Pin To Net: NetName=ST_CANTX Pin=DD1-33
Added Pin To Net: NetName=ST_SWDIO Pin=DD1-34
Added Pin To Net: NetName=GND Pin=DD1-35
Added Pin To Net: NetName=3.3V Pin=DD1-36
Added Pin To Net: NetName=ST_SWCLK Pin=DD1-37
Added Pin To Net: NetName=ST_CAN_ST Pin=DD1-38
Added Pin To Net: NetName=SCK Pin=DD1-39
Added Pin To Net: NetName=MISO Pin=DD1-40
Added Pin To Net: NetName=MOSI Pin=DD1-41
Added Pin To Net: NetName=CS Pin=DD1-42
Added Pin To Net: NetName=SCL Pin=DD1-45
Added Pin To Net: NetName=SDA Pin=DD1-46
Added Pin To Net: NetName=GND Pin=DD1-47
Added Pin To Net: NetName=3.3V Pin=DD1-48
