Removed Pin From Net: NetName=SCK Pin=XP1-3
Removed Pin From Net: NetName=MOSI Pin=XP1-7
Change Component Description : Designator=DD11 Old Description=I/O Expander 16 I?C 1.7MHz 28-SOIC New Description=I/O Expander 16 I?C 1.7MHz 28-SOIC
Added Pin To Net: NetName=MOSI Pin=XP1-3
Added Pin To Net: NetName=SCK Pin=XP1-7
