Change Component Part ID : Designator=DD1 Old Part ID =1 New Part ID =2
Change Component Part ID : Designator=DD1 Old Part ID =2 New Part ID =1
Change Component Designator: Old Designator=R? New Designator=R87
