Removed Pin From Net: NetName=GND Pin=C3-2
Removed Pin From Net: NetName=GND Pin=C5-2
Removed Pin From Net: NetName=GND Pin=C9-2
Added Pin To Net: NetName=GNDA Pin=C3-2
Added Pin To Net: NetName=GNDA Pin=C5-2
Added Pin To Net: NetName=GNDA Pin=C9-2
