Change Net Name : Old Net Name=DN New Net Name=D_N
Change Net Name : Old Net Name=DP New Net Name=D_P
Change Net Name : Old Net Name=RS485N New Net Name=RS485_N
Change Net Name : Old Net Name=RS485P New Net Name=RS485_P
Added Differential Pair: Name=D
Added Differential Pair: Name=RS485
