LoRa_E32_868T20D.c:55:13:Init_GPIO_LoRa	32	static
LoRa_E32_868T20D.c:94:13:Init_Uart_LoRa	48	static
LoRa_E32_868T20D.c:134:13:Lora_SetMode	16	static
LoRa_E32_868T20D.c:169:16:LoRa_checkId	16	static
LoRa_E32_868T20D.c:182:13:LoRa_Send_Command	16	static
LoRa_E32_868T20D.c:188:13:Init_Config_data	4	static
LoRa_E32_868T20D.c:199:10:Calculate_CRC16	24	static
LoRa_E32_868T20D.c:215:9:checkCRC16	24	static
LoRa_E32_868T20D.c:239:6:LoRa_Reciever_Helper	24	static
LoRa_E32_868T20D.c:254:6:LoRa_Helper_Recieve	8	static
LoRa_E32_868T20D.c:261:6:LoRa_Transmit_Packet	40	static
LoRa_E32_868T20D.c:282:6:Get_LoRa_RxMessage	24	static
LoRa_E32_868T20D.c:291:6:LoRa_Init_Default	16	static
LoRa_E32_868T20D.c:305:6:Set_LoRa_Init	24	static
LoRa_E32_868T20D.c:401:6:Set_LoRa_ModeWork	16	static
