Removed Pin From Net: NetName=24V_COM Pin=B1-5
Removed Pin From Net: NetName=24V_SW Pin=B1-6
Removed Pin From Net: NetName=24V_EXT Pin=C1-2
Removed Pin From Net: NetName=24V_EXT Pin=C2-2
Removed Pin From Net: NetName=24V_EXT Pin=C3-2
Removed Pin From Net: NetName=24V_EXT Pin=C6-2
Removed Pin From Net: NetName=24V_EXT Pin=C7-2
Removed Pin From Net: NetName=24V_EXT Pin=C8-2
Removed Pin From Net: NetName=24V_EXT Pin=K1-1
Removed Pin From Net: NetName=24V_EXT Pin=K2-1
Added Pin To Net: NetName=24V_EXT Pin=B1-5
Added Pin To Net: NetName=NetK1_4 Pin=B1-6
Added Pin To Net: NetName=NetK1_4 Pin=C1-2
Added Pin To Net: NetName=NetK1_4 Pin=C2-2
Added Pin To Net: NetName=NetK1_4 Pin=C3-2
Added Pin To Net: NetName=NetK1_4 Pin=C6-2
Added Pin To Net: NetName=NetK1_4 Pin=C7-2
Added Pin To Net: NetName=NetK1_4 Pin=C8-2
Added Pin To Net: NetName=NetK1_4 Pin=K1-1
Added Pin To Net: NetName=NetK1_4 Pin=K2-1
Added Pin To Net: NetName=NetK1_4 Pin=K2-4
Added Pin To Net: NetName=NetK1_4 Pin=VD2-2
Change Net Name : Old Net Name=NetK1_4 New Net Name=24V_SENSE
