Removed Pin From Net: NetName=24V_SENSE Pin=XS8-1
Removed Pin From Net: NetName=24V_SENSE Pin=XS9-1
Removed Pin From Net: NetName=24V_SENSE Pin=XS10-1
Removed Pin From Net: NetName=24V_SENSE Pin=XS11-1
Removed Pin From Net: NetName=24V_COM Pin=XS12-1
Removed Pin From Net: NetName=24V_COM Pin=XS13-1
Removed Pin From Net: NetName=24V_COM Pin=XS14-1
Removed Pin From Net: NetName=24V_COM Pin=XS15-1
Removed Pin From Net: NetName=12V_SW Pin=XS16-1
Removed Pin From Net: NetName=12V_SW Pin=XS17-1
Removed Pin From Net: NetName=12V_SW Pin=XS18-1
Removed Pin From Net: NetName=12V_SW Pin=XS19-1
Removed Pin From Net: NetName=12V_EXT Pin=XS20-1
Removed Pin From Net: NetName=12V_EXT Pin=XS21-1
Removed Pin From Net: NetName=12V_EXT Pin=XS22-1
Removed Pin From Net: NetName=12V_EXT Pin=XS23-1
Removed Member From Class: ClassName=PWRBR60A_P1_PWR_MAIN Member=XS8
Removed Member From Class: ClassName=PWRBR60A_P1_PWR_MAIN Member=XS9
Removed Member From Class: ClassName=PWRBR60A_P1_PWR_MAIN Member=XS10
Removed Member From Class: ClassName=PWRBR60A_P1_PWR_MAIN Member=XS11
Removed Member From Class: ClassName=PWRBR60A_P1_PWR_MAIN Member=XS12
Removed Member From Class: ClassName=PWRBR60A_P1_PWR_MAIN Member=XS13
Removed Member From Class: ClassName=PWRBR60A_P1_PWR_MAIN Member=XS14
Removed Member From Class: ClassName=PWRBR60A_P1_PWR_MAIN Member=XS15
Removed Member From Class: ClassName=PWRBR60A_P1_PWR_MAIN Member=XS16
Removed Member From Class: ClassName=PWRBR60A_P1_PWR_MAIN Member=XS17
Removed Member From Class: ClassName=PWRBR60A_P1_PWR_MAIN Member=XS18
Removed Member From Class: ClassName=PWRBR60A_P1_PWR_MAIN Member=XS19
Removed Member From Class: ClassName=PWRBR60A_P1_PWR_MAIN Member=XS20
Removed Member From Class: ClassName=PWRBR60A_P1_PWR_MAIN Member=XS21
Removed Member From Class: ClassName=PWRBR60A_P1_PWR_MAIN Member=XS22
Removed Member From Class: ClassName=PWRBR60A_P1_PWR_MAIN Member=XS23
