Removed Pin From Net: NetName=GND Pin=C13-1
Removed Pin From Net: NetName=5V Pin=C13-2
Removed Pin From Net: NetName=12V_SW Pin=C19-1
Removed Pin From Net: NetName=12V_SW Pin=C21-1
Removed Pin From Net: NetName=12V_SW Pin=C23-1
Removed Pin From Net: NetName=5V Pin=FB3-2
Removed Pin From Net: NetName=GND Pin=NT1-1
Removed Pin From Net: NetName=12V_SW Pin=RV1-1
Removed Member From Class: ClassName=PWRBR60A_P1_PWR_MAIN Member=C13
Removed Member From Class: ClassName=PWRBR60A_P1_PWR_MAIN Member=C17
Removed Member From Class: ClassName=PWRBR60A_P1_PWR_MAIN Member=FB3
Removed Member From Class: ClassName=PWRBR60A_P1_PWR_MAIN Member=NT1
Added Pin To Net: NetName=24V_COM Pin=C19-1
Added Pin To Net: NetName=24V_COM Pin=C21-1
Added Pin To Net: NetName=24V_COM Pin=C23-1
Added Pin To Net: NetName=24V_COM Pin=RV1-1
