Removed Pin From Net: NetName=24V_SW Pin=R36_A1-2
Removed Pin From Net: NetName=24V_SW Pin=R36_A2-2
Removed Pin From Net: NetName=24V_SW Pin=R38_A1-2
Removed Pin From Net: NetName=24V_SW Pin=R38_A2-2
Added Pin To Net: NetName=12V_CH1 Pin=R36_A1-2
Added Pin To Net: NetName=12V_CH1 Pin=R36_A2-2
Added Pin To Net: NetName=12V_CH1 Pin=R38_A1-2
Added Pin To Net: NetName=12V_CH1 Pin=R38_A2-2
