Change Component Designator: OldDesignator=C?_A1 NewDesignator=C9_A1
Change Component Designator: OldDesignator=C?_A2 NewDesignator=C9_A2
Change Component Designator: OldDesignator=R?_A1 NewDesignator=R41_A1
Change Component Designator: OldDesignator=R?_A2 NewDesignator=R41_A2
