NRF24.c:78:13:NRF24_Hardware_Init	48	static
NRF24.c:153:13:NRF24_UART_Init	40	static
NRF24.c:200:6:NRF24_DelayMicroSeconds	24	static
NRF24.c:209:6:NRF24_csn	16	static
NRF24.c:215:6:NRF24_ce	16	static
NRF24.c:223:9:NRF24_read_register	24	static
NRF24.c:242:6:NRF24_read_registerN	24	static
NRF24.c:259:6:NRF24_write_register	24	static
NRF24.c:274:6:NRF24_write_registerN	24	static
NRF24.c:289:6:NRF24_write_payload	24	static
NRF24.c:303:6:NRF24_read_payload	24	static
NRF24.c:318:6:NRF24_flush_tx	8	static
NRF24.c:323:6:NRF24_flush_rx	8	static
NRF24.c:328:9:NRF24_get_status	16	static
NRF24.c:337:6:NRF24_begin	16	static
NRF24.c:409:6:NRF24_startListening	8	static
NRF24.c:426:6:NRF24_stopListening	8	static
NRF24.c:433:6:NRF24_write	32	static
NRF24.c:472:6:NRF24_available	8	static
NRF24.c:477:6:NRF24_read	24	static
NRF24.c:486:6:NRF24_openWritingPipe	24	static
NRF24.c:495:6:NRF24_openReadingPipe	24	static
NRF24.c:521:6:NRF24_setRetries	16	static
NRF24.c:527:6:NRF24_setChannel	24	static
NRF24.c:533:6:NRF24_setPayloadSize	24	static
NRF24.c:539:9:NRF24_getPayloadSize	4	static
NRF24.c:544:9:NRF24_getDynamicPayloadSize	8	static
NRF24.c:549:6:NRF24_enableAckPayload	8	static
NRF24.c:562:6:NRF24_enableDynamicPayloads	8	static
NRF24.c:576:6:NRF24_disableDynamicPayloads	8	static
NRF24.c:584:6:NRF24_isNRF_Plus	4	static
NRF24.c:589:6:NRF24_setAutoAck	16	static
NRF24.c:597:6:NRF24_setAutoAckPipe	24	static
NRF24.c:614:6:NRF24_setPALevel	24	static
NRF24.c:645:15:NRF24_getPALevel	16	static
NRF24.c:671:6:NRF24_setDataRate	24	static
NRF24.c:716:17:NRF24_getDataRate	16	static
NRF24.c:741:6:NRF24_setCRCLength	24	static
NRF24.c:762:18:NRF24_getCRCLength	16	static
NRF24.c:778:6:NRF24_disableCRC	16	static
NRF24.c:784:6:NRF24_powerUp	8	static
NRF24.c:789:6:NRF24_powerDown	8	static
NRF24.c:794:6:NRF24_availablePipe	24	static
NRF24.c:818:6:NRF24_startWrite	16	static
NRF24.c:835:6:NRF24_writeAckPayload	24	static
NRF24.c:846:6:NRF24_isAckPayloadAvailable	16	static
NRF24.c:853:6:NRF24_whatHappened	32	static
NRF24.c:864:6:NRF24_testCarrier	8	static
NRF24.c:869:6:NRF24_testRPD	8	static
NRF24.c:875:6:NRF24_resetStatus	8	static
NRF24.c:881:6:NRF24_ACTIVATE_cmd	16	static
NRF24.c:892:9:NRF24_GetAckPayloadSize	4	static
NRF24.c:897:6:printRadioSettings	152	static
NRF24.c:1024:6:printStatusReg	136	static
NRF24.c:1040:6:printConfigReg	112	static
NRF24.c:1058:6:nrf24_DebugUART_Init	8	static
NRF24.c:1064:6:printFIFOstatus	128	static
