Removed Pin From Net: NetName=serv_RS485_P Pin=XP2-3
Removed Pin From Net: NetName=serv_RS485_N Pin=XP2-4
Removed Pin From Net: NetName=EXT_ANG_IN_D Pin=XP2-5
Removed Pin From Net: NetName=EXT_LED_K Pin=XP2-6
Removed Pin From Net: NetName=EXT_OUT_M Pin=XP2-7
Removed Pin From Net: NetName=RGB_CTRL_R Pin=XP2-8
Added Pin To Net: NetName=RGB_CTRL_R Pin=XP2-3
Added Pin To Net: NetName=serv_RS485_P Pin=XP2-4
Added Pin To Net: NetName=serv_RS485_N Pin=XP2-5
Added Pin To Net: NetName=EXT_ANG_IN_D Pin=XP2-6
Added Pin To Net: NetName=EXT_LED_K Pin=XP2-7
Added Pin To Net: NetName=EXT_OUT_M Pin=XP2-8
