Removed Pin From Net: NetName=GNDP Pin=B2-5
Removed Pin From Net: NetName=GND Pin=C13-1
Removed Pin From Net: NetName=3.3V Pin=C13-2
Removed Pin From Net: NetName=GND Pin=C19-1
Removed Pin From Net: NetName=3.3V Pin=C19-2
Removed Pin From Net: NetName=GND Pin=C21-1
Removed Pin From Net: NetName=3.3V Pin=C21-2
Removed Pin From Net: NetName=GND Pin=C23-1
Removed Pin From Net: NetName=3.3V Pin=C23-2
Removed Pin From Net: NetName=GND Pin=C25-1
Removed Pin From Net: NetName=3.3V Pin=C25-2
Removed Pin From Net: NetName=GND Pin=C26-1
Removed Pin From Net: NetName=3.3V Pin=C26-2
Removed Pin From Net: NetName=GND Pin=C27-1
Removed Pin From Net: NetName=3.3V Pin=C27-2
Removed Pin From Net: NetName=GNDP Pin=C52-1
Removed Pin From Net: NetName=GNDP Pin=C73-1
Removed Pin From Net: NetName=GNDP Pin=C74-1
Removed Pin From Net: NetName=GNDP Pin=C80-1
Removed Pin From Net: NetName=GNDP Pin=C81-1
Removed Pin From Net: NetName=GNDP Pin=DA9-3
Removed Pin From Net: NetName=GNDP Pin=DA12-3
Removed Pin From Net: NetName=GND Pin=NT2-1
Removed Pin From Net: NetName=GNDP Pin=NT2-2
Removed Pin From Net: NetName=GNDP Pin=R68-2
Removed Pin From Net: NetName=GNDP Pin=R69-2
Removed Pin From Net: NetName=GNDP Pin=R76-2
Removed Pin From Net: NetName=GNDP Pin=R89-2
Removed Pin From Net: NetName=GNDP Pin=R90-2
Removed Pin From Net: NetName=GNDP Pin=VT3-2
Removed Pin From Net: NetName=GNDP Pin=VT6-2
Removed Pin From Net: NetName=GNDP Pin=VT8-3
Removed Pin From Net: NetName=GNDP Pin=VT9-3
Removed Pin From Net: NetName=GND Pin=XP2-
Removed Pin From Net: NetName=GND Pin=XP2-
Removed Member From Class: ClassName=ISCV_P1_MCU_CNTRL Member=C13
Removed Member From Class: ClassName=ISCV_P1_MCU_CNTRL Member=C19
Removed Member From Class: ClassName=ISCV_P1_MCU_CNTRL Member=C26
Removed Member From Class: ClassName=ISCV_P4_PWR_SWITCH Member=NT2
Added Pin To Net: NetName=GND Pin=B2-5
Added Pin To Net: NetName=GND Pin=C52-1
Added Pin To Net: NetName=GND Pin=C73-1
Added Pin To Net: NetName=GND Pin=C74-1
Added Pin To Net: NetName=GND Pin=C80-1
Added Pin To Net: NetName=GND Pin=C81-1
Added Pin To Net: NetName=GND Pin=DA9-3
Added Pin To Net: NetName=GND Pin=DA12-3
Added Pin To Net: NetName=GND Pin=R68-2
Added Pin To Net: NetName=GND Pin=R69-2
Added Pin To Net: NetName=GND Pin=R76-2
Added Pin To Net: NetName=GND Pin=R89-2
Added Pin To Net: NetName=GND Pin=R90-2
Added Pin To Net: NetName=GND Pin=VT3-2
Added Pin To Net: NetName=GND Pin=VT6-2
Added Pin To Net: NetName=GND Pin=VT8-3
Added Pin To Net: NetName=GND Pin=VT9-3
Added Pin To Net: NetName=NetC21_1 Pin=C21-1
Added Pin To Net: NetName=NetC21_1 Pin=C23-1
Added Pin To Net: NetName=NetC21_1 Pin=C25-1
Added Pin To Net: NetName=NetC21_1 Pin=C27-1
Added Net: Name=NetC21_1
Added Pin To Net: NetName=NetC21_2 Pin=C21-2
Added Pin To Net: NetName=NetC21_2 Pin=C23-2
Added Pin To Net: NetName=NetC21_2 Pin=C25-2
Added Pin To Net: NetName=NetC21_2 Pin=C27-2
Added Net: Name=NetC21_2
