Removed Pin From Net: NetName=EXT__B2 Pin=C38-2
Removed Pin From Net: NetName=EXT_B1 Pin=C39-2
Removed Pin From Net: NetName=EXT__B2 Pin=C40-2
Removed Pin From Net: NetName=EXT_B1 Pin=C41-2
Added Pin To Net: NetName=EXT_B1 Pin=C38-2
Added Pin To Net: NetName=EXT__B2 Pin=C39-2
Added Pin To Net: NetName=EXT_B1 Pin=C40-2
Added Pin To Net: NetName=EXT__B2 Pin=C41-2
