M48
;Layer_Color=9474304
;FILE_FORMAT=2:5
INCH
;TYPE=PLATED
T1F00S00C0.01500
T2F00S00C0.02559
T3F00S00C0.03150
T4F00S00C0.03800
T5F00S00C0.04000
T6F00S00C0.04200
T7F00S00C0.04724
T8F00S00C0.05118
T9F00S00C0.05200
T10F00S00C0.15000
%
T01
X0476200Y0167400
X0487200
X0499200Y0172400
Y0182400
X0509200
X0504200Y0187400
Y0197400
Y0207400
X0499200Y0202400
Y0192400
X0509200
X0518200
X0514200Y0197400
Y0207400
X0523200
X0528200Y0212400
X0518200
X0514200Y0217400
Y0226400
X0522200Y0229400
X0530200
X0519200Y0253400
X0512200
X0505200
X0498200
X0491200
X0484200
X0482200Y0259400
X0489200
X0496200
X0503200
X0510200
X0517200
X0515200Y0265400
X0508200
X0501200
X0494200
X0487200
X0474200Y0269400
X0469200Y0264346
X0474200Y0253400
X0475200Y0246400
X0474200Y0239400
Y0233400
X0470200Y0229400
X0469200Y0223400
X0478200Y0195400
X0489200Y0195948
X0499200Y0212400
X0509200
X0504287Y0217400
X0509200Y0202400
X0514200Y0187400
X0504200Y0177400
X0506200Y0272400
X0513200
X0520200Y0269400
X0530200Y0275400
Y0280400
X0499222Y0290243
X0498222Y0296242
Y0302242
Y0308243
X0493222Y0309243
Y0304242
Y0299242
Y0294243
X0488222
Y0299242
Y0304242
Y0309243
X0503222Y0306242
Y0300242
Y0294243
X0509222Y0300242
Y0306242
X0506222Y0311243
X0462058Y0296212
X0461222Y0291243
X0463222Y0286243
X0466222Y0282242
X0462581Y0278686
X0459200Y0274863
X0459222Y0283243
X0457222Y0288243
Y0295243
X0450076
X0448200Y0300400
X0453277Y0299242
X0453222Y0291243
Y0284243
X0455200Y0279400
X0454200Y0269400
X0459200Y0264400
X0464200Y0269345
Y0259291
X0466200Y0252400
X0459200Y0254345
Y0244400
X0449287
X0454200Y0249400
X0449200Y0254291
X0444200Y0249400
Y0239563
X0439200Y0244400
X0434200Y0249400
X0429200Y0254345
X0424200Y0249454
Y0259346
X0419200Y0254400
X0414200Y0259400
X0409200Y0264400
Y0274400
X0414200Y0279345
Y0269455
X0419200Y0274345
Y0264455
X0424200Y0269400
Y0279400
X0419200Y0284400
X0414200Y0289400
X0409200Y0284454
X0404200Y0289455
X0399200Y0294455
Y0284400
Y0274400
X0404200Y0279400
Y0269400
X0399200Y0264346
Y0254400
X0404200Y0259346
Y0249400
X0409200Y0254345
Y0244400
Y0234400
X0414200Y0239346
Y0229400
X0419200Y0234346
Y0224400
X0424200Y0239400
X0429200Y0244400
X0419200
X0414200Y0249400
X0404200Y0239400
X0399200Y0244400
X0384200Y0247400
X0379200Y0242455
Y0252400
X0374200Y0247455
Y0257400
X0369200Y0262400
Y0272400
X0363373Y0274573
X0358200Y0270400
X0374200Y0267455
X0379200Y0262455
X0384200Y0257454
Y0267455
X0379200Y0272455
X0374200Y0277454
X0369200Y0282400
X0379200Y0282509
Y0292400
X0374200Y0287509
X0384200Y0287400
Y0277509
X0367844Y0292044
X0367200Y0252400
X0374200Y0237455
X0384200
X0389200Y0232400
X0394200Y0227454
X0399200Y0222509
X0394200Y0217455
X0389200Y0222400
X0384200Y0227345
X0379200Y0232400
X0359200Y0234400
X0352200
Y0227400
X0345200
Y0220400
X0352200
X0359200
Y0227400
X0354200Y0205400
X0356200Y0192400
X0362200Y0174400
X0368200Y0167400
X0403200Y0168400
X0398200Y0173400
Y0183345
X0403200Y0178400
X0408200Y0173400
X0414200Y0187400
X0424200
X0434200
X0444200
Y0177454
X0449200Y0182400
X0459200
Y0172509
X0454200Y0177400
X0449200Y0172400
X0439200
Y0182400
X0429200
X0434200Y0177400
Y0167400
X0454200
X0465200
X0464200Y0187400
X0460200Y0194400
X0467200Y0198400
X0459200Y0223400
X0449200
X0439200
X0444200Y0229400
X0454200
Y0239400
X0460200Y0235400
X0468200Y0236400
X0464200Y0229400
X0449200Y0234400
X0439200
X0434200Y0239400
Y0259400
X0429200Y0264400
Y0274400
X0434200Y0279345
Y0269455
X0439200Y0274400
Y0264455
X0444200Y0269345
X0449200Y0264346
X0454200Y0259346
X0444200Y0259291
X0439200Y0254400
X0441740Y0290666
X0449077Y0287704
X0429200Y0284454
X0424200Y0289455
X0426200Y0300400
X0428200Y0309243
X0329373Y0308573
X0325200Y0303400
X0341200Y0241400
X0333200Y0233400
X0327200Y0226400
X0320200
Y0219400
X0313200
X0327200
X0342200Y0214400
X0315200Y0206400
X0319200Y0193400
X0327200Y0170400
X0316200Y0232400
X0404200Y0217455
X0409200Y0212509
X0414200Y0207509
X0409200Y0202454
X0419200
X0424200Y0207400
Y0197509
X0429200Y0202400
Y0192455
X0419200
X0414200Y0197400
X0409200Y0192400
X0404200Y0197400
X0399200Y0202400
Y0212400
X0404200Y0207454
X0393200Y0188400
X0290200Y0172400
X0277200Y0184400
X0265200
X0253200
Y0170400
X0245200Y0198400
X0243200Y0214400
X0215200
X0188200
X0181200Y0221400
X0191200Y0228400
X0202200Y0244900
X0172200Y0255400
X0157200Y0265400
X0166200Y0234400
Y0202400
X0158200
X0174200
X0181200Y0189400
X0189200Y0186400
X0195200Y0187400
Y0193400
X0199200Y0190400
X0219200
X0223200Y0193400
X0210200Y0168400
X0199200
X0188200Y0167400
X0190200Y0162400
X0185200
X0176200Y0167400
X0169200Y0176400
X0157200Y0177400
Y0172400
X0265200Y0198400
X0279200Y0206400
X0281200Y0214400
X0277200Y0224400
X0274200Y0228400
X0291200Y0232400
X0292200Y0219400
X0303200
X0312200Y0236400
X0296200Y0243400
X0292200Y0246400
X0291200Y0251400
X0281200Y0244400
X0262700Y0291900
X0256200Y0297400
X0254200Y0308400
X0269200Y0307400
X0234700Y0303900
X0230700Y0307900
X0203200Y0287269
X0211135Y0279335
X0177200Y0296400
X0142200Y0298400
X0121200Y0296400
Y0278400
Y0258400
X0123200Y0239400
X0128200Y0233400
X0133200Y0228400
X0141200Y0227400
X0143200Y0213400
X0135200
X0128200Y0223400
X0123200Y0218400
X0103397Y0224597
X0093200Y0224400
X0086200
X0079200
Y0246400
Y0271400
X0096200Y0272400
X0105200
X0099200Y0259400
X0109200Y0247400
X0141200Y0249400
X0132200Y0192400
Y0182400
X0122200Y0184400
Y0176400
Y0168400
X0129200Y0164400
X0104200Y0170400
Y0179400
X0097200
Y0186400
X0103200Y0190400
X0106200Y0194400
X0108200Y0203400
X0102200Y0291400
X0095700Y0284900
X0085200Y0306400
X0079200Y0312400
X0091200
X0097200Y0318400
X0107200
X0110200Y0329400
X0103200
Y0346400
X0110200Y0342400
X0121200Y0338400
X0128200Y0345400
Y0354400
X0135200Y0350400
X0142200Y0354400
X0149200Y0350400
X0156200Y0354400
Y0345400
X0149200Y0371400
X0134200Y0380400
X0128200Y0410400
X0116200
X0103200
X0095200Y0402400
Y0392400
Y0383400
Y0374400
X0095200Y0365399
X0091200Y0342400
X0128200Y0435400
X0159200
X0158200Y0397400
X0176200
Y0388400
X0166200Y0381400
X0196700Y0378900
X0208200Y0361400
X0209200Y0338400
X0205200Y0314400
X0255200Y0317400
X0253200Y0322400
X0260200Y0326400
X0270200
X0275751Y0330400
X0299200Y0326400
X0304200Y0336400
X0311200Y0340400
X0299200Y0345400
X0301751Y0349400
X0305751Y0354400
X0302751Y0363400
X0297751Y0366400
Y0374400
X0296751Y0384400
X0300751Y0386400
X0304751Y0388400
X0278976Y0387624
X0277405Y0394746
X0283200Y0397400
X0290200Y0412400
X0296200Y0410400
X0294200Y0426400
X0293776Y0433715
X0310200Y0426400
X0312200Y0420400
Y0414400
X0255200
X0247200Y0396400
Y0390400
Y0372400
X0243200Y0361400
X0249200Y0357400
Y0349400
X0262751Y0345400
X0271200Y0366400
X0271751Y0372400
X0275751Y0374400
X0271751Y0385400
X0239200Y0425400
X0246200Y0432400
X0222200Y0424400
X0209200
X0207200Y0439400
X0210200Y0408400
X0186200Y0400400
X0181200Y0412400
X0163200Y0350400
X0321200Y0345400
X0341200Y0344400
X0347200Y0358400
X0368200
X0384191Y0337802
Y0333802
Y0329802
X0388191
X0388191Y0333802
X0392191Y0333802
Y0329802
Y0337802
X0388191
X0408222Y0328242
X0405222Y0325242
X0409222Y0322242
X0416222Y0325242
X0418277Y0329188
Y0338243
X0424222Y0339243
X0423851Y0332817
X0431200Y0329400
X0434200Y0326400
X0440200
X0437200Y0329400
X0443200
X0449200
X0455200
X0461200
X0458200Y0325400
X0452200
X0446200
X0449200Y0321400
X0455200
X0461200
X0466200
X0464200Y0325400
X0458200Y0317400
X0452200
X0446200
Y0333400
X0440200
X0434200
X0452200
X0458200
X0460200Y0349400
X0463222Y0353242
X0457200Y0353400
X0453200Y0356400
X0448200Y0358400
X0451222Y0362243
Y0367243
X0456222Y0366243
Y0361243
X0461222Y0363243
X0466222
Y0368243
X0461222
X0460222Y0358243
X0465222
X0453200Y0349400
X0449200Y0352400
X0447277Y0372242
X0453200Y0375863
X0459200Y0383400
X0441200Y0384400
X0429200Y0374400
X0419200Y0364400
X0412200Y0349400
X0426200Y0345400
X0396751Y0387400
X0383005Y0390653
X0361751Y0392400
X0356751
X0351751Y0390400
X0357751Y0386400
X0350751Y0406400
X0343200Y0410400
X0342200Y0419400
X0337200Y0425400
X0329200
X0321751Y0394400
X0324751Y0384400
X0316751Y0379400
X0314751Y0363400
X0459200Y0403400
X0469200Y0393400
X0479200Y0403400
X0489200Y0413400
X0509200
Y0433400
X0469200
Y0413400
X0479200Y0423400
X0499200Y0403400
X0500200Y0386400
X0499200Y0380400
Y0374400
Y0369400
X0504200Y0371400
Y0366400
X0509200Y0368400
Y0363400
X0519200
Y0373400
X0529200
Y0383400
Y0393400
X0519200Y0403400
X0509200Y0393400
Y0385400
Y0380400
Y0374400
X0504200Y0377400
Y0383400
X0494200Y0385400
X0489200
X0487200Y0380400
X0493200
X0489200Y0393400
X0519200Y0383400
X0529200Y0363400
X0504222Y0342243
Y0336243
Y0330242
X0499222Y0329242
Y0335243
Y0341243
X0494222Y0343243
X0489222
Y0337243
X0494222
X0497222Y0347242
X0489222Y0349242
X0509222Y0337243
Y0331242
X0529200Y0413400
T02
X0090200Y0279900
Y0284900
Y0289900
Y0294900
T03
X0486295Y0244223
X0466609
T04
X0316200Y0258400
Y0268400
X0331200
Y0258400
X0346200
Y0268400
X0301200
Y0258400
X0286200
Y0268400
X0271200
Y0258400
X0246135
Y0268400
X0221135
Y0258400
X0196135
Y0268400
X0080000Y0323764
Y0333765
X0113200Y0424400
Y0434400
X0142200
Y0424400
X0169200
Y0414400
X0196003
Y0424400
Y0434400
T05
X0080200Y0370400
Y0380400
Y0390400
Y0400400
X0110200
Y0390400
Y0380400
Y0370400
T06
X0186135Y0268400
X0211135
X0236135
X0261200
T07
X0265861Y0433400
X0279641
X0354523
X0368302
X0382082
X0395861
X0409641
X0423420
X0437200
X0450980
T08
X0524168Y0220423
Y0240423
X0524245Y0303211
Y0323211
Y0343211
T09
X0530200Y0190868
Y0264400
X0430200Y0232400
X0421200Y0172400
X0383759Y0172558
X0346311Y0172578
X0308759Y0172558
X0271200
X0111499Y0257390
X0082200Y0257400
X0213094Y0384481
X0358751Y0400400
X0375751
X0392751
X0409751
X0426751
X0443751
X0492200Y0430400
T10
X0525200Y0169400
X0085200
Y0432400
X0525200
M30
