%FSLAX25Y25*%
%MOIN*%
G70*
G01*
G75*
G04 Layer_Physical_Order=1*
G04 Layer_Color=255*
%ADD10R,0.03937X0.05512*%
%ADD11R,0.04724X0.05512*%
%ADD12O,0.07874X0.02362*%
%ADD13R,0.15000X0.11000*%
%ADD14R,0.11417X0.11417*%
%ADD15O,0.03347X0.01102*%
%ADD16O,0.01102X0.03347*%
%ADD17R,0.01500X0.07000*%
%ADD18O,0.06693X0.01378*%
%ADD19R,0.04724X0.04724*%
%ADD20O,0.07874X0.01500*%
%ADD21R,0.07874X0.01500*%
%ADD22R,0.13780X0.05906*%
%ADD23R,0.05512X0.04331*%
%ADD24R,0.06000X0.04000*%
%ADD25R,0.05906X0.05118*%
%ADD26R,0.03937X0.03740*%
%ADD27R,0.05118X0.05906*%
%ADD28R,0.03740X0.03937*%
%ADD29R,0.07480X0.09350*%
%ADD30R,0.05433X0.01750*%
%ADD31R,0.08268X0.05700*%
%ADD32R,0.07480X0.04626*%
%ADD33C,0.01000*%
%ADD34C,0.01700*%
%ADD35C,0.02000*%
%ADD36C,0.01500*%
%ADD37C,0.01100*%
%ADD38C,0.02500*%
%ADD39C,0.01400*%
%ADD40C,0.03000*%
%ADD41C,0.01800*%
%ADD42C,0.00800*%
%ADD43R,0.05512X0.05512*%
%ADD44C,0.05512*%
%ADD45C,0.07000*%
%ADD46R,0.07000X0.07000*%
%ADD47C,0.06693*%
%ADD48R,0.06693X0.06693*%
%ADD49R,0.07284X0.07284*%
%ADD50C,0.07284*%
%ADD51R,0.07087X0.07087*%
%ADD52C,0.07087*%
%ADD53R,0.06200X0.06200*%
%ADD54C,0.06200*%
%ADD55R,0.03740X0.03740*%
%ADD56C,0.03740*%
%ADD57C,0.17000*%
%ADD58C,0.02500*%
%ADD59C,0.03000*%
%ADD60C,0.03500*%
G36*
X469911Y2530D02*
X2530D01*
Y292746D01*
X469911D01*
Y2530D01*
D02*
G37*
%LPC*%
G36*
X29906Y206953D02*
X26846D01*
Y203500D01*
X29906D01*
Y206953D01*
D02*
G37*
G36*
X370324Y44267D02*
X366872D01*
Y41208D01*
X370324D01*
Y44267D01*
D02*
G37*
G36*
X374777D02*
X371324D01*
Y41208D01*
X374777D01*
Y44267D01*
D02*
G37*
G36*
X10300Y169864D02*
X6730D01*
X6805Y169294D01*
X7219Y168297D01*
X7876Y167440D01*
X8732Y166783D01*
X9730Y166370D01*
X10300Y166295D01*
Y169864D01*
D02*
G37*
G36*
X14870D02*
X11300D01*
Y166295D01*
X11870Y166370D01*
X12868Y166783D01*
X13724Y167440D01*
X14381Y168297D01*
X14795Y169294D01*
X14870Y169864D01*
D02*
G37*
G36*
X143394Y235554D02*
X142719Y235465D01*
X141624Y235012D01*
X140684Y234291D01*
X139963Y233351D01*
X139509Y232256D01*
X139421Y231581D01*
X143394D01*
Y235554D01*
D02*
G37*
G36*
X144394D02*
Y231581D01*
X148367D01*
X148278Y232256D01*
X147824Y233351D01*
X147103Y234291D01*
X146163Y235012D01*
X145068Y235465D01*
X144394Y235554D01*
D02*
G37*
G36*
X25917Y39854D02*
X21283D01*
Y36504D01*
X25917D01*
Y39854D01*
D02*
G37*
G36*
X143394Y230581D02*
X139421D01*
X139509Y229907D01*
X139963Y228812D01*
X140684Y227872D01*
X141624Y227151D01*
X142719Y226697D01*
X143394Y226608D01*
Y230581D01*
D02*
G37*
G36*
X148367D02*
X144394D01*
Y226608D01*
X145068Y226697D01*
X146163Y227151D01*
X147103Y227872D01*
X147824Y228812D01*
X148278Y229907D01*
X148367Y230581D01*
D02*
G37*
G36*
X11209Y67140D02*
X6968D01*
Y61965D01*
X11209D01*
Y67140D01*
D02*
G37*
G36*
X20500Y126000D02*
X18130D01*
Y123630D01*
X20500D01*
Y126000D01*
D02*
G37*
G36*
X23870D02*
X21500D01*
Y123630D01*
X23870D01*
Y126000D01*
D02*
G37*
G36*
X46772Y103490D02*
X42799D01*
Y99517D01*
X43474Y99605D01*
X44568Y100059D01*
X45509Y100780D01*
X46230Y101720D01*
X46683Y102815D01*
X46772Y103490D01*
D02*
G37*
G36*
X42799Y108463D02*
Y104490D01*
X46772D01*
X46683Y105164D01*
X46230Y106259D01*
X45509Y107199D01*
X44568Y107920D01*
X43474Y108374D01*
X42799Y108463D01*
D02*
G37*
G36*
X41799D02*
X41124Y108374D01*
X40030Y107920D01*
X39090Y107199D01*
X38368Y106259D01*
X37915Y105164D01*
X37826Y104490D01*
X41799D01*
Y108463D01*
D02*
G37*
G36*
X313341Y153770D02*
X310873D01*
Y151400D01*
X313341D01*
Y153770D01*
D02*
G37*
G36*
X10153Y79500D02*
X7095D01*
Y76047D01*
X10153D01*
Y79500D01*
D02*
G37*
G36*
X308896Y145770D02*
X305837D01*
Y142317D01*
X308896D01*
Y145770D01*
D02*
G37*
G36*
X41799Y103490D02*
X37826D01*
X37915Y102815D01*
X38368Y101720D01*
X39090Y100780D01*
X40030Y100059D01*
X41124Y99605D01*
X41799Y99517D01*
Y103490D01*
D02*
G37*
G36*
X10153Y83953D02*
X7095D01*
Y80500D01*
X10153D01*
Y83953D01*
D02*
G37*
G36*
X456000Y289048D02*
X454040Y288855D01*
X452155Y288283D01*
X450417Y287355D01*
X448895Y286105D01*
X447645Y284583D01*
X446716Y282845D01*
X446145Y280960D01*
X445952Y279000D01*
X446145Y277040D01*
X446716Y275155D01*
X447645Y273417D01*
X448895Y271895D01*
X450417Y270645D01*
X452155Y269717D01*
X454040Y269145D01*
X456000Y268952D01*
X457960Y269145D01*
X459845Y269717D01*
X461583Y270645D01*
X463105Y271895D01*
X464355Y273417D01*
X465283Y275155D01*
X465855Y277040D01*
X466048Y279000D01*
X465855Y280960D01*
X465283Y282845D01*
X464355Y284583D01*
X463105Y286105D01*
X461583Y287355D01*
X459845Y288283D01*
X457960Y288855D01*
X456000Y289048D01*
D02*
G37*
G36*
X16000D02*
X14040Y288855D01*
X12155Y288283D01*
X10417Y287355D01*
X8895Y286105D01*
X7645Y284583D01*
X6717Y282845D01*
X6145Y280960D01*
X5952Y279000D01*
X6145Y277040D01*
X6717Y275155D01*
X7645Y273417D01*
X8895Y271895D01*
X10417Y270645D01*
X12155Y269717D01*
X14040Y269145D01*
X16000Y268952D01*
X17960Y269145D01*
X19845Y269717D01*
X21583Y270645D01*
X23105Y271895D01*
X24355Y273417D01*
X25284Y275155D01*
X25855Y277040D01*
X26048Y279000D01*
X25855Y280960D01*
X25284Y282845D01*
X24355Y284583D01*
X23105Y286105D01*
X21583Y287355D01*
X19845Y288283D01*
X17960Y288855D01*
X16000Y289048D01*
D02*
G37*
G36*
X104100Y260500D02*
X100500D01*
Y256900D01*
X104100D01*
Y260500D01*
D02*
G37*
G36*
X456000Y26048D02*
X454040Y25855D01*
X452155Y25284D01*
X450417Y24355D01*
X448895Y23105D01*
X447645Y21583D01*
X446716Y19845D01*
X446145Y17960D01*
X445952Y16000D01*
X446145Y14040D01*
X446716Y12155D01*
X447645Y10417D01*
X448895Y8895D01*
X450417Y7645D01*
X452155Y6717D01*
X454040Y6145D01*
X456000Y5952D01*
X457960Y6145D01*
X459845Y6717D01*
X461583Y7645D01*
X463105Y8895D01*
X464355Y10417D01*
X465283Y12155D01*
X465855Y14040D01*
X466048Y16000D01*
X465855Y17960D01*
X465283Y19845D01*
X464355Y21583D01*
X463105Y23105D01*
X461583Y24355D01*
X459845Y25284D01*
X457960Y25855D01*
X456000Y26048D01*
D02*
G37*
G36*
X43500Y270500D02*
X39900D01*
Y266900D01*
X43500D01*
Y270500D01*
D02*
G37*
G36*
X48100D02*
X44500D01*
Y266900D01*
X48100D01*
Y270500D01*
D02*
G37*
G36*
X49888Y16177D02*
X40144D01*
X40180Y15994D01*
X40567Y15416D01*
Y15380D01*
X40180Y14801D01*
X40144Y14618D01*
X49888D01*
X49851Y14801D01*
X49464Y15380D01*
Y15416D01*
X49851Y15994D01*
X49888Y16177D01*
D02*
G37*
G36*
X48203Y13853D02*
X41829D01*
X40951Y13679D01*
X40860Y13618D01*
X40144D01*
X40180Y13435D01*
X40306Y13248D01*
X40207Y13181D01*
X39709Y12437D01*
X39535Y11559D01*
X39709Y10681D01*
X39978Y10279D01*
X39709Y9878D01*
X39535Y9000D01*
X39709Y8122D01*
X40207Y7378D01*
X40951Y6881D01*
X41829Y6706D01*
X48203D01*
X49081Y6881D01*
X49825Y7378D01*
X50322Y8122D01*
X50497Y9000D01*
X50322Y9878D01*
X50054Y10279D01*
X50322Y10681D01*
X50497Y11559D01*
X50322Y12437D01*
X49825Y13181D01*
X49726Y13248D01*
X49851Y13435D01*
X49888Y13618D01*
X49171D01*
X49081Y13679D01*
X48203Y13853D01*
D02*
G37*
G36*
X16000Y26048D02*
X14040Y25855D01*
X12155Y25284D01*
X10417Y24355D01*
X8895Y23105D01*
X7645Y21583D01*
X6717Y19845D01*
X6145Y17960D01*
X5952Y16000D01*
X6145Y14040D01*
X6717Y12155D01*
X7645Y10417D01*
X8895Y8895D01*
X10417Y7645D01*
X12155Y6717D01*
X14040Y6145D01*
X16000Y5952D01*
X17960Y6145D01*
X19845Y6717D01*
X21583Y7645D01*
X23105Y8895D01*
X24355Y10417D01*
X25284Y12155D01*
X25855Y14040D01*
X26048Y16000D01*
X25855Y17960D01*
X25284Y19845D01*
X24355Y21583D01*
X23105Y23105D01*
X21583Y24355D01*
X19845Y25284D01*
X17960Y25855D01*
X16000Y26048D01*
D02*
G37*
G36*
X11500Y251473D02*
Y247500D01*
X15473D01*
X15384Y248175D01*
X14931Y249269D01*
X14209Y250209D01*
X13269Y250931D01*
X12175Y251384D01*
X11500Y251473D01*
D02*
G37*
G36*
X11209Y38035D02*
X6968D01*
Y32860D01*
X11209D01*
Y38035D01*
D02*
G37*
G36*
X374504Y289315D02*
X146000D01*
X145220Y289160D01*
X144558Y288718D01*
X142843Y287003D01*
X140684Y286719D01*
X140679Y286719D01*
X140402Y287387D01*
X139961Y287961D01*
X139387Y288402D01*
X138718Y288679D01*
X138102Y288760D01*
X137505Y289160D01*
X136724Y289315D01*
X116276D01*
X115495Y289160D01*
X114834Y288718D01*
X101481Y275365D01*
X101201Y275482D01*
X100000Y275640D01*
X98799Y275482D01*
X97680Y275018D01*
X96719Y274281D01*
X95982Y273320D01*
X95518Y272201D01*
X95360Y271000D01*
X95518Y269799D01*
X95982Y268680D01*
X96719Y267719D01*
X97680Y266982D01*
X98435Y266669D01*
X98123Y265100D01*
X95900D01*
Y261500D01*
X104100D01*
Y265100D01*
X101877D01*
X101565Y266669D01*
X102320Y266982D01*
X103281Y267719D01*
X104018Y268680D01*
X104482Y269799D01*
X104640Y271000D01*
X104482Y272201D01*
X104365Y272481D01*
X117120Y285237D01*
X122203D01*
Y276400D01*
X123795D01*
X124310Y274885D01*
X123522Y274281D01*
X122785Y273320D01*
X122322Y272201D01*
X122163Y271000D01*
X122322Y269799D01*
X122785Y268680D01*
X123522Y267719D01*
X124483Y266982D01*
X124923Y266800D01*
Y265200D01*
X124483Y265018D01*
X123522Y264281D01*
X122785Y263320D01*
X122322Y262201D01*
X122163Y261000D01*
X122322Y259799D01*
X122785Y258680D01*
X123522Y257719D01*
X124483Y256982D01*
X125602Y256518D01*
X126803Y256360D01*
X128004Y256518D01*
X129123Y256982D01*
X130084Y257719D01*
X130821Y258680D01*
X131285Y259799D01*
X131443Y261000D01*
X131285Y262201D01*
X130821Y263320D01*
X130084Y264281D01*
X129123Y265018D01*
X128684Y265200D01*
Y266800D01*
X129123Y266982D01*
X130084Y267719D01*
X130821Y268680D01*
X131198Y269590D01*
X146845Y285237D01*
X191520D01*
Y285237D01*
Y285142D01*
X191520Y284105D01*
X191520Y284105D01*
X191520Y284105D01*
Y277742D01*
X182817Y269039D01*
X175654D01*
X174873Y268884D01*
X174212Y268442D01*
X166175Y260405D01*
X161522D01*
Y252287D01*
Y245595D01*
X163512D01*
Y232453D01*
X161594D01*
Y223547D01*
X176406D01*
Y225961D01*
X183146D01*
Y223547D01*
X185333D01*
X185404Y223442D01*
X185763Y222904D01*
X188109Y220558D01*
Y220442D01*
X185794Y218127D01*
X185352Y217465D01*
X185321Y217307D01*
X183177D01*
Y214894D01*
X178854D01*
X178074Y214738D01*
X177412Y214296D01*
X173873Y210757D01*
X173282Y210679D01*
X172613Y210402D01*
X172039Y209961D01*
X171598Y209387D01*
X171534Y209232D01*
X169964Y208920D01*
X157039Y221845D01*
Y249594D01*
X157453D01*
Y256287D01*
Y264405D01*
X149478D01*
X142757Y271127D01*
X142679Y271718D01*
X142402Y272387D01*
X141961Y272961D01*
X141387Y273402D01*
X140718Y273679D01*
X140000Y273774D01*
X139282Y273679D01*
X138613Y273402D01*
X138039Y272961D01*
X137598Y272387D01*
X137321Y271718D01*
X137226Y271000D01*
X137321Y270282D01*
X137598Y269613D01*
X138039Y269039D01*
X138613Y268598D01*
X139282Y268321D01*
X139873Y268243D01*
X148547Y259569D01*
Y256287D01*
Y249594D01*
X152961D01*
Y221000D01*
X153116Y220220D01*
X153558Y219558D01*
X176665Y196451D01*
X176353Y194881D01*
X174320Y194039D01*
X171845D01*
X125442Y240442D01*
X124780Y240884D01*
X124000Y241039D01*
X110003D01*
X109295Y242474D01*
X109402Y242613D01*
X109679Y243282D01*
X109774Y244000D01*
X109679Y244718D01*
X109402Y245387D01*
X108961Y245961D01*
X108387Y246402D01*
X107718Y246679D01*
X107127Y246757D01*
X98462Y255422D01*
X99074Y256900D01*
X99500D01*
Y260500D01*
X95900D01*
Y260074D01*
X94422Y259462D01*
X92039Y261845D01*
Y264000D01*
X91884Y264780D01*
X91442Y265442D01*
X77600Y279284D01*
Y285600D01*
X68400D01*
Y276400D01*
X69992D01*
X70507Y274885D01*
X69719Y274281D01*
X68982Y273320D01*
X68518Y272201D01*
X68360Y271000D01*
X68518Y269799D01*
X68982Y268680D01*
X69719Y267719D01*
X70680Y266982D01*
X71799Y266518D01*
X73000Y266360D01*
X74201Y266518D01*
X74481Y266635D01*
X86961Y254155D01*
Y245860D01*
X86598Y245387D01*
X86321Y244718D01*
X86226Y244000D01*
X86257Y243770D01*
X84822Y243062D01*
X48365Y279519D01*
X48482Y279799D01*
X48640Y281000D01*
X48482Y282201D01*
X48018Y283320D01*
X47281Y284281D01*
X46320Y285018D01*
X45201Y285482D01*
X44000Y285640D01*
X42799Y285482D01*
X41680Y285018D01*
X40719Y284281D01*
X39982Y283320D01*
X39518Y282201D01*
X39360Y281000D01*
X39518Y279799D01*
X39982Y278680D01*
X40719Y277719D01*
X41680Y276982D01*
X42435Y276669D01*
X42123Y275100D01*
X39900D01*
Y271500D01*
X48100D01*
Y271926D01*
X49578Y272538D01*
X84558Y237558D01*
X84558D01*
X84558Y237558D01*
X84558Y237558D01*
Y237558D01*
X85220Y237116D01*
X86000Y236961D01*
X101320D01*
X104321Y235718D01*
X104226Y235000D01*
X104321Y234282D01*
X104598Y233613D01*
X104961Y233140D01*
Y226000D01*
X104961Y226000D01*
X104961D01*
X105116Y225220D01*
X105558Y224558D01*
X123558Y206558D01*
X124220Y206116D01*
X125000Y205961D01*
X137140D01*
X137613Y205598D01*
X138282Y205321D01*
X139000Y205226D01*
X139718Y205321D01*
X140387Y205598D01*
X140961Y206039D01*
X141402Y206613D01*
X141466Y206768D01*
X143036Y207081D01*
X174558Y175558D01*
X175220Y175116D01*
X176000Y174961D01*
X204691D01*
X205164Y174598D01*
X205833Y174321D01*
X206551Y174226D01*
X207269Y174321D01*
X207938Y174598D01*
X208512Y175039D01*
X208953Y175613D01*
X209076Y175910D01*
X210646Y175598D01*
Y174195D01*
X213705D01*
Y178148D01*
X214705D01*
Y174195D01*
X216839D01*
Y173695D01*
X224957D01*
Y182600D01*
D01*
Y182600D01*
X224957Y182600D01*
X224957Y183547D01*
X224957D01*
Y189175D01*
X225544Y189762D01*
X227040Y190382D01*
X227814Y190331D01*
X228039Y190039D01*
X228613Y189598D01*
X229282Y189321D01*
X230000Y189226D01*
X230718Y189321D01*
X231387Y189598D01*
X231860Y189961D01*
X250140D01*
X250613Y189598D01*
X250768Y189534D01*
X251080Y187964D01*
X234155Y171039D01*
X185860D01*
X185387Y171402D01*
X184718Y171679D01*
X184000Y171774D01*
X183282Y171679D01*
X182613Y171402D01*
X182039Y170961D01*
X181598Y170387D01*
X181321Y169718D01*
X181226Y169000D01*
X181321Y168282D01*
X181598Y167613D01*
X182039Y167039D01*
X182613Y166598D01*
X182837Y166505D01*
X183449Y165027D01*
X183321Y164718D01*
X183226Y164000D01*
X183321Y163282D01*
X183598Y162613D01*
X184039Y162039D01*
X184613Y161598D01*
X185282Y161321D01*
X186000Y161226D01*
X186718Y161321D01*
X187387Y161598D01*
X187860Y161961D01*
X235986D01*
X236231Y161370D01*
X235343Y160039D01*
X219935D01*
X219154Y159884D01*
X218493Y159442D01*
X197701Y138651D01*
X196186Y139165D01*
X196179Y139218D01*
X195902Y139887D01*
X195461Y140461D01*
X194887Y140902D01*
X194218Y141179D01*
X193500Y141274D01*
X192782Y141179D01*
X192113Y140902D01*
X191640Y140539D01*
X189874Y140849D01*
X188961Y142039D01*
X189402Y142613D01*
X189679Y143282D01*
X189774Y144000D01*
X189679Y144718D01*
X189402Y145387D01*
X188961Y145961D01*
X188387Y146402D01*
X187718Y146679D01*
X187127Y146757D01*
X182451Y151433D01*
X182465Y151857D01*
X183032Y152503D01*
D01*
X183315Y152826D01*
D01*
D01*
X183613Y152598D01*
X184282Y152321D01*
X185000Y152226D01*
X185718Y152321D01*
X186387Y152598D01*
X186961Y153039D01*
X187402Y153613D01*
X187679Y154282D01*
X187774Y155000D01*
X187679Y155718D01*
X187402Y156387D01*
X186961Y156961D01*
X186387Y157402D01*
X185718Y157679D01*
X185127Y157757D01*
X143442Y199442D01*
X142780Y199884D01*
X142000Y200039D01*
X115845D01*
X67442Y248442D01*
X66780Y248884D01*
X66000Y249039D01*
X45567D01*
X45368Y249522D01*
X44566Y250566D01*
X43522Y251367D01*
X42305Y251871D01*
X41000Y252043D01*
X39695Y251871D01*
X38478Y251367D01*
X37434Y250566D01*
X36632Y249522D01*
X36129Y248305D01*
X35957Y247000D01*
X36129Y245695D01*
X36632Y244478D01*
X37434Y243434D01*
X38260Y242800D01*
Y241200D01*
X37434Y240566D01*
X36632Y239522D01*
X36129Y238305D01*
X35957Y237000D01*
X36129Y235695D01*
X36632Y234478D01*
X37434Y233434D01*
X38260Y232800D01*
Y231200D01*
X37434Y230566D01*
X36632Y229522D01*
X36129Y228305D01*
X35957Y227000D01*
X36092Y225976D01*
X32558Y222442D01*
X32116Y221780D01*
X31961Y221000D01*
Y194860D01*
X31598Y194387D01*
X31534Y194232D01*
X29964Y193920D01*
X26315Y197569D01*
X26927Y199047D01*
X29906D01*
Y202500D01*
X26346D01*
Y203000D01*
X25846D01*
Y206953D01*
X23713D01*
Y207453D01*
X21948D01*
Y208347D01*
X21773Y209224D01*
X21276Y209969D01*
X15777Y215467D01*
X15871Y215695D01*
X16043Y217000D01*
X15871Y218305D01*
X15672Y218788D01*
X19442Y222558D01*
X19442Y222558D01*
X19707Y222955D01*
X19884Y223220D01*
X20039Y224000D01*
Y230000D01*
X19884Y230780D01*
X19707Y231045D01*
X19442Y231442D01*
X19442Y231442D01*
X15672Y235212D01*
X15871Y235695D01*
X16043Y237000D01*
X15871Y238305D01*
X15368Y239522D01*
X14566Y240566D01*
X13522Y241368D01*
X12305Y241871D01*
X12305Y241871D01*
X13269Y243069D01*
X13269D01*
X13269Y243069D01*
X14209Y243791D01*
X14931Y244731D01*
X15384Y245825D01*
X15473Y246500D01*
X6527D01*
X6616Y245825D01*
X7069Y244731D01*
X7791Y243791D01*
X8731Y243069D01*
X8731Y243069D01*
X8731D01*
X8869Y242897D01*
X8478Y241368D01*
X7434Y240566D01*
X6633Y239522D01*
X6129Y238305D01*
X5957Y237000D01*
X6129Y235695D01*
X6633Y234478D01*
X7434Y233434D01*
X8260Y232800D01*
Y231200D01*
X7434Y230566D01*
X6633Y229522D01*
X6129Y228305D01*
X5957Y227000D01*
X6129Y225695D01*
X6633Y224478D01*
X7434Y223434D01*
X8260Y222800D01*
Y221200D01*
X7434Y220566D01*
X6633Y219522D01*
X6129Y218305D01*
X5957Y217000D01*
X6129Y215695D01*
X6633Y214478D01*
X7434Y213434D01*
X8478Y212632D01*
X9695Y212129D01*
X11000Y211957D01*
X12305Y212129D01*
X12533Y212223D01*
X16095Y208661D01*
X15595Y207453D01*
X15595D01*
X15595Y207453D01*
Y198547D01*
X19569D01*
X34234Y183882D01*
X33622Y182404D01*
X15400D01*
Y184965D01*
X6200D01*
Y175765D01*
X9022D01*
X9334Y174195D01*
X8732Y173946D01*
X7876Y173289D01*
X7219Y172432D01*
X6805Y171435D01*
X6730Y170864D01*
X14870D01*
X14795Y171435D01*
X14381Y172432D01*
X13724Y173289D01*
X12868Y173946D01*
X12266Y174195D01*
X12578Y175765D01*
X15400D01*
Y178325D01*
X30375D01*
X30727Y178055D01*
X31436Y176995D01*
X31321Y176718D01*
X31226Y176000D01*
X31321Y175282D01*
X31598Y174613D01*
X32039Y174039D01*
X32613Y173598D01*
X33282Y173321D01*
X33873Y173243D01*
X43558Y163558D01*
X44220Y163116D01*
X45000Y162961D01*
X66090D01*
X112335Y116716D01*
Y110400D01*
X121535D01*
Y111992D01*
X123050Y112507D01*
X123654Y111719D01*
X124441Y111115D01*
X123927Y109600D01*
X122335D01*
Y100400D01*
X128651D01*
X133207Y95844D01*
X133135Y95299D01*
X132777Y94244D01*
X132282Y94179D01*
X131613Y93902D01*
X131140Y93539D01*
X86345D01*
X78386Y101498D01*
Y122547D01*
X80405D01*
Y131453D01*
X71948D01*
Y137000D01*
X71773Y137878D01*
X71276Y138622D01*
X56717Y153181D01*
X55972Y153679D01*
X55094Y153853D01*
X52469D01*
Y156012D01*
X37657D01*
Y154200D01*
X35516D01*
Y155965D01*
X26610D01*
Y154141D01*
X26028Y154025D01*
X25283Y153528D01*
X19378Y147622D01*
X18880Y146878D01*
X18706Y146000D01*
Y143988D01*
X18596Y143904D01*
X18056Y143200D01*
X17717Y142380D01*
X17601Y141500D01*
X17717Y140620D01*
X18056Y139800D01*
X18596Y139096D01*
Y138904D01*
X18056Y138200D01*
X17717Y137380D01*
X17601Y136500D01*
X17717Y135620D01*
X18056Y134800D01*
X18596Y134096D01*
Y133904D01*
X18056Y133200D01*
X17717Y132380D01*
X17601Y131500D01*
X17717Y130620D01*
X18056Y129800D01*
X18230Y129574D01*
X18130Y129370D01*
X18130D01*
X18130Y129370D01*
Y127000D01*
X23870D01*
Y127478D01*
X24964Y128904D01*
X25200Y129062D01*
X25782Y128821D01*
X26500Y128726D01*
X27218Y128821D01*
X27887Y129098D01*
X28461Y129539D01*
X28902Y130113D01*
X28966Y130268D01*
X30536Y130580D01*
X51907Y109209D01*
X51393Y107694D01*
X51282Y107679D01*
X50613Y107402D01*
X50039Y106961D01*
X49598Y106387D01*
X49321Y105718D01*
X49226Y105000D01*
X49321Y104282D01*
X49598Y103613D01*
X49604Y103605D01*
Y97339D01*
X39127Y86862D01*
X37527D01*
X35694Y88694D01*
X34917Y89214D01*
X34500Y89297D01*
Y90500D01*
X25500D01*
Y83500D01*
X25500Y83500D01*
X25500Y82500D01*
D01*
X25500Y82396D01*
X21406D01*
Y84453D01*
X20774D01*
Y99000D01*
X20679Y99718D01*
X20402Y100387D01*
X19961Y100961D01*
X17913Y103010D01*
X18043Y104000D01*
X17871Y105305D01*
X17368Y106522D01*
X16566Y107566D01*
X15522Y108368D01*
X14305Y108871D01*
X13000Y109043D01*
X11695Y108871D01*
X10478Y108368D01*
X9434Y107566D01*
X8632Y106522D01*
X8129Y105305D01*
X7957Y104000D01*
X8129Y102695D01*
X8632Y101478D01*
X9434Y100434D01*
X10478Y99633D01*
X11695Y99129D01*
X13000Y98957D01*
X13990Y99087D01*
X15226Y97851D01*
Y84453D01*
X13287D01*
Y83953D01*
X11153D01*
Y80000D01*
Y76047D01*
X13287D01*
Y75547D01*
X21406D01*
Y77604D01*
X25500D01*
Y75500D01*
X27368D01*
Y63496D01*
X25898D01*
Y63496D01*
X21264D01*
Y59646D01*
X20264D01*
Y63496D01*
X16449D01*
Y67140D01*
X12209D01*
Y61465D01*
X11709D01*
Y60965D01*
X6968D01*
Y55789D01*
Y53795D01*
X11709D01*
Y52795D01*
X6968D01*
Y49982D01*
Y47205D01*
X11709D01*
Y46205D01*
X6968D01*
Y43392D01*
Y39035D01*
X11709D01*
Y38535D01*
X12209D01*
Y32860D01*
X16449D01*
Y36504D01*
X20283D01*
Y40354D01*
X20783D01*
Y40854D01*
X25917D01*
Y44204D01*
X25917D01*
Y44605D01*
X26378Y45066D01*
X26378D01*
Y47625D01*
Y47961D01*
X32155D01*
X34835Y45281D01*
X34835D01*
X34835Y45281D01*
X35335Y44074D01*
X35274Y43141D01*
X35039Y42961D01*
X34598Y42387D01*
X34321Y41718D01*
X34226Y41000D01*
X34321Y40282D01*
X34345Y40224D01*
X34000Y39774D01*
X33282Y39679D01*
X32613Y39402D01*
X32039Y38961D01*
X31598Y38387D01*
X31321Y37718D01*
X31226Y37000D01*
X31321Y36282D01*
X31598Y35613D01*
X31961Y35140D01*
Y35000D01*
X31961Y35000D01*
X31961D01*
X32116Y34220D01*
X32558Y33558D01*
X38086Y28031D01*
X38747Y27588D01*
X39527Y27433D01*
X39618D01*
X40045Y26913D01*
X40180Y26231D01*
X40197Y26205D01*
X40207Y25976D01*
X39709Y25232D01*
X39535Y24354D01*
X39709Y23476D01*
X39978Y23075D01*
X39709Y22673D01*
X39535Y21795D01*
X39709Y20917D01*
X39978Y20516D01*
X39709Y20114D01*
X39535Y19236D01*
X39709Y18358D01*
X40207Y17614D01*
X40306Y17548D01*
X40180Y17360D01*
X40144Y17177D01*
X40860D01*
X40951Y17117D01*
X41829Y16942D01*
X48203D01*
X49081Y17117D01*
X49171Y17177D01*
X49888D01*
X49851Y17360D01*
X49726Y17548D01*
X49825Y17614D01*
X50322Y18358D01*
X50497Y19236D01*
X50322Y20114D01*
X50054Y20516D01*
X50322Y20917D01*
X50497Y21795D01*
X50322Y22673D01*
X50054Y23075D01*
X50322Y23476D01*
X50497Y24354D01*
X50322Y25232D01*
X49825Y25976D01*
X49726Y26043D01*
X49851Y26231D01*
X49888Y26413D01*
X49171D01*
X49081Y26474D01*
X48203Y26649D01*
X45016D01*
Y27178D01*
X48203D01*
X49081Y27353D01*
X49171Y27413D01*
X49888D01*
X49851Y27596D01*
X49726Y27784D01*
X49825Y27850D01*
X50322Y28595D01*
X50497Y29473D01*
X50322Y30350D01*
X50054Y30752D01*
X50322Y31154D01*
X50497Y32032D01*
X50322Y32909D01*
X49931Y33496D01*
X50685Y34907D01*
X55757D01*
Y24000D01*
X55928Y23142D01*
X56414Y22414D01*
X63737Y15091D01*
X64464Y14605D01*
X65323Y14434D01*
Y14434D01*
X65519Y14118D01*
X65519Y14118D01*
X65519D01*
X65693Y13240D01*
X65962Y12839D01*
X65693Y12437D01*
X65519Y11559D01*
X65577Y11267D01*
X65563Y11250D01*
X65563D01*
Y6750D01*
X76437D01*
Y6961D01*
X108000D01*
X108780Y7116D01*
X109442Y7558D01*
X111822Y9938D01*
X113257Y9230D01*
X113226Y9000D01*
X113321Y8282D01*
X113598Y7613D01*
X114039Y7039D01*
X114613Y6598D01*
X115282Y6321D01*
X116000Y6226D01*
X116718Y6321D01*
X117279Y6553D01*
X119721D01*
X120282Y6321D01*
X121000Y6226D01*
X121718Y6321D01*
X122278Y6553D01*
X324000D01*
X324936Y6739D01*
X325730Y7270D01*
X326261Y8064D01*
X326447Y9000D01*
X326261Y9936D01*
X326039Y10268D01*
Y23584D01*
X326039Y23584D01*
X325884Y24364D01*
X325442Y25026D01*
X325442Y25026D01*
X318421Y32046D01*
Y36887D01*
D01*
Y36887D01*
X318421Y36887D01*
Y37430D01*
X318421D01*
Y45155D01*
X312027D01*
X309591Y47591D01*
X308846Y48088D01*
X307968Y48263D01*
X307405D01*
Y50421D01*
X304396D01*
X304000Y51375D01*
X304889Y52706D01*
X307405D01*
Y61611D01*
X305597D01*
X305386Y61654D01*
X305230Y62434D01*
X304788Y63095D01*
X296212Y71671D01*
Y79813D01*
X297691Y80426D01*
X320961Y57155D01*
Y48000D01*
X321116Y47220D01*
X321558Y46558D01*
X347328Y20788D01*
X347129Y20305D01*
X346957Y19000D01*
X347129Y17695D01*
X347633Y16478D01*
X348434Y15434D01*
X349478Y14633D01*
X350695Y14129D01*
X352000Y13957D01*
X353305Y14129D01*
X354522Y14633D01*
X355566Y15434D01*
X356367Y16478D01*
X356871Y17695D01*
X357043Y19000D01*
X356871Y20305D01*
X356367Y21522D01*
X355566Y22566D01*
X354522Y23368D01*
X353305Y23871D01*
X352000Y24043D01*
X350695Y23871D01*
X350212Y23672D01*
X325039Y48845D01*
Y58000D01*
X324884Y58780D01*
X324442Y59442D01*
X300039Y83845D01*
Y97140D01*
X300402Y97613D01*
X300679Y98282D01*
X300774Y99000D01*
X300679Y99718D01*
X300402Y100387D01*
X299961Y100961D01*
X299387Y101402D01*
X298718Y101679D01*
X298000Y101774D01*
X297415Y101697D01*
X297195Y101890D01*
X296212Y104262D01*
Y119313D01*
X296575Y119786D01*
X296852Y120455D01*
X296947Y121173D01*
X296852Y121891D01*
X296575Y122560D01*
X296134Y123135D01*
X295560Y123575D01*
X294891Y123852D01*
X294173Y123947D01*
X293455Y123852D01*
X292786Y123575D01*
X292212Y123135D01*
X291771Y122560D01*
X291494Y121891D01*
X291400Y121173D01*
X291494Y120455D01*
Y120455D01*
X291771Y119786D01*
X290387Y119402D01*
X289718Y119679D01*
X289000Y119774D01*
X288282Y119679D01*
X287613Y119402D01*
X287039Y118961D01*
X286598Y118387D01*
X286321Y117718D01*
X286226Y117000D01*
X286321Y116282D01*
X286598Y115613D01*
X286961Y115140D01*
Y94845D01*
X263905Y71788D01*
X263462Y71127D01*
X263307Y70346D01*
Y61611D01*
X254594D01*
Y55983D01*
X253650Y55039D01*
X247860D01*
X247387Y55402D01*
X246718Y55679D01*
X246000Y55774D01*
X245282Y55679D01*
X244613Y55402D01*
X244039Y54961D01*
X243598Y54387D01*
X243321Y53718D01*
X243226Y53000D01*
X243321Y52282D01*
X243598Y51613D01*
X244039Y51039D01*
X244613Y50598D01*
X245282Y50321D01*
X246000Y50226D01*
X246718Y50321D01*
X247387Y50598D01*
X247860Y50961D01*
X254495D01*
X254655Y50854D01*
X254737Y50440D01*
X254737Y50440D01*
X254737Y50440D01*
Y41535D01*
X256757D01*
Y39440D01*
X254737D01*
Y30535D01*
X256757D01*
Y28061D01*
X256912Y27281D01*
X257354Y26619D01*
X266238Y17736D01*
X266900Y17294D01*
X267680Y17139D01*
X272544D01*
X272744Y16656D01*
X273545Y15612D01*
X274590Y14810D01*
X275806Y14306D01*
X277111Y14134D01*
X278416Y14306D01*
X279633Y14810D01*
X280677Y15612D01*
X281479Y16656D01*
X281982Y17872D01*
X282154Y19178D01*
X281982Y20483D01*
X281479Y21699D01*
X280677Y22744D01*
X279633Y23545D01*
X278416Y24049D01*
X277111Y24221D01*
X275806Y24049D01*
X274590Y23545D01*
X273545Y22744D01*
X272744Y21699D01*
X272544Y21217D01*
X268525D01*
X260835Y28906D01*
Y30535D01*
X269548D01*
Y31005D01*
X273249D01*
Y29182D01*
X278089D01*
X284961Y22310D01*
Y11447D01*
X251039D01*
Y23584D01*
X251039Y23584D01*
X250884Y24364D01*
X250442Y25026D01*
X250442Y25026D01*
X243421Y32046D01*
Y36887D01*
D01*
Y36887D01*
X243421Y36887D01*
Y37430D01*
X243421D01*
Y45155D01*
X238581D01*
X236325Y47410D01*
X235663Y47853D01*
X234883Y48008D01*
X232295D01*
Y50421D01*
X229396D01*
X229000Y51375D01*
X229889Y52706D01*
X232405D01*
Y61611D01*
X230386D01*
Y63704D01*
X231901Y64218D01*
X232039Y64039D01*
X232613Y63598D01*
X233282Y63321D01*
X234000Y63226D01*
X234718Y63321D01*
X235387Y63598D01*
X235961Y64039D01*
X236402Y64613D01*
X236679Y65282D01*
X236757Y65873D01*
X244442Y73558D01*
X244884Y74220D01*
X245039Y75000D01*
Y76315D01*
X246282Y76321D01*
X246282Y76321D01*
X246282Y76321D01*
X247000Y76226D01*
X247718Y76321D01*
X248387Y76598D01*
X248860Y76961D01*
X251000D01*
X251780Y77116D01*
X252442Y77558D01*
X275284Y100400D01*
X281600D01*
Y109600D01*
X280008D01*
X279493Y111115D01*
X280281Y111719D01*
X281018Y112680D01*
X281482Y113799D01*
X281640Y115000D01*
X281482Y116201D01*
X281365Y116481D01*
X293442Y128558D01*
X293884Y129220D01*
X294039Y130000D01*
Y141817D01*
X294585D01*
Y141817D01*
X295804D01*
X296511Y140382D01*
X296242Y140031D01*
X295965Y139362D01*
X295870Y138644D01*
X295965Y137926D01*
X296242Y137257D01*
X296683Y136683D01*
X297257Y136242D01*
X297926Y135965D01*
X298644Y135871D01*
X299362Y135965D01*
X300031Y136242D01*
X300606Y136683D01*
X301046Y137257D01*
X301324Y137926D01*
X301418Y138644D01*
X301324Y139362D01*
X301046Y140031D01*
X300777Y140382D01*
X301485Y141817D01*
X302703D01*
Y142317D01*
X304837D01*
Y146270D01*
X305337D01*
Y146770D01*
X308896D01*
Y150222D01*
X308896D01*
Y151187D01*
X309109Y151400D01*
X309109D01*
Y153770D01*
X306140D01*
Y154770D01*
X309109D01*
Y156362D01*
X310873D01*
Y154770D01*
X313841D01*
Y154270D01*
X314341D01*
Y151400D01*
X316672D01*
Y150900D01*
X317591D01*
Y88860D01*
X317591Y88860D01*
X317591D01*
X317785Y87884D01*
X318338Y87057D01*
X345198Y60198D01*
X346024Y59645D01*
X347000Y59451D01*
X386944D01*
X392678Y53717D01*
X388165Y49204D01*
X386686Y49816D01*
Y53110D01*
X381743D01*
X381392Y53344D01*
X380612Y53499D01*
X375277D01*
Y55519D01*
X366371D01*
Y47401D01*
X366872D01*
Y45267D01*
X374777D01*
Y47401D01*
X375277D01*
Y49421D01*
X378962D01*
Y45385D01*
X378962Y45385D01*
X378962Y44842D01*
X378962D01*
Y37117D01*
X386686D01*
Y41958D01*
X395634Y50906D01*
X396024Y50645D01*
X397000Y50451D01*
X402980D01*
Y50263D01*
X403483D01*
X403515Y50239D01*
X403557Y50227D01*
X403593Y50203D01*
X403844Y50152D01*
X404092Y50086D01*
X404135Y50092D01*
X404178Y50083D01*
X419541Y49997D01*
X419777Y50042D01*
X420016Y50069D01*
X420068Y50098D01*
X420127Y50110D01*
X420328Y50242D01*
X420365Y50263D01*
X420980D01*
Y50962D01*
X429947Y68389D01*
X441844Y77201D01*
X459038Y81028D01*
X459273Y81132D01*
X459513Y81222D01*
X459545Y81252D01*
X459584Y81269D01*
X459762Y81454D01*
X459949Y81630D01*
X459967Y81669D01*
X459997Y81700D01*
X460089Y81940D01*
X460195Y82174D01*
X466413Y108827D01*
X466419Y109003D01*
X466453Y109175D01*
X466451Y113662D01*
X466404Y113899D01*
X466375Y114139D01*
X466346Y114190D01*
X466334Y114247D01*
X466200Y114448D01*
X466081Y114658D01*
X466035Y114694D01*
X466003Y114743D01*
X465802Y114877D01*
X465611Y115026D01*
X451960Y121919D01*
X450319Y123803D01*
Y128370D01*
X445692D01*
X445381Y129151D01*
X445375Y129805D01*
X445624Y130215D01*
X446113Y130818D01*
X460479Y144450D01*
X460490Y144467D01*
X460507Y144478D01*
X460662Y144710D01*
X460823Y144937D01*
X460827Y144957D01*
X460839Y144974D01*
X460893Y145247D01*
X460955Y145519D01*
X460951Y145539D01*
X460955Y145559D01*
X460957Y154015D01*
X460957Y154015D01*
X460957Y154015D01*
X460901Y154298D01*
X460841Y154600D01*
X460841Y154600D01*
X460841Y154601D01*
X460674Y154850D01*
X460510Y155096D01*
X460510Y155097D01*
X460509Y155097D01*
X460263Y155261D01*
X460014Y155428D01*
X460013Y155428D01*
X460013Y155428D01*
X459711Y155488D01*
X459428Y155545D01*
X459428Y155545D01*
X459428Y155545D01*
X451354Y155545D01*
X451327Y155539D01*
X451299Y155544D01*
X451035Y155481D01*
X450769Y155429D01*
X450745Y155413D01*
X450718Y155406D01*
X450498Y155248D01*
X450273Y155097D01*
X450257Y155074D01*
X450234Y155057D01*
X450046Y154854D01*
X450002D01*
Y154807D01*
X444499Y148891D01*
X443010Y149476D01*
X443007Y160351D01*
X442999Y160389D01*
X443005Y160427D01*
Y160427D01*
X442980Y160996D01*
D01*
X452500Y163390D01*
X459679Y164366D01*
X459866Y164430D01*
X460058Y164469D01*
X460145Y164526D01*
X460244Y164560D01*
X460391Y164691D01*
X460555Y164800D01*
X460613Y164887D01*
X460691Y164956D01*
X460777Y165133D01*
X460886Y165296D01*
X460907Y165398D01*
X460952Y165492D01*
X460964Y165689D01*
X461003Y165882D01*
Y174282D01*
X460886Y174868D01*
X460555Y175364D01*
X460058Y175695D01*
X459473Y175812D01*
X454781D01*
X454695Y175795D01*
X454608Y175802D01*
X445058Y174715D01*
X443636Y175298D01*
X443120Y175638D01*
X442990Y175777D01*
X443009Y175874D01*
X443065Y176011D01*
X443065Y176164D01*
X443093Y176315D01*
X443011Y187944D01*
X444385Y188764D01*
X452687Y184198D01*
X452764Y184174D01*
X452831Y184128D01*
X453046Y184084D01*
X453256Y184018D01*
X453336Y184025D01*
X453416Y184009D01*
X459502Y183979D01*
X459519Y183983D01*
X459537Y183979D01*
X459811Y184039D01*
X460088Y184093D01*
X460102Y184102D01*
X460120Y184106D01*
X460351Y184266D01*
X460585Y184422D01*
X460595Y184436D01*
X460610Y184447D01*
X460762Y184683D01*
X460919Y184916D01*
X460923Y184934D01*
X460932Y184949D01*
X460983Y185225D01*
X461039Y185501D01*
X461035Y185518D01*
X461038Y185536D01*
X460904Y193080D01*
X460881Y193186D01*
X460885Y193295D01*
X460818Y193475D01*
X460777Y193664D01*
X460716Y193753D01*
X460678Y193854D01*
X460547Y193995D01*
X460437Y194154D01*
X460346Y194212D01*
X460272Y194292D01*
X443893Y206154D01*
X443790Y206202D01*
X443702Y206272D01*
X442829Y206727D01*
X442896Y206980D01*
D01*
D01*
Y206980D01*
Y206980D01*
X442896Y206980D01*
X442935Y207181D01*
X442999Y207376D01*
X442992Y207471D01*
X443010Y207566D01*
X442878Y234931D01*
X442823Y235203D01*
X442775Y235476D01*
X442764Y235494D01*
X442759Y235516D01*
X442604Y235746D01*
X442455Y235980D01*
X442438Y235992D01*
X442425Y236010D01*
X442194Y236163D01*
X441967Y236323D01*
X441946Y236327D01*
X441927Y236339D01*
X441655Y236392D01*
X441385Y236453D01*
X434935Y236604D01*
X434911Y236599D01*
X434887Y236604D01*
X424466Y236515D01*
X424466D01*
X416341Y236456D01*
X416055Y236397D01*
X415767Y236339D01*
X415762Y236336D01*
X415757Y236335D01*
X415515Y236171D01*
X415271Y236008D01*
X415268Y236003D01*
X415263Y236000D01*
X415102Y235755D01*
X414939Y235512D01*
X414938Y235506D01*
X414935Y235501D01*
X414880Y235214D01*
X414823Y234927D01*
X414823Y226228D01*
X413577Y224707D01*
X413010Y224837D01*
D01*
X412938Y224859D01*
X412875Y224901D01*
X412654Y224945D01*
X412438Y225010D01*
X412363Y225003D01*
X412290Y225017D01*
X407106D01*
X406966Y225075D01*
X406266Y225167D01*
X400754D01*
X400055Y225075D01*
X399402Y224805D01*
X399074Y224553D01*
X386178D01*
X386140Y224603D01*
X385513Y225084D01*
X384783Y225386D01*
X384000Y225489D01*
X383217Y225386D01*
X382487Y225084D01*
X381860Y224603D01*
X381822Y224553D01*
X375697D01*
X374897Y224394D01*
X374626Y224213D01*
X374219Y223941D01*
X374219Y223941D01*
X347196Y196918D01*
X346787Y196864D01*
X345514Y197117D01*
X345402Y197387D01*
X344961Y197961D01*
X344387Y198402D01*
X343718Y198679D01*
X343000Y198774D01*
X342282Y198679D01*
X341613Y198402D01*
X341207Y198090D01*
X337443D01*
X337443Y198090D01*
X336838Y197970D01*
X336084Y199381D01*
X339865Y203162D01*
X340307Y203824D01*
X340462Y204604D01*
Y209402D01*
X342482D01*
Y215030D01*
X370893Y243440D01*
X370985Y243434D01*
X372030Y242633D01*
X373246Y242129D01*
X374551Y241957D01*
X375856Y242129D01*
X377073Y242633D01*
X378117Y243434D01*
X378919Y244478D01*
X379422Y245695D01*
X379594Y247000D01*
X379422Y248305D01*
X378919Y249522D01*
X378117Y250566D01*
X377073Y251367D01*
X375856Y251871D01*
X374551Y252043D01*
X373246Y251871D01*
X372763Y251672D01*
X370039Y254396D01*
Y275599D01*
X370444Y275767D01*
X371457Y276543D01*
X372233Y277556D01*
X372722Y278735D01*
X372888Y280000D01*
X372722Y281265D01*
X372233Y282444D01*
X371457Y283456D01*
X371111Y283721D01*
X371626Y285237D01*
X373659D01*
X377226Y281670D01*
X377058Y281265D01*
X376891Y280000D01*
X377058Y278735D01*
X377546Y277556D01*
X378323Y276543D01*
X379335Y275767D01*
X380514Y275278D01*
X381780Y275112D01*
X383045Y275278D01*
X384224Y275767D01*
X385236Y276543D01*
X386013Y277556D01*
X386501Y278735D01*
X386668Y280000D01*
X386501Y281265D01*
X386013Y282444D01*
X385236Y283456D01*
X384224Y284233D01*
X383045Y284722D01*
X381780Y284888D01*
X380514Y284722D01*
X380109Y284554D01*
X375946Y288718D01*
X375284Y289160D01*
X374504Y289315D01*
D02*
G37*
G36*
X10500Y251473D02*
X9825Y251384D01*
X8731Y250931D01*
X7791Y250209D01*
X7069Y249269D01*
X6616Y248175D01*
X6527Y247500D01*
X10500D01*
Y251473D01*
D02*
G37*
G36*
X423500Y281473D02*
Y277500D01*
X427473D01*
X427384Y278175D01*
X426931Y279269D01*
X426209Y280209D01*
X425269Y280931D01*
X424175Y281384D01*
X423500Y281473D01*
D02*
G37*
G36*
X422500Y276500D02*
X418527D01*
X418616Y275825D01*
X419069Y274731D01*
X419791Y273791D01*
X420731Y273069D01*
X421825Y272616D01*
X422500Y272527D01*
Y276500D01*
D02*
G37*
G36*
X427473D02*
X423500D01*
Y272527D01*
X424175Y272616D01*
X425269Y273069D01*
X426209Y273791D01*
X426931Y274731D01*
X427384Y275825D01*
X427473Y276500D01*
D02*
G37*
G36*
X422500Y281473D02*
X421825Y281384D01*
X420731Y280931D01*
X419791Y280209D01*
X419069Y279269D01*
X418616Y278175D01*
X418527Y277500D01*
X422500D01*
Y281473D01*
D02*
G37*
%LPD*%
G36*
X84058Y90058D02*
X84720Y89616D01*
X85500Y89461D01*
X130324D01*
X131212Y88130D01*
X130481Y86365D01*
X121873Y77757D01*
X121282Y77679D01*
X120613Y77402D01*
X120039Y76961D01*
X119598Y76387D01*
X119321Y75718D01*
X119226Y75000D01*
X119321Y74282D01*
X119598Y73613D01*
X120039Y73039D01*
X120613Y72598D01*
X120768Y72534D01*
X121081Y70964D01*
X117558Y67442D01*
X117116Y66780D01*
X116961Y66000D01*
Y62860D01*
X116598Y62387D01*
X116321Y61718D01*
X116226Y61000D01*
X116321Y60282D01*
X113320Y59039D01*
X95845D01*
X94315Y60569D01*
X94927Y62047D01*
X96846D01*
Y66000D01*
Y69953D01*
X94713D01*
Y70453D01*
X92672D01*
X92537Y71127D01*
X92096Y71788D01*
X72093Y91791D01*
X72607Y93306D01*
X72718Y93321D01*
X73387Y93598D01*
X73961Y94039D01*
X74402Y94613D01*
X74679Y95282D01*
X74774Y96000D01*
X74679Y96718D01*
Y96718D01*
X74420Y97400D01*
X75505Y98233D01*
X75772Y98344D01*
X84058Y90058D01*
D02*
G37*
G36*
X208613Y50598D02*
X209282Y50321D01*
X209830Y50249D01*
X210103Y49447D01*
X210214Y48603D01*
X200650Y39039D01*
X163092D01*
X158550Y39637D01*
X158036Y41152D01*
X167845Y50961D01*
X208140D01*
X208613Y50598D01*
D02*
G37*
G36*
X57961Y103155D02*
Y93000D01*
X58116Y92220D01*
X58558Y91558D01*
X71907Y78209D01*
X71393Y76694D01*
X71282Y76679D01*
X70613Y76402D01*
X70039Y75961D01*
X69598Y75387D01*
X69321Y74718D01*
X69298Y74542D01*
X56031Y61276D01*
X55534Y60532D01*
X55360Y59654D01*
Y56453D01*
X53594D01*
Y47547D01*
X55757D01*
Y46000D01*
Y39393D01*
X50756D01*
X50497Y39709D01*
X50322Y40587D01*
X50054Y40988D01*
X50322Y41390D01*
X50497Y42268D01*
X50322Y43146D01*
X49825Y43890D01*
X49081Y44387D01*
X48370Y44529D01*
Y51413D01*
X49799D01*
Y59925D01*
X48906D01*
Y60575D01*
X48906D01*
Y63831D01*
X45543D01*
Y64331D01*
X45043D01*
Y68087D01*
X42319D01*
Y68587D01*
X41246D01*
Y70204D01*
X41589Y70547D01*
X46713D01*
Y71047D01*
X48846D01*
Y75000D01*
Y78953D01*
X46713D01*
Y79453D01*
X44741D01*
X44348Y80041D01*
X44348Y80041D01*
X41715Y82673D01*
X53694Y94652D01*
X53694Y94652D01*
X54214Y95429D01*
X54396Y96346D01*
X54396Y96346D01*
Y103605D01*
X54402Y103613D01*
X54679Y104282D01*
X54694Y104393D01*
X56209Y104907D01*
X57961Y103155D01*
D02*
G37*
G36*
X271039Y59039D02*
X271613Y58598D01*
X272282Y58321D01*
X273000Y58226D01*
X273718Y58321D01*
X274387Y58598D01*
X274860Y58961D01*
X291967D01*
X292595Y58334D01*
Y52706D01*
X295731D01*
X296127Y51752D01*
X295238Y50421D01*
X292595D01*
Y41516D01*
X294614D01*
Y39421D01*
X292595D01*
Y30516D01*
X294614D01*
Y26346D01*
X294614Y26346D01*
X294614D01*
X294770Y25566D01*
X295212Y24904D01*
X302400Y17717D01*
X303061Y17275D01*
X303841Y17119D01*
X309992D01*
X310192Y16637D01*
X310993Y15593D01*
X312037Y14791D01*
X313254Y14287D01*
X314559Y14115D01*
X315864Y14287D01*
X317081Y14791D01*
X318125Y15593D01*
X318927Y16637D01*
X319430Y17853D01*
X319602Y19159D01*
X319430Y20464D01*
X318927Y21680D01*
X318125Y22725D01*
X317081Y23526D01*
X315864Y24030D01*
X314559Y24202D01*
X313254Y24030D01*
X312037Y23526D01*
X310993Y22725D01*
X310192Y21680D01*
X309992Y21198D01*
X304686D01*
X298693Y27191D01*
Y30516D01*
X307405D01*
Y30986D01*
X310697D01*
Y29162D01*
X315537D01*
X321961Y22739D01*
Y11447D01*
X289039D01*
Y23155D01*
X288884Y23935D01*
X288442Y24597D01*
X280973Y32065D01*
Y36906D01*
D01*
Y36906D01*
X280973Y36906D01*
Y37449D01*
X280973D01*
Y45174D01*
X276133D01*
X273877Y47430D01*
X273215Y47872D01*
X272435Y48027D01*
X269548D01*
Y50440D01*
X266415D01*
X266027Y51375D01*
X266916Y52706D01*
X269406D01*
Y58678D01*
X270921Y59193D01*
X271039Y59039D01*
D02*
G37*
G36*
X217484Y48015D02*
Y41516D01*
X219504D01*
Y39421D01*
X217484D01*
Y30516D01*
X219445D01*
X219504Y30457D01*
X219504Y30457D01*
D01*
X219659Y29676D01*
X220101Y29015D01*
X231400Y17717D01*
X232061Y17275D01*
X232841Y17119D01*
X234992D01*
X235192Y16637D01*
X235993Y15593D01*
X237037Y14791D01*
X238254Y14287D01*
X239559Y14115D01*
X240864Y14287D01*
X242081Y14791D01*
X243125Y15593D01*
X243927Y16637D01*
X244430Y17853D01*
X244602Y19159D01*
X244430Y20464D01*
X243927Y21680D01*
X243125Y22725D01*
X242081Y23526D01*
X240864Y24030D01*
X239559Y24202D01*
X238254Y24030D01*
X237037Y23526D01*
X235993Y22725D01*
X235192Y21680D01*
X235160Y21605D01*
X233591Y21293D01*
X225846Y29037D01*
X226459Y30516D01*
X232295D01*
Y30986D01*
X235697D01*
Y29162D01*
X240537D01*
X246961Y22739D01*
Y11447D01*
X158862D01*
Y18386D01*
X158862Y18386D01*
D01*
X158862Y18974D01*
Y19040D01*
Y19246D01*
X158862Y19518D01*
X158862Y20106D01*
X158862Y20106D01*
X158862Y20106D01*
Y23307D01*
X164547D01*
Y21287D01*
X165047D01*
Y19153D01*
X172953D01*
Y21287D01*
X173453D01*
Y29406D01*
X164547D01*
Y27386D01*
X156966D01*
X156245Y27242D01*
X151138D01*
Y20106D01*
X151138Y20106D01*
X151138Y20106D01*
X151138Y19518D01*
Y19246D01*
Y18974D01*
X151138Y18386D01*
X151138Y18386D01*
X151138Y18386D01*
Y11447D01*
X122359D01*
X121470Y12777D01*
X121679Y13282D01*
X121766Y13944D01*
X122084Y14420D01*
X122239Y15200D01*
X122239Y15200D01*
Y20330D01*
X137810D01*
Y27926D01*
X145964Y36081D01*
X147534Y35768D01*
X147598Y35613D01*
X148039Y35039D01*
X148613Y34598D01*
X149282Y34321D01*
X150000Y34226D01*
X150718Y34321D01*
X151387Y34598D01*
X151860Y34961D01*
X201495D01*
X202275Y35116D01*
X202937Y35558D01*
X216006Y48627D01*
X217484Y48015D01*
D02*
G37*
G36*
X75961Y71968D02*
Y63000D01*
X75961Y63000D01*
X75961D01*
X76116Y62220D01*
X76558Y61558D01*
X85558Y52558D01*
X86220Y52116D01*
X87000Y51961D01*
X110770D01*
Y51730D01*
X110770D01*
Y47730D01*
X112520D01*
Y46730D01*
X110770D01*
Y42730D01*
X112231D01*
X113051Y41910D01*
D01*
X113051D01*
D01*
X113051Y41910D01*
D01*
X113206Y41130D01*
X113648Y40468D01*
X114358Y39759D01*
X118039Y34961D01*
X117598Y34387D01*
X117321Y33718D01*
X117226Y33000D01*
X117321Y32282D01*
X117578Y31660D01*
X117493Y31533D01*
X115926Y30330D01*
X110692D01*
X106586Y34437D01*
X105858Y34923D01*
X105000Y35094D01*
X103370D01*
Y36319D01*
X102870D01*
Y38650D01*
X97130D01*
Y36319D01*
X96630D01*
Y35101D01*
X92453D01*
Y35713D01*
X91953D01*
Y37846D01*
X84047D01*
Y37216D01*
X82569Y36603D01*
X81243Y37929D01*
Y44000D01*
X81243Y44000D01*
X81243Y44000D01*
X81072Y44858D01*
X80908Y45104D01*
X80908Y45104D01*
X80586Y45586D01*
Y45586D01*
X80586Y45586D01*
X78586Y47586D01*
X77858Y48072D01*
X77000Y48243D01*
X67905D01*
Y51500D01*
X64346D01*
Y52000D01*
X63846D01*
Y55953D01*
X61713D01*
Y56453D01*
X59948D01*
Y58703D01*
X72542Y71298D01*
X72718Y71321D01*
X73387Y71598D01*
X73961Y72039D01*
X74402Y72613D01*
X75961Y71968D01*
D02*
G37*
G36*
X354254Y146790D02*
X354321Y146282D01*
X354598Y145613D01*
X355039Y145039D01*
X355613Y144598D01*
X356282Y144321D01*
X357000Y144226D01*
X357718Y144321D01*
X358387Y144598D01*
X358961Y145039D01*
X359402Y145613D01*
X359679Y146282D01*
X359774Y147000D01*
X359679Y147718D01*
X359402Y148387D01*
X359335Y148475D01*
X360042Y149910D01*
X372642D01*
X375070Y149427D01*
X375718Y148778D01*
X375718Y137105D01*
X375756Y136914D01*
X375768Y136719D01*
X376271Y134784D01*
X376354Y134614D01*
X376410Y134434D01*
X379070Y129581D01*
X379171Y129461D01*
X379247Y129324D01*
X384019Y123723D01*
X384019Y123723D01*
X384019Y123723D01*
X384250Y123541D01*
X384487Y123353D01*
X384488Y123353D01*
X384488Y123353D01*
X384805Y123263D01*
X385062Y123191D01*
X385062Y123191D01*
X385062Y123191D01*
X386271Y123094D01*
X387277Y121850D01*
X387226Y121463D01*
X387321Y120745D01*
X387598Y120076D01*
X388039Y119502D01*
X388613Y119061D01*
X389282Y118784D01*
X390000Y118689D01*
X390718Y118784D01*
X391387Y119061D01*
X391793Y119373D01*
X399074D01*
X399402Y119121D01*
X400055Y118851D01*
X400754Y118759D01*
X406266D01*
X406966Y118851D01*
X407618Y119121D01*
X408179Y119551D01*
X408608Y120111D01*
X408878Y120763D01*
X408971Y121463D01*
X408878Y122163D01*
X408608Y122815D01*
X408179Y123375D01*
X407618Y123805D01*
X408179Y124551D01*
X408179Y124551D01*
X408179D01*
X408608Y125111D01*
X408878Y125763D01*
X408971Y126463D01*
X408920Y126844D01*
X410427Y127383D01*
X410745Y126870D01*
X410770Y126844D01*
X410784Y126811D01*
X414979Y120707D01*
X415019Y118653D01*
X415079Y118380D01*
X415132Y118105D01*
X415142Y118089D01*
X415147Y118070D01*
X415306Y117841D01*
X415329Y117807D01*
X410339Y112781D01*
X410177Y112537D01*
X410014Y112296D01*
X410013Y112289D01*
X410009Y112284D01*
X409953Y111997D01*
X409895Y111712D01*
X409801Y94297D01*
X408175Y80433D01*
X403737Y68131D01*
X403705Y67917D01*
X403649Y67707D01*
X403436Y64263D01*
X402980D01*
Y56874D01*
X402898Y55549D01*
X398056D01*
X389802Y63802D01*
X388976Y64355D01*
X388000Y64549D01*
X348056D01*
X322689Y89916D01*
Y150900D01*
X323609D01*
Y151031D01*
X324373D01*
Y151031D01*
X337609D01*
Y151437D01*
X338569D01*
Y151437D01*
X347475D01*
Y151479D01*
X348953Y152091D01*
X354254Y146790D01*
D02*
G37*
G36*
X292134Y92335D02*
Y70827D01*
X292289Y70046D01*
X292731Y69385D01*
X299027Y63089D01*
X298414Y61611D01*
X295085D01*
X294254Y62442D01*
X293592Y62884D01*
X292812Y63039D01*
X274860D01*
X274387Y63402D01*
X273718Y63679D01*
X273000Y63774D01*
X272282Y63679D01*
X271613Y63402D01*
X271039Y62961D01*
X270598Y62387D01*
X270321Y61718D01*
X270307Y61611D01*
X269406D01*
Y61611D01*
X267386D01*
Y69502D01*
X290442Y92558D01*
X290603Y92799D01*
X292134Y92335D01*
D02*
G37*
G36*
X448397Y123681D02*
X451004Y120689D01*
X464922Y113661D01*
X464924Y109174D01*
X458706Y82521D01*
X441195Y78623D01*
X428750Y69406D01*
X419550Y51526D01*
X404187Y51613D01*
X405176Y67612D01*
X409673Y80079D01*
X411330Y94203D01*
X411424Y111703D01*
X416467Y116783D01*
X426729Y116803D01*
X434686Y120247D01*
X443843Y127856D01*
X448397Y123681D01*
D02*
G37*
G36*
X65569Y42520D02*
X65519Y42268D01*
X65693Y41390D01*
X65962Y40988D01*
X65693Y40587D01*
X65519Y39709D01*
X65693Y38831D01*
X65962Y38429D01*
X65693Y38028D01*
X65519Y37150D01*
X65693Y36272D01*
X65962Y35870D01*
X65693Y35469D01*
X65519Y34591D01*
X65693Y33713D01*
X65962Y33311D01*
X65693Y32909D01*
X65519Y32032D01*
X65693Y31154D01*
X65962Y30752D01*
X65693Y30350D01*
X65519Y29473D01*
X65693Y28595D01*
X65962Y28193D01*
X65693Y27791D01*
X65519Y26913D01*
X65693Y26035D01*
X66191Y25291D01*
X66290Y25225D01*
X66164Y25037D01*
X66128Y24854D01*
X66844D01*
X66935Y24794D01*
X67813Y24619D01*
X74187D01*
X75065Y24794D01*
X75156Y24854D01*
X75872D01*
X75836Y25037D01*
X75710Y25225D01*
X75809Y25291D01*
X76306Y26035D01*
X76481Y26913D01*
X76306Y27791D01*
X76038Y28193D01*
X76306Y28595D01*
X76481Y29473D01*
X76306Y30350D01*
X76038Y30752D01*
X76306Y31154D01*
X76481Y32032D01*
X76306Y32909D01*
X76252Y32991D01*
X76791Y34497D01*
X77973Y34855D01*
X83547Y29280D01*
Y27595D01*
X85553D01*
Y25278D01*
X85321Y24718D01*
X85226Y24000D01*
X85321Y23282D01*
X85553Y22722D01*
Y20279D01*
X85321Y19718D01*
X85226Y19000D01*
X85321Y18282D01*
X85598Y17613D01*
X85704Y17474D01*
X85554Y17169D01*
X83975Y16908D01*
X80206Y20678D01*
X79544Y21120D01*
X78764Y21275D01*
X76908D01*
X76481Y21795D01*
X76306Y22673D01*
X75809Y23417D01*
X75710Y23484D01*
X75836Y23672D01*
X75872Y23854D01*
X75156D01*
X75065Y23915D01*
X74187Y24090D01*
X67813D01*
X66935Y23915D01*
X66844Y23854D01*
X66128D01*
X66164Y23672D01*
X66290Y23484D01*
X66191Y23417D01*
X65693Y22673D01*
X65627Y22339D01*
X64149Y21727D01*
X62028Y23144D01*
X60243Y24929D01*
Y37150D01*
Y43757D01*
X64554D01*
X65569Y42520D01*
D02*
G37*
G36*
X96630Y29382D02*
X103370D01*
Y29382D01*
X105296Y29382D01*
X110270Y24408D01*
Y20330D01*
X114356D01*
X114968Y18852D01*
X111036Y14920D01*
X109466Y15232D01*
X109402Y15387D01*
X108961Y15961D01*
X108387Y16402D01*
X107718Y16679D01*
X107000Y16774D01*
X106282Y16679D01*
X105613Y16402D01*
X105140Y16039D01*
X91003D01*
X90295Y17474D01*
X90402Y17613D01*
X90679Y18282D01*
X90774Y19000D01*
X90679Y19718D01*
X90447Y20279D01*
Y22722D01*
X90679Y23282D01*
X90774Y24000D01*
X90679Y24718D01*
X90447Y25278D01*
Y27595D01*
X92453D01*
Y30207D01*
X96630D01*
Y29382D01*
D02*
G37*
G36*
X325080Y189060D02*
X325881Y188901D01*
X326477Y189020D01*
X327609Y187888D01*
X327490Y187291D01*
X327649Y186491D01*
X327772Y186307D01*
X327649Y186123D01*
X327490Y185323D01*
X327649Y184522D01*
X327772Y184339D01*
X327649Y184155D01*
X327490Y183354D01*
X327649Y182554D01*
X327772Y182370D01*
X327649Y182186D01*
X327490Y181386D01*
X327649Y180586D01*
X327772Y180402D01*
X327649Y180218D01*
X327490Y179417D01*
X327649Y178617D01*
X327772Y178433D01*
X327649Y178249D01*
X327490Y177449D01*
X327649Y176648D01*
X327772Y176465D01*
X327649Y176281D01*
X327490Y175480D01*
X327649Y174680D01*
X327772Y174496D01*
X327649Y174312D01*
X327490Y173512D01*
X327609Y172915D01*
X326477Y171784D01*
X325881Y171902D01*
X325080Y171743D01*
X324896Y171620D01*
X324712Y171743D01*
X323912Y171902D01*
X323112Y171743D01*
X322928Y171620D01*
X322744Y171743D01*
X321943Y171902D01*
X321143Y171743D01*
X320465Y171290D01*
X319511Y171256D01*
X319485Y171290D01*
D01*
X319485Y171290D01*
Y171290D01*
X318807Y171743D01*
X318006Y171902D01*
X317206Y171743D01*
X317022Y171620D01*
X316838Y171743D01*
X316038Y171902D01*
X315238Y171743D01*
X315054Y171620D01*
X314870Y171743D01*
X314070Y171902D01*
X313269Y171743D01*
X313085Y171620D01*
X312901Y171743D01*
X312101Y171902D01*
X311504Y171784D01*
X310373Y172915D01*
X310491Y173512D01*
X310332Y174312D01*
X310209Y174496D01*
X310332Y174680D01*
X310491Y175480D01*
X310332Y176281D01*
X310209Y176465D01*
X310332Y176648D01*
X310491Y177449D01*
X310332Y178249D01*
X310209Y178433D01*
X310332Y178617D01*
X310491Y179417D01*
X310332Y180218D01*
X310209Y180402D01*
X310332Y180586D01*
X310491Y181386D01*
X310332Y182186D01*
X310209Y182370D01*
X310332Y182554D01*
X310491Y183354D01*
X310332Y184155D01*
X310209Y184339D01*
X310332Y184522D01*
X310491Y185323D01*
X310332Y186123D01*
X310209Y186307D01*
X310332Y186491D01*
X310491Y187291D01*
X310373Y187888D01*
X311504Y189020D01*
X312101Y188901D01*
X312901Y189060D01*
X313085Y189183D01*
X313269Y189060D01*
X314070Y188901D01*
X314870Y189060D01*
X315054Y189183D01*
X315238Y189060D01*
X316038Y188901D01*
X316838Y189060D01*
X317022Y189183D01*
X317206Y189060D01*
X318006Y188901D01*
X318807Y189060D01*
X318991Y189183D01*
X319175Y189060D01*
X319975Y188901D01*
X320775Y189060D01*
X320959Y189183D01*
X321143Y189060D01*
X321943Y188901D01*
X322744Y189060D01*
X322928Y189183D01*
X323112Y189060D01*
X323912Y188901D01*
X324712Y189060D01*
X324896Y189183D01*
X325080Y189060D01*
D02*
G37*
G36*
X397404Y216193D02*
X400852Y213621D01*
X400792Y211322D01*
X398466Y209722D01*
X397909Y208818D01*
X397371Y204680D01*
X397064Y196572D01*
X394986Y194421D01*
X377415Y194405D01*
X377545Y204810D01*
X379024Y211154D01*
X380654Y214565D01*
X382603Y216193D01*
X397404Y216193D01*
D02*
G37*
G36*
X416362Y218535D02*
X418180Y215634D01*
X419363Y214367D01*
X420547Y213617D01*
X422510Y213592D01*
X422844Y213750D01*
X426229Y213649D01*
X442996Y204916D01*
X459375Y193053D01*
X459509Y185509D01*
X453424Y185538D01*
X416650Y205762D01*
Y206976D01*
X412044Y213677D01*
X409683Y217480D01*
X408529Y219560D01*
X406748Y221049D01*
X400268Y221196D01*
X400658Y223488D01*
X412290D01*
X416362Y218535D01*
D02*
G37*
G36*
X390921Y180829D02*
X397157Y172530D01*
X400856Y170499D01*
X400750Y168214D01*
X397685Y166407D01*
X393160Y162535D01*
X378448Y162555D01*
X366548D01*
X361000Y163000D01*
X359929Y169974D01*
X359702Y172684D01*
X360918Y180482D01*
X362599Y181621D01*
X387036Y182796D01*
X390921Y180829D01*
D02*
G37*
G36*
X441471Y189378D02*
X441564Y176304D01*
X426319Y173211D01*
X420595Y173288D01*
X419309Y174146D01*
X416379Y179041D01*
X416405Y201110D01*
X441471Y189378D01*
D02*
G37*
G36*
X112558Y188558D02*
X111543Y187039D01*
X54532D01*
X54318Y187318D01*
X54039Y187532D01*
Y204234D01*
X55187Y205382D01*
X60224D01*
Y205382D01*
X60224D01*
X60224Y205382D01*
X61713D01*
Y205382D01*
X70224D01*
Y207008D01*
X71047D01*
X71828Y207163D01*
X72489Y207605D01*
X80127Y215243D01*
X80718Y215321D01*
X81387Y215598D01*
X81961Y216039D01*
X82402Y216613D01*
X82466Y216768D01*
X84036Y217080D01*
X112558Y188558D01*
D02*
G37*
G36*
X204146Y247547D02*
X206166D01*
Y243206D01*
X205803Y242733D01*
X205525Y242064D01*
X205431Y241347D01*
X205525Y240629D01*
X205803Y239960D01*
X206243Y239385D01*
X206818Y238944D01*
X207487Y238667D01*
X208205Y238573D01*
X208923Y238667D01*
X209251Y238804D01*
X209503Y238427D01*
X209039Y236896D01*
X208389Y236627D01*
X207814Y236186D01*
X207373Y235611D01*
X207096Y234942D01*
X207002Y234224D01*
D01*
X206551Y234039D01*
X204411D01*
X203938Y234402D01*
X203269Y234679D01*
X202551Y234774D01*
X201833Y234679D01*
X201164Y234402D01*
X200590Y233961D01*
X200149Y233387D01*
X199872Y232718D01*
X199777Y232000D01*
X199872Y231282D01*
X199872Y231282D01*
X199872Y231282D01*
X199866Y230039D01*
X197957D01*
Y232453D01*
X195937D01*
Y235547D01*
X197957D01*
Y244453D01*
X183146D01*
Y235547D01*
X185166D01*
Y232453D01*
X183146D01*
Y230039D01*
X176406D01*
Y232453D01*
X167590D01*
Y245595D01*
X170428D01*
Y247614D01*
X183146D01*
Y247547D01*
X197957D01*
Y249961D01*
X204146D01*
Y247547D01*
D02*
G37*
G36*
X236938Y232598D02*
Y232598D01*
X237611Y232189D01*
X238095Y231465D01*
Y231465D01*
X238095D01*
X238141Y231232D01*
X238082Y231143D01*
X238051Y230984D01*
X238814D01*
X238819Y230981D01*
X239673Y230811D01*
X242331D01*
Y230484D01*
X242831D01*
Y228762D01*
X244988D01*
X245647Y228893D01*
X246206Y229267D01*
X246384Y229534D01*
X247495Y229643D01*
X248156Y229512D01*
X252109Y225558D01*
X251094Y224039D01*
X239396D01*
X233993Y229442D01*
X233839Y229545D01*
X233578Y231124D01*
X233953Y231613D01*
X234230Y232282D01*
X234521Y232450D01*
X234833Y232321D01*
X235551Y232226D01*
X236269Y232321D01*
X236938Y232598D01*
D01*
D02*
G37*
G36*
X201164Y216598D02*
X201833Y216321D01*
X202551Y216226D01*
X203269Y216321D01*
X204512Y213320D01*
Y210845D01*
X202707Y209039D01*
X197488D01*
Y212354D01*
X193929D01*
Y213354D01*
X197488D01*
Y216807D01*
D01*
Y216807D01*
X197642Y216961D01*
X200691D01*
X201164Y216598D01*
D02*
G37*
G36*
X441349Y234924D02*
X441481Y207558D01*
X425886Y216330D01*
X419993Y216470D01*
X416352Y223162D01*
X416352Y234927D01*
X424477Y234986D01*
X434900Y235075D01*
X441349Y234924D01*
D02*
G37*
G36*
X79080Y222036D02*
X78768Y220466D01*
X78613Y220402D01*
X78039Y219961D01*
X77598Y219387D01*
X77321Y218718D01*
X77243Y218127D01*
X71703Y212586D01*
X70224Y213199D01*
Y218618D01*
X65187D01*
X55363Y228442D01*
X54702Y228884D01*
X53921Y229039D01*
X45567D01*
X45368Y229522D01*
X44566Y230566D01*
X43740Y231200D01*
Y232800D01*
X44566Y233434D01*
X45368Y234478D01*
X45567Y234961D01*
X66155D01*
X79080Y222036D01*
D02*
G37*
G36*
X441482Y146067D02*
X426465Y130254D01*
X424075D01*
X419871Y130394D01*
X416385Y135684D01*
X416412Y159095D01*
X441478Y160351D01*
X441482Y146067D01*
D02*
G37*
G36*
X206845Y283721D02*
X206774Y283667D01*
X205950Y282593D01*
X205432Y281342D01*
X205255Y280000D01*
X205432Y278658D01*
X205950Y277407D01*
X206166Y277126D01*
Y256453D01*
X204146D01*
Y254039D01*
X197957D01*
Y256453D01*
X183146D01*
Y251693D01*
X170428D01*
Y252287D01*
Y258890D01*
X176498Y264961D01*
X183661D01*
X184442Y265116D01*
X185103Y265558D01*
X185103Y265558D01*
X185103Y265558D01*
X194404Y274858D01*
X201803D01*
Y284105D01*
X201803Y284105D01*
D01*
X201803Y285142D01*
D01*
X201898Y285237D01*
X206330D01*
X206845Y283721D01*
D02*
G37*
G36*
X161407Y158709D02*
X160893Y157194D01*
X160782Y157179D01*
X160113Y156902D01*
X159539Y156461D01*
X159098Y155887D01*
X158821Y155218D01*
X158743Y154627D01*
X139010Y134894D01*
X136679Y134587D01*
X136402Y135256D01*
X135961Y135830D01*
X135387Y136271D01*
X134718Y136548D01*
X134127Y136626D01*
X99311Y171442D01*
X98650Y171884D01*
X97869Y172039D01*
X47845D01*
X43757Y176127D01*
X43679Y176718D01*
X43564Y176995D01*
X44273Y178055D01*
X44625Y178325D01*
X141791D01*
X161407Y158709D01*
D02*
G37*
G36*
X295991Y283721D02*
X295646Y283456D01*
X294869Y282444D01*
X294381Y281265D01*
X294214Y280000D01*
X294381Y278735D01*
X294869Y277556D01*
X295646Y276543D01*
X296658Y275767D01*
X297063Y275599D01*
Y257396D01*
X291339Y251672D01*
X290856Y251871D01*
X289551Y252043D01*
X288246Y251871D01*
X287030Y251367D01*
X285985Y250566D01*
X285184Y249522D01*
X284680Y248305D01*
X284508Y247000D01*
X284589Y246383D01*
X283421Y245289D01*
X283272Y245319D01*
X278697D01*
X278232Y246850D01*
X278391Y246956D01*
X278391Y246956D01*
X278391Y246956D01*
X281678Y250243D01*
X282269Y250321D01*
X282938Y250598D01*
X283512Y251039D01*
X283953Y251613D01*
X284230Y252282D01*
X284325Y253000D01*
X284230Y253718D01*
X283953Y254387D01*
X283512Y254961D01*
X282938Y255402D01*
X282269Y255679D01*
X281551Y255774D01*
X280833Y255679D01*
X280164Y255402D01*
X279590Y254961D01*
X279149Y254387D01*
X278872Y253718D01*
X278794Y253127D01*
X276104Y250437D01*
X270088D01*
X269661Y250957D01*
X269491Y251811D01*
X269207Y252236D01*
X269491Y252662D01*
X269661Y253516D01*
X269491Y254370D01*
X269007Y255094D01*
X268283Y255578D01*
X267429Y255748D01*
X265424D01*
X260957Y260215D01*
Y268421D01*
X252839D01*
Y267921D01*
X250705D01*
Y263968D01*
X250205D01*
Y263469D01*
X246646D01*
Y260016D01*
D01*
Y260016D01*
X245669Y259039D01*
X239906D01*
Y260047D01*
X239906D01*
Y263500D01*
X236347D01*
Y264000D01*
X235846D01*
Y267953D01*
X233713D01*
Y268453D01*
X225594D01*
Y259547D01*
X225594D01*
X225620Y259405D01*
X225613Y259402D01*
X225039Y258961D01*
X224598Y258387D01*
X224321Y257718D01*
X224226Y257000D01*
X224321Y256282D01*
X224598Y255613D01*
X225039Y255039D01*
X225585Y254619D01*
X225590Y254543D01*
X224445Y251778D01*
X212078Y239411D01*
X210748Y240300D01*
X210884Y240629D01*
X210979Y241347D01*
X210884Y242064D01*
X210607Y242733D01*
X210244Y243206D01*
Y247547D01*
X212264D01*
Y248047D01*
X214398D01*
Y252000D01*
Y255953D01*
X212264D01*
Y256453D01*
X210244D01*
Y274641D01*
X210441Y274814D01*
X211783Y274991D01*
X213034Y275509D01*
X214108Y276333D01*
X214932Y277407D01*
X215450Y278658D01*
X215627Y280000D01*
X215450Y281342D01*
X214932Y282593D01*
X214108Y283667D01*
X214037Y283721D01*
X214552Y285237D01*
X246098D01*
Y285237D01*
Y284374D01*
X246098Y284105D01*
X246098Y284105D01*
X246098Y284105D01*
Y282354D01*
X226435D01*
X225962Y282717D01*
X225293Y282994D01*
X224576Y283089D01*
X223858Y282994D01*
X223189Y282717D01*
X222614Y282276D01*
X222174Y281702D01*
X221896Y281033D01*
X221802Y280315D01*
X221896Y279597D01*
X222174Y278928D01*
X222614Y278354D01*
X223189Y277913D01*
X223858Y277636D01*
X224576Y277541D01*
X225293Y277636D01*
X225962Y277913D01*
X226435Y278276D01*
X246098D01*
Y276256D01*
X246598D01*
Y274122D01*
X254504D01*
Y276256D01*
X255004D01*
Y277706D01*
X280476D01*
Y275153D01*
X290169D01*
Y284105D01*
X290169Y284105D01*
D01*
X290169Y284846D01*
D01*
X290559Y285237D01*
X295477D01*
X295991Y283721D01*
D02*
G37*
G36*
X416362Y175535D02*
X418180Y172634D01*
X419363Y171367D01*
X420547Y170617D01*
X422364Y170594D01*
X454781Y174282D01*
X459473D01*
Y165882D01*
X432201Y162172D01*
X417676Y161337D01*
X418054Y162566D01*
X417664Y162549D01*
X412044Y170677D01*
X409683Y174480D01*
X408529Y176560D01*
X406748Y178049D01*
X400268Y178196D01*
X400658Y180488D01*
X412290D01*
X416362Y175535D01*
D02*
G37*
G36*
X392633Y144698D02*
X393581Y143970D01*
X394139Y143257D01*
X394408Y140868D01*
X394342Y137254D01*
X395192Y133628D01*
X397360Y130225D01*
X400737Y127608D01*
X402945Y125344D01*
X402919Y125318D01*
X400098D01*
X396735Y123532D01*
X392788D01*
X390508Y124291D01*
X385183Y124715D01*
X380411Y130316D01*
X377751Y135169D01*
X377248Y137105D01*
X377248Y149298D01*
X387395D01*
X392633Y144698D01*
D02*
G37*
G36*
X131243Y133742D02*
X131321Y133151D01*
X131598Y132482D01*
X132039Y131908D01*
X132613Y131467D01*
X133282Y131190D01*
X132975Y128859D01*
X125493Y121377D01*
X125051Y120715D01*
X124895Y119935D01*
Y119134D01*
X124615Y119018D01*
X123654Y118281D01*
X123050Y117493D01*
X121535Y118008D01*
Y119600D01*
X115218D01*
X68376Y166442D01*
X69391Y167961D01*
X97025D01*
X131243Y133742D01*
D02*
G37*
G36*
X459428Y154015D02*
X459426Y145560D01*
X442210Y129223D01*
X435150Y123181D01*
X426602Y118623D01*
X416548Y118682D01*
X416499Y121196D01*
X412044Y127677D01*
X409683Y131480D01*
X408529Y133560D01*
X406748Y135049D01*
X400268Y135196D01*
X400658Y137488D01*
X412290D01*
X416362Y132535D01*
X418180Y129634D01*
X419363Y128367D01*
X420547Y127617D01*
X425395Y127554D01*
X425681Y127641D01*
X427794Y128682D01*
X451354Y154016D01*
X459428Y154015D01*
D02*
G37*
%LPC*%
G36*
X202500Y23631D02*
Y19658D01*
X206473D01*
X206384Y20333D01*
X205931Y21428D01*
X205209Y22368D01*
X204269Y23089D01*
X203175Y23543D01*
X202500Y23631D01*
D02*
G37*
G36*
X201500D02*
X200825Y23543D01*
X199731Y23089D01*
X198791Y22368D01*
X198069Y21428D01*
X197616Y20333D01*
X197527Y19658D01*
X201500D01*
Y23631D01*
D02*
G37*
G36*
X218457Y251500D02*
X215398D01*
Y248047D01*
X218457D01*
Y251500D01*
D02*
G37*
G36*
Y255953D02*
X215398D01*
Y252500D01*
X218457D01*
Y255953D01*
D02*
G37*
G36*
X249705Y267921D02*
X246646D01*
Y264469D01*
X249705D01*
Y267921D01*
D02*
G37*
G36*
X168500Y18154D02*
X165047D01*
Y15094D01*
X168500D01*
Y18154D01*
D02*
G37*
G36*
X201500Y18658D02*
X197527D01*
X197616Y17984D01*
X198069Y16889D01*
X198791Y15949D01*
X199731Y15228D01*
X200825Y14774D01*
X201500Y14685D01*
Y18658D01*
D02*
G37*
G36*
X206473D02*
X202500D01*
Y14685D01*
X203175Y14774D01*
X204269Y15228D01*
X205209Y15949D01*
X205931Y16889D01*
X206384Y17984D01*
X206473Y18658D01*
D02*
G37*
G36*
X172953Y18154D02*
X169500D01*
Y15094D01*
X172953D01*
Y18154D01*
D02*
G37*
G36*
X254504Y273122D02*
X251051D01*
Y270063D01*
X254504D01*
Y273122D01*
D02*
G37*
G36*
X239906Y267953D02*
X236846D01*
Y264500D01*
X239906D01*
Y267953D01*
D02*
G37*
G36*
X250051Y273122D02*
X246598D01*
Y270063D01*
X250051D01*
Y273122D01*
D02*
G37*
G36*
X360500Y78500D02*
X356527D01*
X356616Y77825D01*
X357069Y76731D01*
X357791Y75791D01*
X358731Y75069D01*
X359825Y74616D01*
X360500Y74527D01*
Y78500D01*
D02*
G37*
G36*
X52905Y74500D02*
X49846D01*
Y71047D01*
X52905D01*
Y74500D01*
D02*
G37*
G36*
X100906Y69953D02*
X97847D01*
Y66500D01*
X100906D01*
Y69953D01*
D02*
G37*
G36*
X365473Y78500D02*
X361500D01*
Y74527D01*
X362175Y74616D01*
X363269Y75069D01*
X364209Y75791D01*
X364931Y76731D01*
X365384Y77825D01*
X365473Y78500D01*
D02*
G37*
G36*
X361500Y83473D02*
Y79500D01*
X365473D01*
X365384Y80175D01*
X364931Y81269D01*
X364209Y82209D01*
X363269Y82931D01*
X362175Y83384D01*
X361500Y83473D01*
D02*
G37*
G36*
X360500D02*
X359825Y83384D01*
X358731Y82931D01*
X357791Y82209D01*
X357069Y81269D01*
X356616Y80175D01*
X356527Y79500D01*
X360500D01*
Y83473D01*
D02*
G37*
G36*
X52905Y78953D02*
X49846D01*
Y75500D01*
X52905D01*
Y78953D01*
D02*
G37*
G36*
X48906Y68087D02*
X46043D01*
Y64831D01*
X48906D01*
Y68087D01*
D02*
G37*
G36*
X91953Y41906D02*
X88500D01*
Y38846D01*
X91953D01*
Y41906D01*
D02*
G37*
G36*
X87500D02*
X84047D01*
Y38846D01*
X87500D01*
Y41906D01*
D02*
G37*
G36*
X241831Y229984D02*
X238051D01*
X238082Y229825D01*
X238456Y229267D01*
X239014Y228893D01*
X239673Y228762D01*
X241831D01*
Y229984D01*
D02*
G37*
G36*
X99500Y42118D02*
X97130D01*
Y39650D01*
X99500D01*
Y42118D01*
D02*
G37*
G36*
X100906Y65500D02*
X97847D01*
Y62047D01*
X100906D01*
Y65500D01*
D02*
G37*
G36*
X67905Y55953D02*
X64846D01*
Y52500D01*
X67905D01*
Y55953D01*
D02*
G37*
G36*
X102870Y42118D02*
X100500D01*
Y39650D01*
X102870D01*
Y42118D01*
D02*
G37*
%LPD*%
D10*
X46331Y55669D02*
D03*
X38850D02*
D03*
Y64331D02*
D03*
D11*
X45543D02*
D03*
D12*
X403510Y136463D02*
D03*
Y131463D02*
D03*
Y126463D02*
D03*
Y121463D02*
D03*
X423195Y136463D02*
D03*
Y131463D02*
D03*
Y126463D02*
D03*
Y121463D02*
D03*
X403510Y222463D02*
D03*
Y217463D02*
D03*
Y212463D02*
D03*
Y207463D02*
D03*
X423195Y222463D02*
D03*
Y217463D02*
D03*
Y212463D02*
D03*
Y207463D02*
D03*
X403510Y179342D02*
D03*
Y174343D02*
D03*
Y169343D02*
D03*
Y164342D02*
D03*
X423195Y179342D02*
D03*
Y174343D02*
D03*
Y169343D02*
D03*
Y164342D02*
D03*
D13*
X411980Y29263D02*
D03*
Y57263D02*
D03*
D14*
X318991Y180402D02*
D03*
D15*
X330703Y189260D02*
D03*
Y187291D02*
D03*
Y185323D02*
D03*
Y183354D02*
D03*
Y181386D02*
D03*
Y179417D02*
D03*
Y177449D02*
D03*
Y175480D02*
D03*
Y173512D02*
D03*
Y171543D02*
D03*
X307278D02*
D03*
Y173512D02*
D03*
Y175480D02*
D03*
Y177449D02*
D03*
Y179417D02*
D03*
Y181386D02*
D03*
Y183354D02*
D03*
Y185323D02*
D03*
Y187291D02*
D03*
Y189260D02*
D03*
D16*
X327849Y168689D02*
D03*
X325881D02*
D03*
X323912D02*
D03*
X321943D02*
D03*
X319975D02*
D03*
X318006D02*
D03*
X316038D02*
D03*
X314070D02*
D03*
X312101D02*
D03*
X310132D02*
D03*
Y192114D02*
D03*
X312101D02*
D03*
X314070D02*
D03*
X316038D02*
D03*
X318006D02*
D03*
X319975D02*
D03*
X321943D02*
D03*
X323912D02*
D03*
X325881D02*
D03*
X327849D02*
D03*
D17*
X112520Y25330D02*
D03*
X115080D02*
D03*
X117640D02*
D03*
X120200D02*
D03*
X122760D02*
D03*
X125320D02*
D03*
X127880D02*
D03*
X130440D02*
D03*
X133000D02*
D03*
X135560D02*
D03*
X135570Y47230D02*
D03*
X133010D02*
D03*
X130450D02*
D03*
X127890D02*
D03*
X125330D02*
D03*
X122770D02*
D03*
X120210D02*
D03*
X117650D02*
D03*
X115090D02*
D03*
X112520D02*
D03*
D18*
X242331Y253516D02*
D03*
Y250957D02*
D03*
Y248398D02*
D03*
Y245839D02*
D03*
Y243280D02*
D03*
Y240721D02*
D03*
Y238161D02*
D03*
Y235602D02*
D03*
Y233043D02*
D03*
Y230484D02*
D03*
X264772Y253516D02*
D03*
Y250957D02*
D03*
Y248398D02*
D03*
Y245839D02*
D03*
Y243280D02*
D03*
Y240721D02*
D03*
Y238161D02*
D03*
Y235602D02*
D03*
Y233043D02*
D03*
Y230484D02*
D03*
D19*
X155000Y23380D02*
D03*
Y15112D02*
D03*
X277111Y41311D02*
D03*
Y33044D02*
D03*
X382824Y49247D02*
D03*
Y40980D02*
D03*
X314559Y41292D02*
D03*
Y33025D02*
D03*
X239559Y41292D02*
D03*
Y33025D02*
D03*
D20*
X45016Y42268D02*
D03*
Y39709D02*
D03*
Y37150D02*
D03*
Y34591D02*
D03*
Y32032D02*
D03*
Y29473D02*
D03*
Y26913D02*
D03*
Y24354D02*
D03*
Y21795D02*
D03*
Y19236D02*
D03*
Y16677D02*
D03*
Y14118D02*
D03*
Y11559D02*
D03*
Y9000D02*
D03*
X71000Y42268D02*
D03*
Y39709D02*
D03*
Y37150D02*
D03*
Y34591D02*
D03*
Y32032D02*
D03*
Y29473D02*
D03*
Y26913D02*
D03*
Y24354D02*
D03*
Y21795D02*
D03*
Y19236D02*
D03*
Y16677D02*
D03*
Y14118D02*
D03*
Y11559D02*
D03*
D21*
Y9000D02*
D03*
D22*
X368000Y167850D02*
D03*
Y143835D02*
D03*
D23*
X65969Y209047D02*
D03*
Y214953D02*
D03*
X55968Y209047D02*
D03*
Y214953D02*
D03*
D24*
X30000Y79000D02*
D03*
Y87000D02*
D03*
D25*
X88000Y38346D02*
D03*
Y31653D02*
D03*
X370824Y44767D02*
D03*
Y51460D02*
D03*
X169000Y18654D02*
D03*
Y25346D02*
D03*
X31063Y151906D02*
D03*
Y145213D02*
D03*
X250551Y280315D02*
D03*
Y273622D02*
D03*
X153000Y260347D02*
D03*
Y253654D02*
D03*
X165975Y256347D02*
D03*
Y249654D02*
D03*
X343022Y155496D02*
D03*
Y162189D02*
D03*
D26*
X313841Y154270D02*
D03*
X320140D02*
D03*
X453150Y125000D02*
D03*
X446850D02*
D03*
X306140Y154270D02*
D03*
X299841D02*
D03*
X327841Y154402D02*
D03*
X334140D02*
D03*
D27*
X97347Y66000D02*
D03*
X90654D02*
D03*
X172346Y228000D02*
D03*
X165654D02*
D03*
X193898D02*
D03*
X187205D02*
D03*
X214205Y178148D02*
D03*
X220898D02*
D03*
X220898Y188000D02*
D03*
X214205D02*
D03*
X258796Y45988D02*
D03*
X265489D02*
D03*
X187205Y201000D02*
D03*
X193898D02*
D03*
X76346Y127000D02*
D03*
X69653D02*
D03*
X228346Y57158D02*
D03*
X221654D02*
D03*
X265347D02*
D03*
X258653D02*
D03*
X303346D02*
D03*
X296654D02*
D03*
X214205Y198000D02*
D03*
X220898D02*
D03*
X214205Y208000D02*
D03*
X220898D02*
D03*
X214205Y218000D02*
D03*
X220898D02*
D03*
X221543Y45968D02*
D03*
X228236D02*
D03*
X221543Y34969D02*
D03*
X228236D02*
D03*
X296654D02*
D03*
X303346D02*
D03*
X187236Y212854D02*
D03*
X193929D02*
D03*
X258796Y34988D02*
D03*
X265489D02*
D03*
X296654Y45968D02*
D03*
X303346D02*
D03*
X42654Y75000D02*
D03*
X49346D02*
D03*
X64346Y52000D02*
D03*
X57653D02*
D03*
X10654Y80000D02*
D03*
X17346D02*
D03*
X19654Y203000D02*
D03*
X26346D02*
D03*
X214898Y252000D02*
D03*
X208205D02*
D03*
X193898D02*
D03*
X187205D02*
D03*
X187205Y240000D02*
D03*
X193898D02*
D03*
X297399Y213854D02*
D03*
X304092D02*
D03*
X314400D02*
D03*
X321092D02*
D03*
X331730D02*
D03*
X338423D02*
D03*
X305337Y146270D02*
D03*
X298644D02*
D03*
X229654Y264000D02*
D03*
X236347D02*
D03*
X48409Y151559D02*
D03*
X41717D02*
D03*
X256898Y263968D02*
D03*
X250205D02*
D03*
D28*
X100000Y39150D02*
D03*
Y32850D02*
D03*
D29*
X11709Y38535D02*
D03*
Y61465D02*
D03*
D30*
X22161Y44882D02*
D03*
Y47441D02*
D03*
Y52559D02*
D03*
Y50000D02*
D03*
Y55118D02*
D03*
D31*
X20783Y40354D02*
D03*
X20764Y59646D02*
D03*
D32*
X11709Y46705D02*
D03*
Y53295D02*
D03*
D33*
X208205Y241347D02*
Y252000D01*
X22161Y41732D02*
Y44882D01*
X35740Y52559D02*
X38850Y55669D01*
X22161Y52559D02*
X35740D01*
X171000Y192000D02*
X193551D01*
X124000Y239000D02*
X171000Y192000D01*
X86000Y239000D02*
X124000D01*
X208205Y252000D02*
Y277764D01*
X210441Y280000D01*
X53000Y31000D02*
Y32000D01*
X50409Y34591D02*
X53000Y32000D01*
X45016Y34591D02*
X50409D01*
X126935Y105000D02*
X137000Y94935D01*
Y90000D02*
Y94935D01*
X122000Y75000D02*
X137000Y90000D01*
X151935Y98935D02*
Y105000D01*
X119000Y66000D02*
X151935Y98935D01*
X119000Y61000D02*
Y66000D01*
X382824Y40980D02*
X395922Y54078D01*
X305290Y33025D02*
X314559D01*
X267433Y33044D02*
X277111D01*
X230180Y33025D02*
X239559D01*
X76346Y100654D02*
Y127000D01*
Y100654D02*
X85500Y91500D01*
X133000D01*
X90654Y66000D02*
Y70346D01*
X67000Y94000D02*
X90654Y70346D01*
Y61347D02*
Y66000D01*
Y61347D02*
X95000Y57000D01*
X87000Y54000D02*
X119000D01*
X78000Y63000D02*
X87000Y54000D01*
X78000Y63000D02*
Y75000D01*
X60000Y93000D02*
X78000Y75000D01*
X67000Y94000D02*
Y104000D01*
X370824Y51460D02*
X380612D01*
X382824Y49247D01*
X346077Y186843D02*
X378077Y218843D01*
X349077Y175788D02*
X357000Y167865D01*
X235551Y235000D02*
X236154Y235602D01*
X251551Y257000D02*
X256898Y262347D01*
X232551Y257000D02*
X251551D01*
X209776Y234224D02*
X232551Y257000D01*
X224576Y280315D02*
X250551D01*
X338423Y213854D02*
X371569Y247000D01*
X374551D01*
X331730Y213854D02*
Y221179D01*
X357551Y247000D01*
X321092Y213854D02*
Y227541D01*
X327551Y234000D01*
X313805Y214449D02*
Y237253D01*
X304092Y213854D02*
Y244541D01*
X306551Y247000D01*
X297399Y213854D02*
Y240600D01*
X291000Y247000D02*
X297399Y240600D01*
X289551Y247000D02*
X291000D01*
X97869Y170000D02*
X134000Y133869D01*
X47000Y170000D02*
X97869D01*
X41000Y176000D02*
X47000Y170000D01*
X41000Y189000D02*
Y217000D01*
X40000Y227000D02*
X41000D01*
X34000Y221000D02*
X40000Y227000D01*
X34000Y193000D02*
Y221000D01*
Y176000D02*
X45000Y165000D01*
X66935D01*
X116935Y115000D01*
X71047Y209047D02*
X80000Y218000D01*
X65969Y209047D02*
X71047D01*
X141935Y115000D02*
Y125935D01*
X55968Y209047D02*
X65969D01*
X52000Y205079D02*
X55968Y209047D01*
X52000Y185000D02*
Y205079D01*
X36000Y185000D02*
X52000D01*
X20000Y201000D02*
X36000Y185000D01*
X53921Y227000D02*
X65969Y214953D01*
X41000Y227000D02*
X53921D01*
X43047Y214953D02*
X55968D01*
X41000Y217000D02*
X43047Y214953D01*
X114000Y190000D02*
X141000D01*
X67000Y237000D02*
X114000Y190000D01*
X41000Y237000D02*
X67000D01*
X115000Y198000D02*
X142000D01*
X66000Y247000D02*
X115000Y198000D01*
X41000Y247000D02*
X66000D01*
X214205Y208000D02*
Y218000D01*
Y199653D02*
Y208000D01*
X193551Y192000D02*
Y200654D01*
X206551Y210000D02*
Y221000D01*
X203551Y207000D02*
X206551Y210000D01*
X190551Y207000D02*
X203551D01*
X133010Y47230D02*
Y54010D01*
X130450Y47230D02*
Y56450D01*
X319975Y168689D02*
Y179417D01*
X281390Y238161D02*
X282551Y237000D01*
X264772Y238161D02*
X281390D01*
X288508Y233043D02*
X288551Y233000D01*
X265551Y233043D02*
X288508D01*
X264772Y243280D02*
X283272D01*
X287551Y239000D01*
X327551Y234000D02*
X340551Y247000D01*
X368000Y253551D02*
X374551Y247000D01*
X276949Y248398D02*
X281551Y253000D01*
X264772Y248398D02*
X276949D01*
X374504Y287276D02*
X381780Y280000D01*
X146000Y287276D02*
X374504D01*
X292551Y232000D02*
Y239000D01*
X187205Y203654D02*
X190551Y207000D01*
X187205Y201000D02*
Y203654D01*
X247508Y233043D02*
X253551Y227000D01*
X242331Y233043D02*
X247508D01*
X217551Y231000D02*
X223551Y237000D01*
Y242000D01*
X235067Y253516D01*
X242331D01*
X227551Y231000D02*
Y240000D01*
X238508Y250957D01*
X242331D01*
X235272Y240721D02*
X242331D01*
X231551Y237000D02*
X235272Y240721D01*
X231551Y233000D02*
Y237000D01*
X239551Y210000D02*
X245551D01*
X236154Y235602D02*
X242331D01*
X231551Y201000D02*
X236551D01*
X228551Y198000D02*
X231551Y201000D01*
X233551Y204000D02*
X239551Y210000D01*
X228551Y204000D02*
X233551D01*
X231551Y208000D02*
X233551Y210000D01*
X220898Y208000D02*
X231551D01*
X223551Y218000D02*
X228551Y213000D01*
X220898Y218000D02*
X223551D01*
X222551Y198000D02*
X228551Y204000D01*
X220898Y198000D02*
X222551D01*
X228551Y195653D02*
Y198000D01*
X207551Y231000D02*
X217551D01*
X206551Y232000D02*
X207551Y231000D01*
X202551Y232000D02*
X206551D01*
X189551Y219000D02*
X202551D01*
X187236Y216685D02*
X189551Y219000D01*
X187236Y212854D02*
Y216685D01*
X235551Y214000D02*
X275000D01*
X228551Y221000D02*
X235551Y214000D01*
X232551Y228000D02*
X238551Y222000D01*
X193898Y228000D02*
X232551D01*
X229551Y225000D02*
X236551Y218000D01*
X202551Y225000D02*
X229551D01*
X199551Y222000D02*
X202551Y225000D01*
X189551Y222000D02*
X199551D01*
X187205Y224346D02*
X189551Y222000D01*
X187205Y224346D02*
Y228000D01*
X232551Y196000D02*
X238551D01*
X220898Y178148D02*
Y188000D01*
X228551Y195653D01*
X242331Y253516D02*
X256035D01*
X288677Y185323D02*
X307278D01*
X193898Y228000D02*
Y240000D01*
X187205Y228000D02*
Y240000D01*
X193898Y252000D02*
X208205D01*
X313805Y237253D02*
X323551Y247000D01*
X368000Y253551D02*
Y280000D01*
X354221Y250331D02*
X357551Y247000D01*
X354221Y250331D02*
Y280000D01*
X340441Y247110D02*
X340551Y247000D01*
X340441Y247110D02*
Y280000D01*
X326661Y250110D02*
Y280000D01*
X323551Y247000D02*
X326661Y250110D01*
X312882Y253331D02*
Y280000D01*
X306551Y247000D02*
X312882Y253331D01*
X289551Y247000D02*
X299102Y256551D01*
Y280000D01*
X282614Y181386D02*
X307278D01*
X284000Y171402D02*
X302991D01*
X305101Y173512D01*
X307278D01*
X280480Y175480D02*
X307278D01*
X305136Y169402D02*
X307278Y171543D01*
X291402Y169402D02*
X305136D01*
X308845Y167402D02*
X310132Y168689D01*
X294402Y167402D02*
X308845D01*
X309991Y164402D02*
X312101Y166512D01*
X295724Y164402D02*
X309991D01*
X294991Y152402D02*
X299211Y148181D01*
X294991Y152402D02*
Y156402D01*
X325881Y166512D02*
X327991Y164402D01*
X325881Y166512D02*
Y168689D01*
X327991Y160402D02*
X329008D01*
X323912Y164480D02*
X327991Y160402D01*
X323912Y164480D02*
Y168689D01*
X320272Y154402D02*
X321544Y155673D01*
X320140Y155646D02*
X321943Y157449D01*
Y168689D01*
X320140Y154270D02*
X320272Y154402D01*
X313841Y154974D02*
X319975Y161108D01*
Y168689D01*
X303973Y158402D02*
X312991D01*
X318006Y163417D01*
Y168689D01*
X301991Y160402D02*
X311991D01*
X316038Y164449D01*
Y168689D01*
X297402Y162402D02*
X310991D01*
X314070Y165480D01*
Y168689D01*
X312101Y166512D02*
Y168689D01*
X296654Y26346D02*
Y34969D01*
X303346Y54347D02*
Y57158D01*
X301000Y52000D02*
X303346Y54347D01*
X300000Y52000D02*
X301000D01*
X296654Y48654D02*
X300000Y52000D01*
X296654Y45968D02*
Y48654D01*
Y34969D02*
Y45968D01*
X312645Y41292D02*
X314559D01*
X272435Y45988D02*
X277111Y41311D01*
X265489Y45988D02*
X272435D01*
X258796Y34988D02*
Y45988D01*
Y28061D02*
Y34988D01*
X234883Y45968D02*
X239559Y41292D01*
X228236Y45968D02*
X234883D01*
X221543Y34969D02*
Y45968D01*
X21000Y131500D02*
X26500D01*
X21000Y136500D02*
X27500D01*
X120210Y47230D02*
Y52790D01*
X119000Y54000D02*
X120210Y52790D01*
X120000Y57000D02*
X122770Y54230D01*
Y47230D02*
Y54230D01*
X122760Y25330D02*
Y30240D01*
X127880Y25330D02*
Y32120D01*
X130440Y25330D02*
Y32440D01*
X133000Y25330D02*
Y30000D01*
X126000Y34000D02*
X127880Y32120D01*
X115090Y41910D02*
Y47230D01*
Y41910D02*
X120000Y37000D01*
X130000D01*
X117650Y42350D02*
Y47230D01*
Y42350D02*
X120000Y40000D01*
X126000D01*
X135560Y25330D02*
Y28560D01*
X135570Y47230D02*
X140230D01*
X299841Y154270D02*
X303973Y158402D01*
X299991D02*
X301991Y160402D01*
X296991Y158402D02*
X299991D01*
X294991Y156402D02*
X296991Y158402D01*
X329008Y160402D02*
X334140Y155270D01*
X327849Y168689D02*
X329665Y166873D01*
X206551Y177000D02*
Y183000D01*
X211551Y188000D01*
X214205D01*
Y198000D01*
X243067Y230484D02*
X247551Y226000D01*
X242331Y245839D02*
X254713D01*
X256551Y244000D01*
X242331Y238161D02*
X249713D01*
X252551Y241000D01*
X287551Y227000D02*
X292551Y232000D01*
X327991Y164402D02*
X332581D01*
X339487Y157496D01*
X343022D01*
X338706Y164189D02*
X343022D01*
X330703Y171543D02*
X333404Y168842D01*
X400402Y131463D02*
X403510D01*
X335022Y171843D02*
X336022D01*
Y166873D02*
X338706Y164189D01*
X329665Y166873D02*
X336022D01*
X333404Y168842D02*
X340022D01*
X338384Y175480D02*
X339022Y174843D01*
X400402Y217463D02*
X403510D01*
X400522Y174343D02*
X403510D01*
X400522Y179342D02*
X403510D01*
X358022Y188842D02*
X391022D01*
X400522Y179342D01*
X330703Y181386D02*
X350566D01*
X358022Y188842D01*
X258594Y250957D02*
X264772D01*
X256035Y253516D02*
X258594Y250957D01*
X256898Y261390D02*
X264772Y253516D01*
X242331Y235602D02*
X256551D01*
Y244000D01*
Y235602D02*
X264772D01*
X256067Y230484D02*
X264067D01*
X253551Y227000D02*
X287551D01*
X255551Y231000D02*
X256067Y230484D01*
X38291Y39709D02*
X45016D01*
X46331Y42288D02*
Y55669D01*
X33000Y138000D02*
Y143276D01*
X221543Y30457D02*
Y34969D01*
Y30457D02*
X232841Y19159D01*
X239559D01*
X71000Y9000D02*
X108000D01*
X117640Y18640D01*
Y25330D01*
X119000Y14000D02*
X120200Y15200D01*
Y25330D01*
X37000Y41000D02*
X38291Y39709D01*
X22161Y50000D02*
X33000D01*
X40732Y42268D01*
X45016D01*
X39000Y50000D02*
Y55520D01*
X34197Y71197D02*
X38850D01*
X39527Y29473D02*
X45016D01*
X34000Y35000D02*
X39527Y29473D01*
X34000Y35000D02*
Y37000D01*
X71000Y19236D02*
X78764D01*
X84000Y14000D01*
X107000D01*
X95000Y57000D02*
X120000D01*
X155000Y9000D02*
Y15112D01*
Y23380D02*
X156966Y25346D01*
X169000D01*
X221543Y45968D02*
Y49432D01*
X228346Y54347D02*
Y56346D01*
X221543Y49432D02*
X224111Y52000D01*
X226000D01*
X228346Y54347D01*
X258796Y45988D02*
Y49451D01*
X261345Y52000D01*
X263000D01*
X265347Y54347D01*
Y57158D01*
X258796Y28061D02*
X267680Y19178D01*
X277111D01*
X296654Y26346D02*
X303841Y19159D01*
X314559D01*
X249000Y9000D02*
Y23584D01*
X239559Y33025D02*
X249000Y23584D01*
X287000Y9000D02*
Y23155D01*
X277111Y33044D02*
X287000Y23155D01*
X324000Y9000D02*
Y23584D01*
X314559Y33025D02*
X324000Y23584D01*
X292000Y157000D02*
X297402Y162402D01*
X292000Y130000D02*
Y157000D01*
X277000Y115000D02*
X292000Y130000D01*
X288000Y156678D02*
X295724Y164402D01*
X262000Y115000D02*
X288000Y141000D01*
Y156678D01*
X283000Y156000D02*
X294402Y167402D01*
X283000Y151000D02*
Y156000D01*
X247000Y115000D02*
X283000Y151000D01*
X230000Y192000D02*
X252000D01*
X248000Y126000D02*
X291402Y169402D01*
X243000Y126000D02*
X248000D01*
X232000Y115000D02*
X243000Y126000D01*
X217000Y115000D02*
X235500Y133500D01*
X246098D02*
X284000Y171402D01*
X235500Y133500D02*
X246098D01*
X135560Y28560D02*
X173000Y66000D01*
X223000D01*
X133000Y30000D02*
X174000Y71000D01*
X208000D01*
X130440Y32440D02*
X173000Y75000D01*
X205000D01*
X140230Y47230D02*
X172000Y79000D01*
X222000D01*
X234000Y66000D02*
X243000Y75000D01*
Y83000D01*
X210000Y99000D02*
X228346Y80654D01*
Y57158D02*
Y80654D01*
X223000Y93000D02*
X232000Y102000D01*
Y105000D01*
X227000Y90000D02*
X232000D01*
X247000Y105000D01*
X243000Y83000D02*
X262000Y102000D01*
Y105000D01*
X247000Y79000D02*
X251000D01*
X277000Y105000D01*
X133010Y54010D02*
X140000Y61000D01*
X146000D01*
X150000Y37000D02*
X201495D01*
X221654Y57158D01*
X154000Y40000D02*
X167000Y53000D01*
X210000D01*
X174000Y61000D02*
X212000D01*
X246000Y53000D02*
X254495D01*
X258653Y57158D01*
X273000Y61000D02*
X292812D01*
X296654Y57158D01*
X260173Y155173D02*
X280480Y175480D01*
X256000Y150000D02*
Y156000D01*
X277449Y177449D01*
X307278D01*
X294173Y70827D02*
Y121173D01*
Y70827D02*
X303346Y61654D01*
Y57158D02*
Y61654D01*
X265347Y57158D02*
Y70346D01*
X289000Y94000D01*
Y117000D01*
X323000Y48000D02*
X352000Y19000D01*
X298000Y83000D02*
Y99000D01*
Y83000D02*
X323000Y58000D01*
Y48000D02*
Y58000D01*
X327849Y194030D02*
X338423Y204604D01*
Y213854D01*
X327849Y192114D02*
Y194030D01*
X325881Y192114D02*
Y195880D01*
X331730Y201730D01*
Y213854D01*
X323912Y192114D02*
Y211035D01*
X321092Y213854D02*
X323912Y211035D01*
X316038Y192114D02*
Y196962D01*
X321943Y192114D02*
Y205000D01*
X319975Y192114D02*
Y201025D01*
X314400Y212544D02*
X321943Y205000D01*
X304092Y213854D02*
X309947Y208000D01*
X313000D01*
X319975Y201025D01*
X318006Y192114D02*
Y198994D01*
X312000Y205000D02*
X318006Y198994D01*
X297399Y211600D02*
X304000Y205000D01*
X311000Y202000D02*
X316038Y196962D01*
X314070Y192114D02*
Y195931D01*
X310000Y200000D02*
X314070Y195931D01*
X312101Y192114D02*
Y194899D01*
X310000Y197000D02*
X312101Y194899D01*
X306886Y192114D02*
X310132D01*
X305015Y193985D02*
X306886Y192114D01*
X304000Y205000D02*
X312000D01*
X302000Y202000D02*
X311000D01*
X299000Y205000D02*
X302000Y202000D01*
X299000Y200000D02*
X310000D01*
X275000Y214000D02*
X295015Y193985D01*
X305015D01*
X276252Y218000D02*
X297252Y197000D01*
X310000D01*
X236551Y218000D02*
X276252D01*
X277000Y222000D02*
X299000Y200000D01*
X238551Y222000D02*
X277000D01*
X238551Y196000D02*
X247551Y205000D01*
X278000D01*
X305740Y189260D02*
X307278D01*
X304000Y191000D02*
X305740Y189260D01*
X293000Y191000D02*
X304000D01*
X286000Y198000D02*
X293000Y191000D01*
X303169Y187291D02*
X307278D01*
X301460Y189000D02*
X303169Y187291D01*
X291000Y189000D02*
X301460D01*
X264000Y198000D02*
X286000D01*
X269000Y195000D02*
X285000D01*
X291000Y189000D01*
X283000Y191000D02*
X288677Y185323D01*
X272000Y191000D02*
X283000D01*
X235000Y169000D02*
X264000Y198000D01*
X238000Y164000D02*
X269000Y195000D01*
X270417Y179417D02*
X307278D01*
X210000Y99000D02*
Y119000D01*
X270417Y179417D01*
X285169Y183354D02*
X307278D01*
X281523Y187000D02*
X285169Y183354D01*
X266000Y187000D02*
X281523D01*
X237000Y158000D02*
X266000Y187000D01*
X280000Y184000D02*
X282614Y181386D01*
X269000Y184000D02*
X280000D01*
X238000Y153000D02*
X269000Y184000D01*
X219935Y158000D02*
X237000D01*
X202000Y115000D02*
Y124000D01*
X231000Y153000D01*
X238000D01*
X176935Y115000D02*
X219935Y158000D01*
X151935Y115000D02*
Y136935D01*
X165500Y150500D01*
X126935Y115000D02*
Y119935D01*
X161500Y154500D01*
X184000Y169000D02*
X235000D01*
X186000Y164000D02*
X238000D01*
X130450Y56450D02*
X158000Y84000D01*
X205000D01*
X212000Y91000D01*
X222000Y98000D02*
Y100000D01*
X217000Y105000D02*
X222000Y100000D01*
X127890Y47230D02*
Y60855D01*
X156035Y89000D01*
X186000D01*
X202000Y105000D01*
X125330Y47230D02*
Y65330D01*
X154000Y94000D01*
X165935D01*
X176935Y105000D01*
X120000Y33000D02*
X122760Y30240D01*
X10800Y180365D02*
X142636D01*
X184500Y138500D01*
X193500D01*
X11000Y217000D02*
X18000Y224000D01*
X11000Y237000D02*
X18000Y230000D01*
Y224000D02*
Y230000D01*
X27500Y136500D02*
X60000Y104000D01*
X33000Y138000D02*
X67000Y104000D01*
X60000Y93000D02*
Y104000D01*
X126803Y271000D02*
X129724D01*
X146000Y287276D01*
X136724D02*
X138000Y286000D01*
X116276Y287276D02*
X136724D01*
X100000Y271000D02*
X116276Y287276D01*
X140000Y271000D02*
X151221Y259780D01*
X298644Y138644D02*
Y146270D01*
X155000Y221000D02*
Y253654D01*
Y221000D02*
X180000Y196000D01*
X176000Y177000D02*
X206551D01*
X127500Y225500D02*
X176000Y177000D01*
X44000Y281000D02*
X86000Y239000D01*
X73000Y271000D02*
X89000Y255000D01*
Y244000D02*
Y255000D01*
X178854Y212854D02*
X187236D01*
X174000Y208000D02*
X178854Y212854D01*
X125000Y208000D02*
X139000D01*
X107000Y226000D02*
X125000Y208000D01*
X107000Y226000D02*
Y235000D01*
X90000Y261000D02*
X107000Y244000D01*
X90000Y261000D02*
Y264000D01*
X73000Y281000D02*
X90000Y264000D01*
X183000Y201000D02*
X187205D01*
X180000Y204000D02*
X183000Y201000D01*
X142000Y198000D02*
X185000Y155000D01*
X141000Y190000D02*
X187000Y144000D01*
X52000Y185000D02*
X140000D01*
X13528Y59646D02*
X20764D01*
X12354Y40354D02*
X20783D01*
X11709Y46705D02*
Y53295D01*
Y40354D02*
Y46705D01*
Y53295D02*
Y61465D01*
X172346Y228000D02*
X187205D01*
X165000Y249654D02*
X165551D01*
X186221D01*
X165551Y228000D02*
Y249654D01*
Y250669D01*
X183661Y267000D02*
X196661Y280000D01*
X175654Y267000D02*
X183661D01*
X165000Y256347D02*
X175654Y267000D01*
D34*
X29764Y58000D02*
Y79000D01*
X26882Y55118D02*
X29764Y58000D01*
X22161Y55118D02*
X26882D01*
X38850Y71197D02*
X42654Y75000D01*
X38850Y64331D02*
Y71197D01*
X17346Y80000D02*
X29000D01*
X30000Y87000D02*
X34000D01*
X42654Y75000D02*
Y78347D01*
X38327Y82673D02*
X52000Y96346D01*
Y105000D01*
X34000Y87000D02*
X38327Y82673D01*
X42654Y78347D01*
X52000Y125000D02*
Y143000D01*
D35*
X397000Y53000D02*
X407000D01*
X388000Y62000D02*
X397000Y53000D01*
X347000Y62000D02*
X388000D01*
X229654Y259653D02*
Y264000D01*
X227000Y257000D02*
X229654Y259653D01*
X320140Y88860D02*
X347000Y62000D01*
X320140Y88860D02*
Y154270D01*
X250551Y264315D02*
Y273622D01*
D36*
X69653Y108346D02*
Y127000D01*
Y108346D02*
X72000Y106000D01*
Y96000D02*
Y106000D01*
X69653Y127000D02*
Y137000D01*
X48409Y151559D02*
X55094D01*
X69653Y137000D01*
X307968Y45968D02*
X312645Y41292D01*
X303346Y45968D02*
X307968D01*
X21000Y146000D02*
X26906Y151906D01*
X31063D01*
X41370D01*
X57653Y52000D02*
Y59654D01*
X72000Y74000D01*
X250551Y280000D02*
X285323D01*
X11000Y217000D02*
X19654Y208347D01*
Y203000D02*
Y208347D01*
X21000Y141500D02*
Y146000D01*
D37*
X350022Y153978D02*
X357000Y147000D01*
X350022Y153978D02*
Y163842D01*
X337443Y196000D02*
X343000D01*
X396234Y192000D02*
X403510Y199276D01*
X357000Y192000D02*
X396234D01*
X375697Y222463D02*
X388022D01*
X344077Y190842D02*
X375697Y222463D01*
X343022Y170843D02*
X350022Y163842D01*
X343022Y170843D02*
Y175842D01*
X359000Y155842D02*
X391022D01*
X403510Y143354D01*
X359157Y159843D02*
X399010D01*
X357000Y162000D02*
X359157Y159843D01*
X357000Y162000D02*
Y167865D01*
X388865Y152000D02*
X397022Y143842D01*
X357865Y152000D02*
X388865D01*
X354022Y155842D02*
X357865Y152000D01*
X348022Y171843D02*
X354022Y165842D01*
X330703Y173512D02*
X333353D01*
X335022Y171843D01*
X347022D02*
X348022D01*
X330703Y175480D02*
X338384D01*
X403510Y136463D02*
Y143354D01*
X397022Y134843D02*
X400402Y131463D01*
X397022Y134843D02*
Y143842D01*
X390000Y121463D02*
X403510D01*
X354022Y155842D02*
Y165842D01*
X399022Y218843D02*
X400402Y217463D01*
X378077Y218843D02*
X399022D01*
X388022Y222463D02*
X403510D01*
X389022Y185843D02*
X400522Y174343D01*
X330703Y177449D02*
X341416D01*
X343022Y175842D01*
X330703Y187291D02*
X334471D01*
X330703Y185323D02*
X337503D01*
X339022Y186843D01*
X330703Y189260D02*
X337443Y196000D01*
X334471Y187291D02*
X338022Y190842D01*
X344077D01*
X403510Y199276D02*
Y207463D01*
X330703Y179417D02*
X354651D01*
X361077Y185843D01*
X389022D01*
X339022Y186843D02*
X346077D01*
X330703Y183354D02*
X347588D01*
X349077Y184843D01*
X399010Y159843D02*
X403510Y164342D01*
D38*
X306337Y154270D02*
X313841D01*
X306337Y146270D02*
Y154073D01*
X18000Y80654D02*
Y99000D01*
X13000Y104000D02*
X18000Y99000D01*
D39*
X100000Y39150D02*
X104440D01*
X112520Y47230D01*
X100000Y32850D02*
X105000D01*
X112520Y25330D01*
X45016Y37150D02*
X58000D01*
X65323Y16677D02*
X71000D01*
X58000Y24000D02*
X65323Y16677D01*
X58000Y46000D02*
X77000D01*
X79000Y44000D01*
X58000Y24000D02*
Y37150D01*
Y46000D01*
Y51653D01*
X79000Y37000D02*
Y44000D01*
Y37000D02*
X86000Y30000D01*
D40*
X320272Y154402D02*
X327841D01*
X42299Y96299D02*
Y103990D01*
X40000Y94000D02*
X42299Y96299D01*
D41*
X116000Y9000D02*
X121000D01*
X155000D01*
X287000D01*
X324000D01*
X88000Y32653D02*
X98803D01*
X88000Y19000D02*
Y24000D01*
Y32653D01*
D42*
X57700Y-79851D02*
X61699D01*
X59699D01*
Y-85849D01*
X64698D02*
X66697D01*
X67697Y-84850D01*
Y-82850D01*
X66697Y-81851D01*
X64698D01*
X63698Y-82850D01*
Y-84850D01*
X64698Y-85849D01*
X69696Y-87849D02*
Y-81851D01*
X72695D01*
X73695Y-82850D01*
Y-84850D01*
X72695Y-85849D01*
X69696D01*
X81692Y-79851D02*
Y-85849D01*
X85691D01*
X88690Y-81851D02*
X90689D01*
X91689Y-82850D01*
Y-85849D01*
X88690D01*
X87690Y-84850D01*
X88690Y-83850D01*
X91689D01*
X93688Y-81851D02*
Y-84850D01*
X94688Y-85849D01*
X97687D01*
Y-86849D01*
X96687Y-87849D01*
X95688D01*
X97687Y-85849D02*
Y-81851D01*
X102685Y-85849D02*
X100686D01*
X99686Y-84850D01*
Y-82850D01*
X100686Y-81851D01*
X102685D01*
X103685Y-82850D01*
Y-83850D01*
X99686D01*
X105684Y-81851D02*
Y-85849D01*
Y-83850D01*
X106684Y-82850D01*
X107684Y-81851D01*
X108684D01*
D43*
X417095Y90823D02*
D03*
D44*
X397410D02*
D03*
D45*
X277111Y19178D02*
D03*
X11000Y217000D02*
D03*
Y227000D02*
D03*
Y237000D02*
D03*
Y247000D02*
D03*
X41000D02*
D03*
Y237000D02*
D03*
Y227000D02*
D03*
X13000Y104000D02*
D03*
X461000Y37468D02*
D03*
Y111000D02*
D03*
X340551Y247000D02*
D03*
X202000Y19159D02*
D03*
X42299Y103990D02*
D03*
X143894Y231081D02*
D03*
X239559Y19159D02*
D03*
X314559D02*
D03*
X357551Y247000D02*
D03*
X374551D02*
D03*
X323551D02*
D03*
X289551D02*
D03*
X306551D02*
D03*
X352000Y19000D02*
D03*
X361000Y79000D02*
D03*
X423000Y277000D02*
D03*
D46*
X41000Y217000D02*
D03*
D47*
X381780Y280000D02*
D03*
X368000D02*
D03*
X354221D02*
D03*
X340441D02*
D03*
X326661D02*
D03*
X312882D02*
D03*
X299102D02*
D03*
D48*
X285323D02*
D03*
D49*
X196661D02*
D03*
D50*
X210441D02*
D03*
D51*
X455045Y149811D02*
D03*
X454969Y67023D02*
D03*
D52*
X455045Y169811D02*
D03*
Y189811D02*
D03*
X454969Y87023D02*
D03*
D53*
X126803Y281000D02*
D03*
X10800Y180365D02*
D03*
X116935Y115000D02*
D03*
X192000D02*
D03*
X166935D02*
D03*
X141935D02*
D03*
X100000Y261000D02*
D03*
X73000Y281000D02*
D03*
X44000Y271000D02*
D03*
X126935Y105000D02*
D03*
X151935D02*
D03*
X176935D02*
D03*
X202000D02*
D03*
X217000D02*
D03*
X232000D02*
D03*
X247000D02*
D03*
X262000D02*
D03*
X277000D02*
D03*
D54*
X126803Y271000D02*
D03*
Y261000D02*
D03*
X10800Y170364D02*
D03*
X100000Y271000D02*
D03*
X73000D02*
D03*
X44000Y281000D02*
D03*
X126935Y115000D02*
D03*
X151935D02*
D03*
X176935D02*
D03*
X202000D02*
D03*
X217000D02*
D03*
X232000D02*
D03*
X247000D02*
D03*
X262000D02*
D03*
X277000D02*
D03*
D55*
X21000Y126500D02*
D03*
D56*
Y136500D02*
D03*
Y131500D02*
D03*
Y141500D02*
D03*
D57*
X16000Y279000D02*
D03*
X456000D02*
D03*
X16000Y16000D02*
D03*
X456000D02*
D03*
D58*
X242000Y187000D02*
D03*
X208205Y241347D02*
D03*
X209776Y234224D02*
D03*
X451000Y116000D02*
D03*
X444000Y119000D02*
D03*
X437000D02*
D03*
X446000Y112000D02*
D03*
X448000Y106000D02*
D03*
X439000Y112000D02*
D03*
X432000D02*
D03*
X425000D02*
D03*
X418000D02*
D03*
X441000Y106000D02*
D03*
X434000D02*
D03*
X427000D02*
D03*
X420000D02*
D03*
X413000D02*
D03*
X443000Y100000D02*
D03*
X422000D02*
D03*
X224576Y280315D02*
D03*
X397000Y99000D02*
D03*
X390000Y91000D02*
D03*
X401000Y76000D02*
D03*
X406000Y93000D02*
D03*
X405000Y100000D02*
D03*
Y86000D02*
D03*
Y80000D02*
D03*
X399000Y83000D02*
D03*
X400000Y70000D02*
D03*
X379000Y205000D02*
D03*
X380000Y199000D02*
D03*
X449000Y39000D02*
D03*
X459000Y59000D02*
D03*
X454000Y54000D02*
D03*
X445000Y73000D02*
D03*
X453000Y76000D02*
D03*
X461000D02*
D03*
Y122000D02*
D03*
X420000Y260000D02*
D03*
X440000D02*
D03*
X400000Y280000D02*
D03*
X440000D02*
D03*
X122000Y75000D02*
D03*
X119000Y61000D02*
D03*
X120000Y33000D02*
D03*
X202000Y213000D02*
D03*
X440000Y29000D02*
D03*
X435000Y44000D02*
D03*
Y54000D02*
D03*
X430000Y49000D02*
D03*
X420000Y42548D02*
D03*
X409000Y42000D02*
D03*
X430000Y39000D02*
D03*
X435000Y34000D02*
D03*
X430000Y29000D02*
D03*
X435000Y24000D02*
D03*
X430000Y19000D02*
D03*
Y59000D02*
D03*
X398000Y45000D02*
D03*
X391000Y41000D02*
D03*
X395000Y34000D02*
D03*
X375000D02*
D03*
X390000Y29000D02*
D03*
X380000D02*
D03*
X385000Y24000D02*
D03*
X370000Y29000D02*
D03*
X365000Y34000D02*
D03*
X391000Y82000D02*
D03*
X390000Y70000D02*
D03*
X380000D02*
D03*
X370000D02*
D03*
X385000Y76000D02*
D03*
Y96000D02*
D03*
Y86000D02*
D03*
X365000Y96000D02*
D03*
X430000Y227000D02*
D03*
X435000Y230000D02*
D03*
X440000Y232000D02*
D03*
Y227000D02*
D03*
X430000Y221000D02*
D03*
Y216000D02*
D03*
X435000Y213000D02*
D03*
X440000Y210000D02*
D03*
X435000Y224000D02*
D03*
X440000Y221000D02*
D03*
X435000Y218000D02*
D03*
X440000Y215000D02*
D03*
X97000Y81000D02*
D03*
X112000Y68000D02*
D03*
X72000Y96000D02*
D03*
X200000Y154000D02*
D03*
X108000Y143000D02*
D03*
X136000Y161000D02*
D03*
X73000Y145000D02*
D03*
X88000Y112000D02*
D03*
X103000Y102000D02*
D03*
X372000Y231000D02*
D03*
X360000Y221000D02*
D03*
X350000Y211000D02*
D03*
X400000Y240000D02*
D03*
X410000Y250000D02*
D03*
X400000Y260000D02*
D03*
X243000Y267000D02*
D03*
Y261000D02*
D03*
X97000Y228000D02*
D03*
X191000Y173000D02*
D03*
X201000D02*
D03*
X230000D02*
D03*
X274000Y257000D02*
D03*
X273000Y266000D02*
D03*
X268000Y272000D02*
D03*
X260000D02*
D03*
X225000Y273000D02*
D03*
X241000D02*
D03*
X221000Y259000D02*
D03*
X90000Y282000D02*
D03*
X59000D02*
D03*
X117000Y247000D02*
D03*
X112000Y259000D02*
D03*
X59000Y257000D02*
D03*
X47000D02*
D03*
X34000D02*
D03*
X26000Y249000D02*
D03*
X65000Y227000D02*
D03*
X87000Y192000D02*
D03*
Y201000D02*
D03*
X94000Y197000D02*
D03*
X73000Y201000D02*
D03*
X80000Y197000D02*
D03*
X66000D02*
D03*
X59000Y201000D02*
D03*
Y192000D02*
D03*
X26000Y239000D02*
D03*
Y230000D02*
D03*
Y221000D02*
D03*
X26000Y211999D02*
D03*
X22000Y189000D02*
D03*
X10000Y159000D02*
D03*
X38000Y165000D02*
D03*
X28000D02*
D03*
X16000Y153000D02*
D03*
X22000Y159000D02*
D03*
X36000Y119000D02*
D03*
X27000D02*
D03*
X10000Y118000D02*
D03*
Y93000D02*
D03*
Y71000D02*
D03*
X17000D02*
D03*
X24000D02*
D03*
X28000Y26000D02*
D03*
Y33000D02*
D03*
X35000Y26000D02*
D03*
Y17000D02*
D03*
X54000Y86000D02*
D03*
X59000Y80000D02*
D03*
X64000Y75000D02*
D03*
X59000Y70000D02*
D03*
X54000Y65000D02*
D03*
X74000Y60000D02*
D03*
X66000D02*
D03*
X89000Y49000D02*
D03*
X97000D02*
D03*
X112000Y36000D02*
D03*
X100000Y23000D02*
D03*
X141000Y15000D02*
D03*
X130000D02*
D03*
X310000Y139000D02*
D03*
X300000Y129000D02*
D03*
Y119000D02*
D03*
Y109000D02*
D03*
X283000Y81000D02*
D03*
X290000D02*
D03*
X276000Y74000D02*
D03*
Y67000D02*
D03*
X290000D02*
D03*
X283000D02*
D03*
X290000Y74000D02*
D03*
X283000D02*
D03*
X272000Y88000D02*
D03*
X264000Y80000D02*
D03*
X244000Y66000D02*
D03*
X251000Y73000D02*
D03*
X258000D02*
D03*
X251000Y66000D02*
D03*
X258000D02*
D03*
X176000Y45000D02*
D03*
X196000D02*
D03*
Y31000D02*
D03*
X184000D02*
D03*
Y17000D02*
D03*
X208000Y31000D02*
D03*
X221000Y19000D02*
D03*
X250000Y40000D02*
D03*
X258000Y17000D02*
D03*
X285000Y52000D02*
D03*
X287000Y39000D02*
D03*
X293000Y21000D02*
D03*
X299000Y14000D02*
D03*
X334000Y15000D02*
D03*
X329000Y20000D02*
D03*
X339000D02*
D03*
X334000Y25000D02*
D03*
X329000Y29945D02*
D03*
X324000Y35000D02*
D03*
X365000Y14000D02*
D03*
X449000Y59000D02*
D03*
X445000Y64000D02*
D03*
X435087D02*
D03*
X440000Y59000D02*
D03*
X445000Y54000D02*
D03*
Y44000D02*
D03*
X440000Y49000D02*
D03*
X380087Y91000D02*
D03*
X375000Y96000D02*
D03*
X370000Y91000D02*
D03*
X375000Y86163D02*
D03*
X430000Y250000D02*
D03*
X440000Y39000D02*
D03*
X390000Y250000D02*
D03*
X450000D02*
D03*
X440000Y240000D02*
D03*
X445000Y34000D02*
D03*
X410000Y270000D02*
D03*
X460000Y230000D02*
D03*
Y240000D02*
D03*
X355000Y34000D02*
D03*
X460000Y220000D02*
D03*
X450000D02*
D03*
Y210000D02*
D03*
X460000D02*
D03*
X420000Y240000D02*
D03*
X460000Y260000D02*
D03*
X450000Y230000D02*
D03*
X370000Y19000D02*
D03*
X390000Y19109D02*
D03*
X380000Y19000D02*
D03*
X375000Y24055D02*
D03*
X360000Y39055D02*
D03*
Y29000D02*
D03*
X365000Y24000D02*
D03*
X360000Y49000D02*
D03*
X355000Y54000D02*
D03*
X345000Y34000D02*
D03*
X340000Y39000D02*
D03*
X330000Y49000D02*
D03*
X335000Y44000D02*
D03*
X345000Y54109D02*
D03*
X340000Y49055D02*
D03*
X345000Y44000D02*
D03*
X350000Y49055D02*
D03*
Y39055D02*
D03*
X355000Y44109D02*
D03*
X330000Y69109D02*
D03*
X325000Y64055D02*
D03*
X330000Y59000D02*
D03*
X335000Y64055D02*
D03*
Y54054D02*
D03*
X340000Y59109D02*
D03*
X325000Y74054D02*
D03*
X320000Y69000D02*
D03*
Y79000D02*
D03*
X315000Y73945D02*
D03*
X310000Y79000D02*
D03*
X315000Y134000D02*
D03*
X310000Y99000D02*
D03*
X315000Y94000D02*
D03*
X310000Y109055D02*
D03*
X315000Y104054D02*
D03*
Y124109D02*
D03*
X310000Y129109D02*
D03*
X315000Y114055D02*
D03*
X310000Y119054D02*
D03*
X305000Y124055D02*
D03*
Y134109D02*
D03*
Y114055D02*
D03*
Y104000D02*
D03*
Y94055D02*
D03*
X310000Y89055D02*
D03*
X315000Y84054D02*
D03*
X305000D02*
D03*
X380000Y81000D02*
D03*
X375000Y76000D02*
D03*
X370000Y81000D02*
D03*
X360000Y91000D02*
D03*
X355000Y86000D02*
D03*
X350000Y71000D02*
D03*
X345000Y76000D02*
D03*
X340000Y81000D02*
D03*
X335000Y86000D02*
D03*
X330000Y91000D02*
D03*
X340000D02*
D03*
X335000Y96000D02*
D03*
X330000Y101000D02*
D03*
Y110945D02*
D03*
Y121000D02*
D03*
Y141054D02*
D03*
Y131000D02*
D03*
X370000Y121000D02*
D03*
X365000Y125945D02*
D03*
X335000Y126000D02*
D03*
X340000Y121000D02*
D03*
X335000Y136055D02*
D03*
X340000Y131054D02*
D03*
X355000Y136055D02*
D03*
X350000Y131000D02*
D03*
X360000Y131054D02*
D03*
X345000Y136000D02*
D03*
X355000Y126000D02*
D03*
X350000Y120946D02*
D03*
X360000Y121000D02*
D03*
X345000Y125945D02*
D03*
Y116054D02*
D03*
X340000Y111000D02*
D03*
X350000Y111055D02*
D03*
X335000Y116000D02*
D03*
X345000Y106000D02*
D03*
X340000Y100945D02*
D03*
X350000Y101000D02*
D03*
X335000Y105946D02*
D03*
X355000Y96055D02*
D03*
X350000Y91000D02*
D03*
X345000Y96000D02*
D03*
X350000Y80945D02*
D03*
X345000Y85945D02*
D03*
X365000Y116054D02*
D03*
X360000Y111000D02*
D03*
X370000Y111055D02*
D03*
X355000Y116000D02*
D03*
X365000Y106000D02*
D03*
X360000Y100945D02*
D03*
X370000Y101000D02*
D03*
X355000Y105946D02*
D03*
X385000Y116000D02*
D03*
X380000Y110945D02*
D03*
X390000Y111000D02*
D03*
X375000Y115945D02*
D03*
X385000Y105946D02*
D03*
X380000Y100891D02*
D03*
X390000Y100945D02*
D03*
X375000Y105891D02*
D03*
X405000Y116000D02*
D03*
X400000Y110945D02*
D03*
X395000Y115945D02*
D03*
Y105891D02*
D03*
X450000Y100000D02*
D03*
X436000D02*
D03*
X429000D02*
D03*
X392858Y142812D02*
D03*
X393381Y125286D02*
D03*
X386000Y126000D02*
D03*
X357000Y147000D02*
D03*
X390000Y121463D02*
D03*
X379000Y147000D02*
D03*
X384000Y196000D02*
D03*
X388000Y200000D02*
D03*
X384000Y203000D02*
D03*
X391000Y196000D02*
D03*
X343000D02*
D03*
X357000Y192000D02*
D03*
X377000Y164000D02*
D03*
X371000Y173000D02*
D03*
X365000D02*
D03*
X362000Y176000D02*
D03*
X365000Y180000D02*
D03*
X368000Y176000D02*
D03*
X371000Y180000D02*
D03*
X374000Y176000D02*
D03*
X377000Y180000D02*
D03*
Y172000D02*
D03*
X383000Y180000D02*
D03*
X380000Y176000D02*
D03*
Y168000D02*
D03*
X383000Y172000D02*
D03*
Y164000D02*
D03*
X386000Y168000D02*
D03*
X389000Y164000D02*
D03*
X397000Y168000D02*
D03*
X392000D02*
D03*
X389000Y172000D02*
D03*
X386000Y176000D02*
D03*
X359000Y155842D02*
D03*
X389000Y180000D02*
D03*
X395000Y172000D02*
D03*
X392000Y176000D02*
D03*
X235551Y235000D02*
D03*
X227000Y257000D02*
D03*
X127500Y225500D02*
D03*
X41000Y176000D02*
D03*
Y189000D02*
D03*
X34000Y193000D02*
D03*
Y176000D02*
D03*
X134000Y133869D02*
D03*
X141935Y125935D02*
D03*
X80000Y218000D02*
D03*
X247551Y226000D02*
D03*
X282551Y237000D02*
D03*
X288551Y233000D02*
D03*
X287551Y239000D02*
D03*
X313805Y237253D02*
D03*
X292551Y239000D02*
D03*
X281551Y253000D02*
D03*
X206551Y221000D02*
D03*
X227551Y231000D02*
D03*
X231551Y233000D02*
D03*
X245551Y210000D02*
D03*
X236551Y201000D02*
D03*
X233551Y210000D02*
D03*
X228551Y213000D02*
D03*
X202551Y232000D02*
D03*
Y219000D02*
D03*
X228551Y221000D02*
D03*
X232551Y196000D02*
D03*
X154000Y40000D02*
D03*
X150000Y37000D02*
D03*
X26500Y131500D02*
D03*
X126000Y34000D02*
D03*
X130000Y37000D02*
D03*
X126000Y40000D02*
D03*
X430022Y175842D02*
D03*
X435022Y176842D02*
D03*
X430022Y181843D02*
D03*
X435022Y182843D02*
D03*
Y188842D02*
D03*
X430022Y187843D02*
D03*
X425022Y183843D02*
D03*
X420022D02*
D03*
Y189842D02*
D03*
X425022D02*
D03*
X420022Y195843D02*
D03*
X428022Y193842D02*
D03*
X430022Y136843D02*
D03*
X434022Y140842D02*
D03*
X429022Y142842D02*
D03*
X424022Y140842D02*
D03*
X419022D02*
D03*
Y145843D02*
D03*
X424022D02*
D03*
X419022Y150842D02*
D03*
X424022D02*
D03*
X429022Y148843D02*
D03*
X434022Y146843D02*
D03*
Y152842D02*
D03*
X440022Y177842D02*
D03*
Y183843D02*
D03*
Y146843D02*
D03*
Y152842D02*
D03*
X397022Y128842D02*
D03*
X394022Y132843D02*
D03*
X392022Y137843D02*
D03*
X388022Y141842D02*
D03*
Y134843D02*
D03*
X390022Y129842D02*
D03*
X397022Y214843D02*
D03*
Y209842D02*
D03*
X392022D02*
D03*
Y214843D02*
D03*
X387022Y212842D02*
D03*
X252551Y241000D02*
D03*
X314991Y184402D02*
D03*
Y180402D02*
D03*
Y176402D02*
D03*
X318991D02*
D03*
X322991D02*
D03*
Y180402D02*
D03*
X318991Y180402D02*
D03*
X318991Y184402D02*
D03*
X322991D02*
D03*
X347022Y171843D02*
D03*
X340022Y168842D02*
D03*
X339022Y174843D02*
D03*
X336022Y171843D02*
D03*
X384022Y137843D02*
D03*
Y130842D02*
D03*
X379876Y134304D02*
D03*
X380876Y141842D02*
D03*
X382022Y213843D02*
D03*
X396022Y204842D02*
D03*
X391022D02*
D03*
X394022Y199843D02*
D03*
X387022Y207842D02*
D03*
X382022Y208842D02*
D03*
X429022Y154842D02*
D03*
X424022Y155842D02*
D03*
X419022D02*
D03*
X437022Y157843D02*
D03*
X384077Y145843D02*
D03*
X349077Y184843D02*
D03*
Y175788D02*
D03*
X327551Y234000D02*
D03*
X255551Y231000D02*
D03*
X33000Y138000D02*
D03*
X119000Y14000D02*
D03*
X107000D02*
D03*
X116000Y9000D02*
D03*
X88000Y19000D02*
D03*
Y24000D02*
D03*
X63000Y29000D02*
D03*
Y39000D02*
D03*
X53000Y23000D02*
D03*
X37000Y41000D02*
D03*
X39000Y50000D02*
D03*
X34197Y71197D02*
D03*
X34000Y37000D02*
D03*
X53000Y31000D02*
D03*
Y15000D02*
D03*
X60000Y11000D02*
D03*
X121000Y9000D02*
D03*
X105000Y49000D02*
D03*
X230000Y192000D02*
D03*
X234000Y66000D02*
D03*
X223000D02*
D03*
X243000Y83000D02*
D03*
X247000Y79000D02*
D03*
X222000D02*
D03*
X205000Y75000D02*
D03*
X208000Y71000D02*
D03*
X223000Y93000D02*
D03*
X227000Y90000D02*
D03*
X146000Y61000D02*
D03*
X174000D02*
D03*
X210000Y53000D02*
D03*
X212000Y61000D02*
D03*
X246000Y53000D02*
D03*
X273000Y61000D02*
D03*
X289000Y117000D02*
D03*
X294173Y121173D02*
D03*
X260173Y155173D02*
D03*
X256000Y150000D02*
D03*
X298000Y99000D02*
D03*
X299000Y205000D02*
D03*
X278000D02*
D03*
X272000Y191000D02*
D03*
X252000Y192000D02*
D03*
X193500Y138500D02*
D03*
X212000Y91000D02*
D03*
X222000Y98000D02*
D03*
X165500Y150500D02*
D03*
X161500Y154500D02*
D03*
X52000Y105000D02*
D03*
Y125000D02*
D03*
Y143000D02*
D03*
X185000Y155000D02*
D03*
X187000Y144000D02*
D03*
X184000Y169000D02*
D03*
X186000Y164000D02*
D03*
X72000Y74000D02*
D03*
X133000Y91500D02*
D03*
X193551Y192000D02*
D03*
X180000Y196000D02*
D03*
X138000Y286000D02*
D03*
X140000Y271000D02*
D03*
X298644Y138644D02*
D03*
X206551Y177000D02*
D03*
X89000Y244000D02*
D03*
X174000Y208000D02*
D03*
X139000D02*
D03*
X107000Y235000D02*
D03*
Y244000D02*
D03*
X180000Y204000D02*
D03*
X140000Y185000D02*
D03*
X415000Y100000D02*
D03*
X372539Y137266D02*
D03*
X424000Y227000D02*
D03*
X418000D02*
D03*
X425000Y232000D02*
D03*
X420000D02*
D03*
X431000Y233000D02*
D03*
X390000Y230000D02*
D03*
X395000Y76000D02*
D03*
X461000Y127000D02*
D03*
X235000Y183000D02*
D03*
X30000Y106000D02*
D03*
X40000Y94000D02*
D03*
X385000Y14000D02*
D03*
X396000D02*
D03*
X407000D02*
D03*
X418000D02*
D03*
X170000Y272000D02*
D03*
X177000Y279000D02*
D03*
X153000Y271000D02*
D03*
X141000Y255000D02*
D03*
X186000Y261000D02*
D03*
X178000Y237000D02*
D03*
Y219000D02*
D03*
X214000Y244000D02*
D03*
X178000Y243000D02*
D03*
X365000Y86000D02*
D03*
D59*
X384000Y222463D02*
D03*
X378077Y218843D02*
D03*
X354651Y179417D02*
D03*
X355022Y185843D02*
D03*
D60*
X52000Y185000D02*
D03*
M02*
