%FSTAX24Y24*%
%MOIN*%
%SFA1B1*%

%IPPOS*%
%AMD48*
4,1,8,0.019600,0.055100,-0.019600,0.055100,-0.039300,0.035400,-0.039300,-0.035400,-0.019600,-0.055100,0.019600,-0.055100,0.039300,-0.035400,0.039300,0.035400,0.019600,0.055100,0.0*
1,1,0.039400,0.019600,0.035400*
1,1,0.039400,-0.019600,0.035400*
1,1,0.039400,-0.019600,-0.035400*
1,1,0.039400,0.019600,-0.035400*
%
G04~CAMADD=48~8~0.0~0.0~787.0~1102.0~197.0~0.0~15~0.0~0.0~0.0~0.0~0~0.0~0.0~0.0~0.0~0~0.0~0.0~0.0~0.0~787.0~1102.0*
%ADD48D48*%
%ADD49R,0.078700X0.110200*%
%ADD50C,0.255900*%
%ADD51C,0.055100*%
%ADD52C,0.031500*%
%LNpcbmc34063ver1_27012019-1*%
%LPD*%
G36*
X060189Y036186D02*
X060333Y036142D01*
X060466Y036071*
X060582Y035976*
X060677Y035859*
X060748Y035727*
X060792Y035583*
X060806Y03544*
X060805Y035433*
Y019291*
X060726Y01927*
X060663Y019381*
X060537Y019545*
X060391Y01969*
X060227Y019816*
X060048Y019919*
X059858Y019998*
X059658Y020052*
X059454Y020079*
X059247*
X059043Y020052*
X058843Y019998*
X058652Y019919*
X058474Y019816*
X05831Y01969*
X058164Y019545*
X058038Y019381*
X057935Y019202*
X057856Y019011*
X057803Y018812*
X057776Y018607*
Y018401*
X057803Y018196*
X057856Y017997*
X057935Y017806*
X058038Y017627*
X058164Y017463*
X05831Y017317*
X058474Y017192*
X058652Y017089*
X058795Y017029*
X058779Y016951*
X046536*
X04652Y017029*
X046663Y017089*
X046841Y017192*
X047005Y017317*
X047151Y017463*
X047277Y017627*
X04738Y017806*
X047459Y017997*
X047512Y018196*
X047539Y018401*
Y018607*
X047512Y018812*
X047459Y019011*
X04738Y019202*
X047277Y019381*
X047151Y019545*
X047005Y01969*
X046841Y019816*
X046663Y019919*
X046472Y019998*
X046272Y020052*
X046068Y020079*
X045861*
X045657Y020052*
X045457Y019998*
X045267Y019919*
X045088Y019816*
X044924Y01969*
X044778Y019545*
X044652Y019381*
X044588Y01927*
X04451Y019291*
Y033757*
X044588Y033778*
X044662Y033651*
X044788Y033487*
X044934Y033341*
X045098Y033215*
X045276Y033112*
X045467Y033033*
X045667Y03298*
X045871Y032953*
X046078*
X046282Y03298*
X046482Y033033*
X046672Y033112*
X046851Y033215*
X047015Y033341*
X047161Y033487*
X047287Y033651*
X04739Y03383*
X047469Y03402*
X047522Y03422*
X047549Y034424*
Y034631*
X047522Y034835*
X047469Y035035*
X04739Y035226*
X047287Y035404*
X047161Y035568*
X047015Y035714*
X046851Y03584*
X046672Y035943*
X046482Y036022*
X046282Y036075*
X046078Y036102*
X045871*
X045667Y036075*
X045467Y036022*
X045276Y035943*
X045098Y03584*
X044934Y035714*
X044788Y035568*
X044662Y035404*
X044588Y035277*
X04451Y035298*
Y035433*
X044509Y03544*
X044523Y035583*
X044567Y035727*
X044637Y035859*
X044733Y035976*
X044849Y036071*
X044982Y036142*
X045126Y036186*
X045269Y0362*
X045276Y036199*
X060039*
X060046Y0362*
X060189Y036186*
G37*
%LNpcbmc34063ver1_27012019-2*%
%LPC*%
G36*
X050423Y035492D02*
X049242D01*
Y033996*
X050423*
Y035492*
G37*
G36*
X057498Y02892D02*
X057405Y02891D01*
X057316Y028883*
X057234Y02884*
X057162Y028781*
X057103Y028709*
X057059Y028627*
X057032Y028537*
X057023Y028445*
X057032Y028352*
X057059Y028263*
X057103Y028181*
X057162Y028109*
X057234Y02805*
X057316Y028006*
X057405Y027979*
X057498Y02797*
X057591Y027979*
X05768Y028006*
X057762Y02805*
X057834Y028109*
X057893Y028181*
X057937Y028263*
X057964Y028352*
X057973Y028445*
X057964Y028537*
X057937Y028627*
X057893Y028709*
X057834Y028781*
X057762Y02884*
X05768Y028883*
X057591Y02891*
X057498Y02892*
G37*
G36*
X056498Y02592D02*
X056405Y02591D01*
X056316Y025883*
X056234Y02584*
X056162Y025781*
X056103Y025709*
X056059Y025627*
X056032Y025537*
X056023Y025445*
X056032Y025352*
X056059Y025263*
X056103Y025181*
X056162Y025109*
X056234Y02505*
X056316Y025006*
X056405Y024979*
X056498Y02497*
X056591Y024979*
X05668Y025006*
X056762Y02505*
X056834Y025109*
X056893Y025181*
X056937Y025263*
X056964Y025352*
X056973Y025445*
X056964Y025537*
X056937Y025627*
X056893Y025709*
X056834Y025781*
X056762Y02584*
X05668Y025883*
X056591Y02591*
X056498Y02592*
G37*
G36*
X057498Y02392D02*
X057405Y02391D01*
X057316Y023883*
X057234Y02384*
X057162Y023781*
X057103Y023709*
X057059Y023627*
X057032Y023537*
X057023Y023445*
X057032Y023352*
X057059Y023263*
X057103Y023181*
X057162Y023109*
X057234Y02305*
X057316Y023006*
X057405Y022979*
X057498Y02297*
X057591Y022979*
X05768Y023006*
X057762Y02305*
X057834Y023109*
X057893Y023181*
X057937Y023263*
X057964Y023352*
X057973Y023445*
X057964Y023537*
X057937Y023627*
X057893Y023709*
X057834Y023781*
X057762Y02384*
X05768Y023883*
X057591Y02391*
X057498Y02392*
G37*
G36*
X049035Y019468D02*
X047854D01*
Y017972*
X049035*
Y019468*
G37*
%LNpcbmc34063ver1_27012019-3*%
%LPD*%
G54D48*
X049823Y01872D03*
X048455Y034744D03*
G54D49*
X048445Y01872D03*
X049833Y034744D03*
G54D50*
X045974Y034528D03*
X05935Y018504D03*
X045965D03*
G54D51*
X057498Y028445D03*
Y023445D03*
X056498Y025445D03*
G54D52*
X059646Y035433D03*
Y033071D03*
X059055Y03189D03*
X059646Y030709D03*
X059055Y029528D03*
X059646Y028346D03*
X059055Y027165D03*
X059646Y025984D03*
X059055Y024803D03*
X059646Y023622D03*
X059055Y022441D03*
X059646Y02126D03*
X058465Y035433D03*
X057874Y03189D03*
X058465Y030709D03*
X057874Y029528D03*
X058465Y028346D03*
X057874Y027165D03*
X058465Y025984D03*
Y023622D03*
X057874Y022441D03*
X058465Y02126D03*
X057874Y020079D03*
X057283Y035433D03*
X056693Y034252D03*
Y03189D03*
Y029528D03*
X057283Y025984D03*
X056693Y022441D03*
X057283Y02126D03*
X056693Y020079D03*
X057283Y018898D03*
X056693Y017717D03*
X056102Y035433D03*
X055512Y017717D03*
X054921Y035433D03*
Y02126D03*
X054331Y017717D03*
X05374Y035433D03*
X05315Y03189D03*
X05374Y02126D03*
X05315Y020079D03*
X052559Y035433D03*
X051968Y03189D03*
X052559Y02126D03*
X051378Y035433D03*
X050787Y03189D03*
X051378Y02126D03*
X049606Y03189D03*
X050197Y02126D03*
X049606Y020079D03*
X049016Y035433D03*
Y033071D03*
X048425Y03189D03*
Y022441D03*
X049016Y02126D03*
X048425Y020079D03*
X047835Y035433D03*
Y033071D03*
X047244Y03189D03*
X047835Y030709D03*
X047244Y022441D03*
X047835Y02126D03*
X047244Y020079D03*
X046063Y03189D03*
X046654Y030709D03*
X046063Y029528D03*
X046654Y028346D03*
X046063Y027165D03*
X046654Y025984D03*
X046063Y024803D03*
X046654Y023622D03*
X046063Y022441D03*
X046654Y02126D03*
X044882Y03189D03*
X045472Y030709D03*
X044882Y029528D03*
X045472Y028346D03*
X044882Y027165D03*
X045472Y025984D03*
X044882Y024803D03*
X045472Y023622D03*
X044882Y022441D03*
X045472Y02126D03*
X044882Y020079D03*
M02*