Removed Pin From Net: NetName=pwm_R2 Pin=XS3-11
Removed Pin From Net: NetName=pwm_G2 Pin=XS3-12
Removed Pin From Net: NetName=pwm_B2 Pin=XS3-13
Added Pin To Net: NetName=pwm_R2 Pin=XS4-14
Added Pin To Net: NetName=pwm_G2 Pin=XS4-15
Added Pin To Net: NetName=pwm_B2 Pin=XS4-16
