M48
;Layer_Color=9474304
;FILE_FORMAT=4:4
METRIC,LZ
;TYPE=PLATED
T1F00S00C0.4000
T2F00S00C0.6500
T3F00S00C0.8000
T4F00S00C2.0000
T5F00S00C3.5000
T6F00S00C4.0000
%
T01
X00007772Y00007076
X00033268Y00015927
X00050926Y00006647
X00089367Y00020919
X00081339Y00038164
X00075587Y00077546
X00087261Y00083616
X00110277Y00114172
X00029996Y00112891
X00030204Y0007995
X00022255Y00069719
X00146Y000815
X00173011Y00077558
X0018351Y00099958
X00245262Y00107755
X00244262Y00117756
X00257694Y0011865
X00259018Y00091692
X00275521Y00076301
X00297843Y0007647
X00297334Y00090451
X0033202Y00093228
X00320484Y00109268
X0038913Y00103658
X00385Y00065
X00375Y00055
X00395
Y00045
X0041Y0003
Y000175
X00418Y00024
X004175Y000075
X00426Y00015
X00435Y000075
X00443Y00015
X004525Y000075
X00462Y00015
X0047Y000075
X004795Y00015
X004875Y000075
X00497Y00015
X00505Y000075
X004
X00353819Y00041181
X00355Y00055
X00322444Y00020522
X00278718Y00041952
X00212475Y00023324
X0014418Y00020644
X001445Y00048
X001625Y0005
X0056235Y00045647
X00564693Y00053725
X00571607Y00059021
X00572523Y0006734
X00580828Y00068451
X00581736Y00077789
X00590893Y00077124
X005923Y0006485
X00601204Y00064981
X00601642Y00073917
X00610111Y00074316
X00610434Y0008271
X00620081Y00083628
X00598471Y00085661
X00586864Y00087963
X00584327Y00097799
X00578752Y00105315
X00573052Y00111015
X00560395Y00061702
X00571693Y00047815
X00581533Y00046166
X00582683Y00056332
X00591467Y00055693
X00573807Y00037452
X00564549Y00032703
X00569478Y00189067
X00559915Y00194652
X00565Y00205
X00568015Y00218476
X00567839Y00231093
X00575Y00265
X00585Y00285
X00578698Y00296433
X00600177Y00296636
X00597644Y00308084
X006Y0033
X0059
X0058
X0059Y0036
X006Y0035
Y0037
Y00385
Y004
X00595Y00415
X0058
X00585Y00445
Y00465
Y00485
Y00505
X00595Y00495
X00605Y00485
X00615Y00495
X00635
X00655
X00665Y00505
X00645
X00625
X00615Y00515
X00605Y00505
X00595Y00515
Y00475
X00605Y00465
Y00445
X00595Y00455
Y00435
X00615
X00635Y00435
X00655
X00669534Y00444896
X00671319Y00484382
X00585Y0038
X00572197Y00380173
X0057295Y0036537
X00599873Y00280426
X00495Y00295
X00485
X0048Y00285
X00465
X00475Y00275
Y003
X00465Y0031
X00475Y0032
X00465Y0033
X00475Y0034
Y0036
X00465Y0035
Y0037
X00445
Y0035
X00435Y0036
X00415
X00425Y0035
Y0037
X00405
Y0035
X00395Y0036
X00375
X00385Y0035
Y0037
X00375Y0034
X00395
X00415
X00435
X00455
Y0036
X00445Y0033
X00425
X00405
X00385
X00375Y0032
X00395
Y003
X00405Y0031
X00425
X00415Y003
Y0032
X00435
Y003
X00445Y0031
X00455Y003
Y0032
X0046Y0026
X0044
X0045Y0025
X0043
X0042Y0026
X0041Y0025
X0039
X004Y0026
X0038
X0037Y0025
Y0023
Y0021
X0038Y0022
X0039Y0021
X004Y0022
X0039Y0023
X004Y0024
X0038
X0041Y0023
Y0021
X0042Y0022
X0043Y0021
Y0023
X0045
X0044Y0022
X0045Y0021
X0046Y0022
Y002
Y0024
X0044
X0042
X00365Y00285
X00375Y003
X00385Y0031
X00355Y00305
Y00345
X00338346Y00381049
X00315Y00385
X00302309Y00374469
X00285786Y00361603
X0028408Y00326356
X0028389Y00301846
X00319311Y00279809
X00258523Y00255836
X002475Y00255
X00260625Y00220131
X00190768Y00210073
Y00195073
X00188759Y00181509
X0017374Y00147577
X00157008Y00156758
X00146269Y00194127
X00134763Y00199629
X00134517Y00244981
X00145995Y0023622
X00152648Y00255384
X0014297Y00270467
X00131587Y0026864
X00133851Y00286729
X00146079Y002873
X00140398Y00319774
X00142766Y00354871
X00149565Y00365414
X00122095Y00366085
X00130238Y00389954
X00166242Y00419714
X00177643Y00460122
X00151932Y00480191
X0020475Y00491295
X0021975
X002425Y004975
X002575
X00249938Y00489029
X00278069Y00486154
X00278271Y00495344
X00309812Y00451723
X00311791Y00431927
X00325Y00445
X00327133Y00459641
X00371838Y00464858
X00371762Y00472916
X00371685Y00480975
X00363647Y00490828
X00420883Y00487313
X00421085Y00496503
X00457199Y0049593
X00465Y00485
X00463017Y00466123
X00501525Y00509525
X00420729Y00416845
X00403102Y00414865
X00395Y00425
X00384626Y00419861
X00375Y00425
X00278883Y0041884
X00269842Y00409132
X00230279Y00418704
X00230415Y00426791
X00211859Y00397619
X00209427Y00388125
X00205716Y00327323
X002175Y003275
Y00315
X00215Y00305
X00205716Y0029807
X00191411Y00259318
X00189979Y00237529
X00215934Y00156187
X00237577Y00161855
X00237683Y00149392
X00263649Y00133362
X0028343Y00125183
X00290972Y00135454
X00331525Y00172771
X00341171Y00190353
X00345Y00205
X00389174Y00138093
X001867Y00132005
X00170366Y0032746
X00259877Y00340676
X00088726Y00311161
X000675Y003
X00036524Y00285775
X00026879Y00248368
X00013918Y00215223
X00012672Y00199334
X00037502Y00179009
Y00138257
X0010925Y00133772
X0010505Y00230702
X00115142Y00235585
X00105115Y00272933
X00096255Y00267263
X00045752Y00330266
X00016835Y00338178
X00009055Y00320933
X00029501Y00353267
X00064155Y0035307
X0005808Y00405678
X00054503Y00443022
X00011931Y0042597
X00019611Y00488403
X00030339Y0050271
X00066362Y00496332
X00080072
X00086192Y00487277
X00110165Y00428024
X00119535Y00436473
X00535Y00545
X00555Y00555
Y00535
X00565Y00545
X00575Y00535
Y00555
X00585Y00545
Y00565
X00595Y00555
X00605Y00545
Y00565
X00615Y00555
X00625Y00565
X00645Y00565
X00665Y00565
X00605Y00525
X00595Y00535
X00585Y00525
X00565Y00565
T02
X00014924Y00113387
Y00126087
Y00138786
Y00151487
Y00164186
Y00176887
T03
X00547009Y00160641
X00582009
X00581903Y00245736
X00546903Y00245736
X00580031Y00309694
Y00344694
X00580031Y00393018
Y00428018
X0027438Y00234605
X0024938Y00234605
T04
X00378103Y00026639
X00531735Y00022962
X00555303Y00089815
X00499987Y00219573
X00501245Y00270445
X0051625Y0035775
Y0041025
X00322056Y00135268
T05
X00637299Y00162289
Y00232289
X00643221Y00466207
X0034Y0042
X00195
X00643221Y00536207
T06
X0005Y0005
M30
