core_cm4.h:1688:22:__NVIC_EnableIRQ	16	static
HID_Manual_LOGIC.c:40:6:TIM6_DAC1_IRQHandler	8	static
HID_Manual_LOGIC.c:51:6:TIM7_DAC2_IRQHandler	4	static
HID_Manual_LOGIC.c:59:6:TIM3_IRQHandler	8	static
HID_Manual_LOGIC.c:81:6:TIM2_IRQHandler	8	static
HID_Manual_LOGIC.c:115:13:Init_Model_Work	4	static
HID_Manual_LOGIC.c:125:13:GPIO_INit	40	static
HID_Manual_LOGIC.c:153:13:Indication_work_state	16	static
HID_Manual_LOGIC.c:159:13:Init_Timer_StateBtn	8	static
HID_Manual_LOGIC.c:170:13:Init_Timer_StateWork	8	static
HID_Manual_LOGIC.c:181:13:Init_Timer_Transfer_Sync	8	static
HID_Manual_LOGIC.c:192:13:Init_Sync_Tim	8	static
HID_Manual_LOGIC.c:203:13:Read_LSM6DS0_Data	8	static
HID_Manual_LOGIC.c:219:13:Calibration_Bias	4	static
HID_Manual_LOGIC.c:246:10:Get_Status_Trigger	4	static
HID_Manual_LOGIC.c:252:6:Reset_Trigger	4	static
HID_Manual_LOGIC.c:259:6:HID_Gyro_Init_Sync	8	static
HID_Manual_LOGIC.c:292:6:Transfer_SerialPort_HyroX_Sync	32	static
HID_Manual_LOGIC.c:302:6:Data_Sync_HID_Gyro	8	static
HID_Manual_LOGIC.c:311:13:RS485_Connect	16	static
HID_Manual_LOGIC.c:321:13:RS485_Disconnect	16	static
HID_Manual_LOGIC.c:332:13:Response_Payload_Model	40	static
HID_Manual_LOGIC.c:346:13:RS485_IDLE	16	static
HID_Manual_LOGIC.c:366:6:RS485_Command_Update_Async	40	static
HID_Manual_LOGIC.c:382:13:Transmit_data_sync_Gyro	48	static
HID_Manual_LOGIC.c:481:6:SerialPort_Update_Async	40	static
