CAMtasticDXP Drill Report
Serial Number:0000-00-00000
Drill File: D:\Repository\PCB\MPB\rev0.0\GERBER\DRILL\cam.drl
Format: 2.4
Units: English (Inch)
Step & Repeat Codes Used: NO


TOOL		SIZE		COUNT
====		======		=====

 1 		0.0157		229
 2 		0.0394		48
 3 		0.0433		6
 4 		0.1378		4
