Version 4
SHEET 1 880 680
WIRE -720 -64 -832 -64
WIRE -176 -32 -240 -32
WIRE -16 -16 -112 -16
WIRE 16 -16 -16 -16
WIRE 144 -16 96 -16
WIRE 224 -16 144 -16
WIRE 688 -16 304 -16
WIRE -832 0 -832 -64
WIRE -336 0 -336 -144
WIRE -176 0 -336 0
WIRE -240 80 -240 -32
WIRE -144 80 -240 80
WIRE -16 80 -16 -16
WIRE -16 80 -64 80
WIRE -240 96 -240 80
WIRE -832 128 -832 80
WIRE -832 128 -960 128
WIRE -496 128 -496 80
WIRE -368 128 -496 128
WIRE 144 128 144 -16
WIRE 528 128 144 128
WIRE 688 144 688 -16
WIRE 688 144 592 144
WIRE 816 144 688 144
WIRE -960 160 -960 128
WIRE -832 160 -832 128
WIRE 384 160 288 160
WIRE 528 160 384 160
WIRE -496 176 -496 128
WIRE -368 176 -368 128
WIRE -240 192 -240 176
WIRE -144 192 -240 192
WIRE -32 192 -64 192
WIRE 0 192 -32 192
WIRE 288 192 288 160
WIRE 288 192 80 192
WIRE 384 224 384 160
WIRE -176 272 -352 272
WIRE -32 288 -32 192
WIRE -32 288 -112 288
WIRE -240 304 -240 192
WIRE -176 304 -240 304
WIRE -832 352 -832 240
WIRE -720 352 -832 352
FLAG 560 112 +12
FLAG 560 176 -12
FLAG -368 176 0
FLAG -496 0 +12
FLAG -496 256 -12
FLAG -144 -48 +12
FLAG -144 16 -12
FLAG -144 256 +12
FLAG -144 320 -12
FLAG 384 304 0
FLAG -960 160 0
FLAG -720 -64 In1
FLAG -720 352 In2
FLAG -336 -144 In1
FLAG -352 272 In2
FLAG 816 144 OUT
SYMBOL Opamps\\AD8512 560 80 R0
SYMATTR InstName U1
SYMBOL voltage -496 -16 R0
WINDOW 123 0 0 Left 0
WINDOW 39 0 0 Left 0
SYMATTR InstName V1
SYMATTR Value 12
SYMBOL voltage -496 160 R0
SYMATTR InstName V2
SYMATTR Value 12
SYMBOL Opamps\\AD8512 -144 -80 R0
SYMATTR InstName U2
SYMBOL Opamps\\AD8512 -144 224 R0
SYMATTR InstName U3
SYMBOL res -48 64 R90
WINDOW 0 0 56 VBottom 2
WINDOW 3 32 56 VTop 2
SYMATTR InstName R1
SYMATTR Value 20k
SYMBOL res 112 -32 R90
WINDOW 0 0 56 VBottom 2
WINDOW 3 32 56 VTop 2
SYMATTR InstName R2
SYMATTR Value 10k
SYMBOL res 320 -32 R90
WINDOW 0 0 56 VBottom 2
WINDOW 3 32 56 VTop 2
SYMATTR InstName R3
SYMATTR Value 4.7k
SYMBOL res -256 80 R0
SYMATTR InstName R4
SYMATTR Value 2.2k
SYMBOL res -48 176 R90
WINDOW 0 0 56 VBottom 2
WINDOW 3 32 56 VTop 2
SYMATTR InstName R5
SYMATTR Value 20k
SYMBOL res 96 176 R90
WINDOW 0 0 56 VBottom 2
WINDOW 3 32 56 VTop 2
SYMATTR InstName R6
SYMATTR Value 10k
SYMBOL res 400 320 R180
WINDOW 0 36 76 Left 2
WINDOW 3 36 40 Left 2
SYMATTR InstName R7
SYMATTR Value 4.7k
SYMBOL voltage -832 -16 R0
WINDOW 123 0 0 Left 0
WINDOW 39 0 0 Left 0
SYMATTR InstName V3
SYMATTR Value SINE(0 3 120)
SYMBOL voltage -832 144 R0
WINDOW 123 0 0 Left 0
WINDOW 39 0 0 Left 0
SYMATTR InstName V4
SYMATTR Value SINE(0 3 120)
TEXT -980 414 Left 2 !.tran 0 1 0 0.1
