G04*
G04 #@! TF.GenerationSoftware,Altium Limited,Altium Designer,20.2.7 (254)*
G04*
G04 Layer_Physical_Order=2*
G04 Layer_Color=16711680*
%FSLAX44Y44*%
%MOMM*%
G71*
G04*
G04 #@! TF.SameCoordinates,C837CA71-68AB-4FE7-BFA5-4717F622E5A8*
G04*
G04*
G04 #@! TF.FilePolarity,Positive*
G04*
G01*
G75*
%ADD10C,0.2500*%
%ADD11C,0.6000*%
%ADD70C,0.3500*%
%ADD71C,0.4000*%
%ADD75C,1.0000*%
%ADD76O,1.2000X2.0000*%
%ADD77R,1.2000X2.0000*%
%ADD78O,2.0000X1.2000*%
%ADD79R,2.0000X1.2000*%
G04:AMPARAMS|DCode=80|XSize=1.5mm|YSize=0.9mm|CornerRadius=0.1125mm|HoleSize=0mm|Usage=FLASHONLY|Rotation=0.000|XOffset=0mm|YOffset=0mm|HoleType=Round|Shape=RoundedRectangle|*
%AMROUNDEDRECTD80*
21,1,1.5000,0.6750,0,0,0.0*
21,1,1.2750,0.9000,0,0,0.0*
1,1,0.2250,0.6375,-0.3375*
1,1,0.2250,-0.6375,-0.3375*
1,1,0.2250,-0.6375,0.3375*
1,1,0.2250,0.6375,0.3375*
%
%ADD80ROUNDEDRECTD80*%
%ADD81R,1.5000X0.9000*%
%ADD82C,6.5000*%
%ADD83C,0.8000*%
%ADD84C,1.5000*%
%ADD85C,0.9000*%
G36*
X705612Y492624D02*
X711127Y491527D01*
X716452Y489720D01*
X721496Y487232D01*
X726172Y484108D01*
X730400Y480400D01*
X734108Y476172D01*
X737232Y471496D01*
X739719Y466452D01*
X741527Y461127D01*
X742624Y455612D01*
X742975Y450266D01*
X742940Y450000D01*
Y50000D01*
X742975Y49734D01*
X742624Y44388D01*
X741527Y38873D01*
X739719Y33548D01*
X737232Y28504D01*
X734108Y23828D01*
X730400Y19600D01*
X726172Y15892D01*
X721496Y12768D01*
X716452Y10280D01*
X711127Y8473D01*
X705612Y7376D01*
X700266Y7025D01*
X700000Y7060D01*
X254354D01*
X253975Y8060D01*
X291458Y45542D01*
X292459Y46848D01*
X293089Y48368D01*
X293304Y50000D01*
Y60440D01*
X325500D01*
Y37700D01*
X326437D01*
X326830Y36700D01*
X325783Y34172D01*
X325405Y31300D01*
Y23300D01*
X325783Y20428D01*
X326892Y17752D01*
X328655Y15455D01*
X330953Y13692D01*
X333628Y12583D01*
X336500Y12205D01*
X339372Y12583D01*
X342047Y13692D01*
X344345Y15455D01*
X346109Y17752D01*
X347217Y20428D01*
X347595Y23300D01*
Y31300D01*
X347217Y34172D01*
X346170Y36700D01*
X346562Y37700D01*
X347500D01*
Y60440D01*
X350643D01*
X351038Y59848D01*
X351166Y59440D01*
X350805Y56700D01*
Y48700D01*
X351183Y45828D01*
X352291Y43152D01*
X354055Y40855D01*
X354517Y40500D01*
Y39500D01*
X354055Y39145D01*
X352291Y36847D01*
X351183Y34172D01*
X350805Y31300D01*
Y23300D01*
X351183Y20428D01*
X352291Y17752D01*
X354055Y15455D01*
X356353Y13692D01*
X359028Y12583D01*
X361900Y12205D01*
X364772Y12583D01*
X367447Y13692D01*
X369745Y15455D01*
X371508Y17752D01*
X372617Y20428D01*
X372995Y23300D01*
Y31300D01*
X372617Y34172D01*
X371508Y36847D01*
X369745Y39145D01*
X369283Y39500D01*
Y40500D01*
X369745Y40855D01*
X371508Y43152D01*
X372617Y45828D01*
X372995Y48700D01*
Y56700D01*
X372634Y59440D01*
X372762Y59848D01*
X373157Y60440D01*
X376043D01*
X376438Y59848D01*
X376566Y59440D01*
X376205Y56700D01*
Y48700D01*
X376583Y45828D01*
X377691Y43152D01*
X379455Y40855D01*
X379917Y40500D01*
Y39500D01*
X379455Y39145D01*
X377691Y36847D01*
X376583Y34172D01*
X376205Y31300D01*
Y23300D01*
X376583Y20428D01*
X377691Y17752D01*
X379455Y15455D01*
X381753Y13692D01*
X384428Y12583D01*
X387300Y12205D01*
X390172Y12583D01*
X392847Y13692D01*
X395145Y15455D01*
X396908Y17752D01*
X398017Y20428D01*
X398395Y23300D01*
Y31300D01*
X398017Y34172D01*
X396908Y36847D01*
X395145Y39145D01*
X394683Y39500D01*
Y40500D01*
X395145Y40855D01*
X396908Y43152D01*
X398017Y45828D01*
X398395Y48700D01*
Y56700D01*
X398034Y59440D01*
X398162Y59848D01*
X398557Y60440D01*
X401443D01*
X401838Y59848D01*
X401966Y59440D01*
X401605Y56700D01*
Y48700D01*
X401983Y45828D01*
X403092Y43152D01*
X404855Y40855D01*
X405317Y40500D01*
Y39500D01*
X404855Y39145D01*
X403092Y36848D01*
X401983Y34172D01*
X401605Y31300D01*
Y23300D01*
X401983Y20428D01*
X403092Y17752D01*
X404855Y15455D01*
X407153Y13692D01*
X409828Y12583D01*
X412700Y12205D01*
X415572Y12583D01*
X418247Y13692D01*
X420545Y15455D01*
X422309Y17752D01*
X423417Y20428D01*
X423795Y23300D01*
Y31300D01*
X423417Y34172D01*
X422309Y36848D01*
X420545Y39145D01*
X420083Y39500D01*
Y40500D01*
X420545Y40855D01*
X422309Y43152D01*
X423417Y45828D01*
X423795Y48700D01*
Y56700D01*
X423434Y59440D01*
X423562Y59848D01*
X423957Y60440D01*
X426843D01*
X427238Y59848D01*
X427366Y59440D01*
X427005Y56700D01*
Y48700D01*
X427383Y45828D01*
X428492Y43152D01*
X430255Y40855D01*
X430717Y40500D01*
Y39500D01*
X430255Y39145D01*
X428492Y36848D01*
X427383Y34172D01*
X427005Y31300D01*
Y23300D01*
X427383Y20428D01*
X428492Y17753D01*
X430255Y15455D01*
X432553Y13692D01*
X435228Y12583D01*
X438100Y12205D01*
X440972Y12583D01*
X443647Y13692D01*
X445945Y15455D01*
X447709Y17753D01*
X448817Y20428D01*
X449195Y23300D01*
Y31300D01*
X448817Y34172D01*
X447709Y36848D01*
X445945Y39145D01*
X445483Y39500D01*
Y40500D01*
X445945Y40855D01*
X447709Y43152D01*
X448817Y45828D01*
X449195Y48700D01*
Y56700D01*
X448834Y59440D01*
X448962Y59848D01*
X449357Y60440D01*
X452243D01*
X452638Y59848D01*
X452766Y59440D01*
X452405Y56700D01*
Y48700D01*
X452783Y45828D01*
X453891Y43152D01*
X455655Y40855D01*
X456117Y40500D01*
Y39500D01*
X455655Y39145D01*
X453891Y36848D01*
X452783Y34172D01*
X452405Y31300D01*
Y23300D01*
X452783Y20429D01*
X453891Y17753D01*
X455655Y15455D01*
X457953Y13692D01*
X460628Y12583D01*
X463500Y12205D01*
X466372Y12583D01*
X469047Y13692D01*
X471345Y15455D01*
X473108Y17753D01*
X474217Y20429D01*
X474595Y23300D01*
Y31300D01*
X474217Y34172D01*
X473108Y36848D01*
X471345Y39145D01*
X470883Y39500D01*
Y40500D01*
X471345Y40855D01*
X473108Y43152D01*
X474217Y45828D01*
X474595Y48700D01*
Y56700D01*
X474234Y59440D01*
X474362Y59848D01*
X474757Y60440D01*
X518250D01*
X518250Y60440D01*
X520700Y60681D01*
X523057Y61396D01*
X525228Y62556D01*
X527132Y64118D01*
X559381Y96368D01*
X559382Y96368D01*
X560944Y98272D01*
X562104Y100443D01*
X562819Y102800D01*
X563060Y105250D01*
X563060Y105250D01*
Y140368D01*
X563700Y140431D01*
X566057Y141146D01*
X568228Y142306D01*
X570132Y143868D01*
X582999Y156736D01*
X621368Y118368D01*
X623457Y116765D01*
X625890Y115757D01*
X628500Y115414D01*
X687500D01*
X690110Y115757D01*
X692543Y116765D01*
X694632Y118368D01*
X696235Y120457D01*
X697243Y122889D01*
X697586Y125500D01*
X697243Y128111D01*
X696235Y130543D01*
X694632Y132632D01*
X692543Y134235D01*
X690110Y135243D01*
X687500Y135586D01*
X632678D01*
X597264Y171000D01*
X611203Y184940D01*
X613476D01*
Y183401D01*
X613717Y180951D01*
X614432Y178594D01*
X615593Y176423D01*
X617155Y174519D01*
X619058Y172957D01*
X621230Y171796D01*
X623586Y171082D01*
X626037Y170840D01*
X628487Y171082D01*
X630843Y171796D01*
X633015Y172957D01*
X634918Y174519D01*
X636480Y176423D01*
X637641Y178594D01*
X638356Y180951D01*
X638597Y183401D01*
Y197500D01*
Y209418D01*
X642131Y212952D01*
X642131Y212952D01*
X643693Y214855D01*
X644854Y217027D01*
X645568Y219383D01*
X645810Y221833D01*
Y241500D01*
Y244060D01*
X706622D01*
X707050Y243931D01*
X709500Y243690D01*
X711950Y243931D01*
X714307Y244646D01*
X716478Y245806D01*
X718382Y247368D01*
X719944Y249272D01*
X721104Y251443D01*
X721819Y253800D01*
X722060Y256250D01*
X721819Y258700D01*
X721104Y261057D01*
X719944Y263228D01*
X718382Y265132D01*
X718011Y265502D01*
X716107Y267064D01*
X713936Y268225D01*
X711580Y268940D01*
X709129Y269181D01*
X709129Y269181D01*
X708061D01*
Y386000D01*
X708061Y386000D01*
X707819Y388450D01*
X707104Y390807D01*
X705944Y392978D01*
X704382Y394882D01*
X704381Y394882D01*
X688627Y410636D01*
X689127Y411502D01*
X692180Y410684D01*
X697378Y410000D01*
X702622D01*
X707820Y410684D01*
X712885Y412042D01*
X717729Y414048D01*
X722271Y416670D01*
X726430Y419862D01*
X730138Y423570D01*
X733330Y427729D01*
X735952Y432271D01*
X737959Y437115D01*
X739316Y442180D01*
X740000Y447378D01*
Y452622D01*
X739316Y457820D01*
X737959Y462885D01*
X735952Y467729D01*
X733330Y472271D01*
X730138Y476430D01*
X726430Y480138D01*
X722271Y483330D01*
X717729Y485952D01*
X712885Y487958D01*
X707820Y489316D01*
X702622Y490000D01*
X697378D01*
X692180Y489316D01*
X687115Y487958D01*
X682271Y485952D01*
X677729Y483330D01*
X673570Y480138D01*
X669862Y476430D01*
X666670Y472271D01*
X664048Y467729D01*
X662041Y462885D01*
X660684Y457820D01*
X660000Y452622D01*
Y447378D01*
X660684Y442180D01*
X661502Y439127D01*
X660636Y438627D01*
X647104Y452159D01*
X646604Y453807D01*
X645444Y455978D01*
X644098Y457618D01*
Y466000D01*
X643914Y466924D01*
X643710Y467951D01*
X643710Y467951D01*
X643710Y467951D01*
X643293Y468575D01*
X642605Y469604D01*
X640105Y472105D01*
X640105Y472105D01*
X640105Y472105D01*
X639365Y472599D01*
X638451Y473210D01*
X638451Y473210D01*
X638451Y473210D01*
X637509Y473397D01*
X636500Y473598D01*
X636500Y473598D01*
X636500Y473598D01*
X633000Y473598D01*
X631049Y473210D01*
X629395Y472105D01*
X626895Y469605D01*
X625790Y467951D01*
X625402Y466000D01*
Y457009D01*
X624556Y455978D01*
X623396Y453807D01*
X622681Y451450D01*
X622439Y449000D01*
Y446500D01*
X622439Y446500D01*
X622681Y444050D01*
X623396Y441693D01*
X624556Y439522D01*
X626118Y437618D01*
X662727Y401010D01*
X662344Y400086D01*
X657428D01*
X645132Y412382D01*
X643043Y413985D01*
X640611Y414993D01*
X638000Y415336D01*
X587098D01*
Y435000D01*
X586710Y436951D01*
X585605Y438605D01*
X553605Y470605D01*
X551951Y471710D01*
X550000Y472098D01*
X531000D01*
X529049Y471710D01*
X527395Y470605D01*
X526927Y470137D01*
X525957Y469735D01*
X523868Y468132D01*
X522265Y466043D01*
X521257Y463610D01*
X520914Y461000D01*
X521257Y458390D01*
X522265Y455957D01*
X523868Y453868D01*
X525165Y452571D01*
X525293Y452311D01*
X525359Y451981D01*
X525611Y451603D01*
X525663Y451451D01*
X525786Y451310D01*
X526023Y450829D01*
X526277Y450607D01*
X526464Y450327D01*
X547902Y428888D01*
Y415336D01*
X535988D01*
X535611Y415493D01*
X533000Y415836D01*
X531000D01*
X493852D01*
X493470Y416760D01*
X498605Y421895D01*
X499710Y423549D01*
X500098Y425500D01*
Y480000D01*
X499710Y481951D01*
X498605Y483605D01*
X496951Y484710D01*
X495000Y485098D01*
X489403D01*
X487452Y484710D01*
X485798Y483605D01*
X484460Y482266D01*
X483299Y482520D01*
X481745Y484545D01*
X479448Y486309D01*
X476772Y487417D01*
X473900Y487795D01*
X471028Y487417D01*
X468353Y486309D01*
X466055Y484545D01*
X464291Y482247D01*
X463183Y479572D01*
X462805Y476700D01*
Y468700D01*
X463183Y465828D01*
X464291Y463153D01*
X466055Y460855D01*
X468353Y459091D01*
X471028Y457983D01*
X473900Y457605D01*
X476772Y457983D01*
X478071Y458521D01*
X478902Y457966D01*
Y455661D01*
X479290Y453710D01*
X479650Y452841D01*
X479897Y450966D01*
Y443634D01*
X479650Y441759D01*
X479290Y440890D01*
X478902Y438939D01*
Y438112D01*
X476388Y435598D01*
X470500D01*
X470312Y435560D01*
X432157D01*
X431715Y436457D01*
X432709Y437752D01*
X433817Y440428D01*
X434195Y443300D01*
Y451300D01*
X433817Y454172D01*
X432709Y456847D01*
X430945Y459145D01*
X430483Y459500D01*
Y460500D01*
X430945Y460855D01*
X432709Y463153D01*
X433817Y465828D01*
X434195Y468700D01*
Y476700D01*
X433817Y479572D01*
X432709Y482247D01*
X430945Y484545D01*
X428647Y486309D01*
X425972Y487417D01*
X423100Y487795D01*
X420228Y487417D01*
X417552Y486309D01*
X415255Y484545D01*
X413492Y482247D01*
X412383Y479572D01*
X412005Y476700D01*
Y468700D01*
X412383Y465828D01*
X413492Y463153D01*
X415255Y460855D01*
X415717Y460500D01*
Y459500D01*
X415255Y459145D01*
X413492Y456847D01*
X412383Y454172D01*
X412005Y451300D01*
Y443300D01*
X412383Y440428D01*
X413492Y437752D01*
X414485Y436457D01*
X414043Y435560D01*
X406757D01*
X406315Y436457D01*
X407309Y437752D01*
X408417Y440428D01*
X408795Y443300D01*
Y451300D01*
X408417Y454172D01*
X407309Y456847D01*
X405545Y459145D01*
X405083Y459500D01*
Y460500D01*
X405545Y460855D01*
X407309Y463153D01*
X408417Y465828D01*
X408795Y468700D01*
Y476700D01*
X408417Y479572D01*
X407309Y482247D01*
X405545Y484545D01*
X403247Y486309D01*
X400572Y487417D01*
X397700Y487795D01*
X394828Y487417D01*
X392152Y486309D01*
X389855Y484545D01*
X388092Y482247D01*
X386983Y479572D01*
X386605Y476700D01*
Y468700D01*
X386983Y465828D01*
X388092Y463153D01*
X389855Y460855D01*
X390317Y460500D01*
Y459500D01*
X389855Y459145D01*
X388092Y456847D01*
X386983Y454172D01*
X386605Y451300D01*
Y443300D01*
X386983Y440428D01*
X388092Y437752D01*
X389085Y436457D01*
X388643Y435560D01*
X381357D01*
X380915Y436457D01*
X381908Y437752D01*
X383017Y440428D01*
X383395Y443300D01*
Y451300D01*
X383017Y454172D01*
X381908Y456847D01*
X380145Y459145D01*
X379683Y459500D01*
Y460500D01*
X380145Y460855D01*
X381908Y463153D01*
X383017Y465828D01*
X383395Y468700D01*
Y476700D01*
X383017Y479572D01*
X381908Y482247D01*
X380145Y484545D01*
X377848Y486309D01*
X375172Y487417D01*
X372300Y487795D01*
X369428Y487417D01*
X366753Y486309D01*
X364455Y484545D01*
X362692Y482247D01*
X361583Y479572D01*
X361205Y476700D01*
Y468700D01*
X361583Y465828D01*
X362692Y463153D01*
X364455Y460855D01*
X364917Y460500D01*
Y459500D01*
X364455Y459145D01*
X362691Y456847D01*
X361583Y454172D01*
X361205Y451300D01*
Y443300D01*
X361583Y440428D01*
X362691Y437752D01*
X363685Y436457D01*
X363243Y435560D01*
X355957D01*
X355515Y436457D01*
X356508Y437752D01*
X357617Y440428D01*
X357995Y443300D01*
Y451300D01*
X357617Y454172D01*
X356508Y456847D01*
X354745Y459145D01*
X354283Y459500D01*
X354283Y460500D01*
X354745Y460855D01*
X356508Y463153D01*
X357617Y465828D01*
X357995Y468700D01*
Y476700D01*
X357617Y479572D01*
X356508Y482247D01*
X354745Y484545D01*
X352447Y486309D01*
X349771Y487417D01*
X346900Y487795D01*
X344028Y487417D01*
X341353Y486309D01*
X339055Y484545D01*
X337291Y482247D01*
X336183Y479572D01*
X335805Y476700D01*
Y468700D01*
X336183Y465828D01*
X337291Y463153D01*
X339055Y460855D01*
X339517Y460500D01*
X339517Y459500D01*
X339055Y459145D01*
X337291Y456847D01*
X336183Y454172D01*
X335805Y451300D01*
Y447015D01*
X334881Y446632D01*
X334044Y447469D01*
X333819Y449750D01*
X333104Y452107D01*
X332287Y453635D01*
X332217Y454172D01*
X331109Y456847D01*
X329345Y459145D01*
X328883Y459500D01*
Y460500D01*
X329345Y460855D01*
X331109Y463153D01*
X332217Y465828D01*
X332595Y468700D01*
Y476700D01*
X332217Y479572D01*
X331109Y482247D01*
X329345Y484545D01*
X327048Y486309D01*
X324372Y487417D01*
X321500Y487795D01*
X318628Y487417D01*
X315952Y486309D01*
X313655Y484545D01*
X311891Y482247D01*
X310783Y479572D01*
X310405Y476700D01*
Y468700D01*
X310783Y465828D01*
X311891Y463153D01*
X313655Y460855D01*
X314117Y460500D01*
Y459500D01*
X313655Y459145D01*
X311891Y456847D01*
X310783Y454172D01*
X310713Y453635D01*
X309896Y452107D01*
X309181Y449750D01*
X308939Y447300D01*
Y442250D01*
X308939Y442250D01*
X309181Y439800D01*
X309852Y437586D01*
X309469Y436731D01*
X309382Y436586D01*
X291678D01*
X287345Y440919D01*
X287586Y442750D01*
Y457700D01*
X307100D01*
Y487700D01*
X285100D01*
Y475034D01*
X284100Y474540D01*
X282543Y475735D01*
X280111Y476743D01*
X277500Y477086D01*
X274890Y476743D01*
X272457Y475735D01*
X270368Y474132D01*
X268765Y472043D01*
X267757Y469610D01*
X267414Y467000D01*
Y452061D01*
X213054D01*
X211978Y452944D01*
X209807Y454104D01*
X207450Y454819D01*
X205000Y455061D01*
X202550Y454819D01*
X200193Y454104D01*
X198022Y452944D01*
X196118Y451382D01*
X194556Y449478D01*
X193396Y447307D01*
X192681Y444950D01*
X192439Y442500D01*
X192681Y440050D01*
X193396Y437693D01*
X194556Y435522D01*
X196118Y433618D01*
X199118Y430619D01*
X199118Y430618D01*
X201022Y429056D01*
X203193Y427896D01*
X205550Y427181D01*
X208000Y426940D01*
X208000Y426940D01*
X272796D01*
X280368Y419368D01*
X282457Y417765D01*
X284890Y416757D01*
X287500Y416414D01*
X306322D01*
X313317Y409419D01*
X312934Y408495D01*
X278935D01*
X278934Y408495D01*
X276484Y408254D01*
X274128Y407539D01*
X271956Y406378D01*
X270053Y404816D01*
X270053Y404816D01*
X231797Y366561D01*
X209203D01*
X191810Y383953D01*
Y391250D01*
X191810Y391250D01*
X191569Y393700D01*
X190854Y396057D01*
X189694Y398228D01*
X188132Y400132D01*
X185282Y402981D01*
X185372Y403896D01*
X185508Y404062D01*
X185920Y404679D01*
X186613Y405716D01*
X187001Y407667D01*
X187001Y413450D01*
X186936Y413780D01*
X186957Y414116D01*
X186743Y414747D01*
X186613Y415401D01*
X186426Y415681D01*
X186318Y415999D01*
X185878Y416501D01*
X185508Y417055D01*
X185228Y417242D01*
X185007Y417495D01*
X184717Y417717D01*
X184527Y417965D01*
X184828Y420250D01*
X184518Y422599D01*
X184384Y422924D01*
X184407Y422951D01*
X184622Y423582D01*
X184917Y424181D01*
X184939Y424516D01*
X185047Y424835D01*
X185003Y425500D01*
X185047Y426166D01*
X184939Y426484D01*
X184917Y426819D01*
X184622Y427417D01*
X184485Y427820D01*
X184518Y427901D01*
X184828Y430250D01*
X184518Y432599D01*
X184404Y432875D01*
X184717Y433283D01*
X185007Y433505D01*
X185228Y433758D01*
X185508Y433945D01*
X185878Y434499D01*
X186318Y435001D01*
X186426Y435319D01*
X186613Y435599D01*
X186743Y436253D01*
X186957Y436884D01*
X186936Y437220D01*
X187001Y437550D01*
Y457597D01*
X186613Y459548D01*
X185508Y461202D01*
X181967Y464743D01*
X181412Y465113D01*
X180911Y465553D01*
X180592Y465661D01*
X180313Y465848D01*
X179659Y465978D01*
X179028Y466192D01*
X178981Y466198D01*
X178032Y466592D01*
X177217Y467217D01*
X176592Y468032D01*
X176198Y468981D01*
X176192Y469027D01*
X175978Y469659D01*
X175848Y470313D01*
X175661Y470592D01*
X175553Y470911D01*
X175113Y471412D01*
X174743Y471967D01*
X170405Y476305D01*
X168751Y477410D01*
X166800Y477798D01*
X115052D01*
X114695Y477727D01*
X114332Y477747D01*
X114034Y477642D01*
X113983Y477642D01*
X113708Y477531D01*
X113102Y477410D01*
X112799Y477207D01*
X112455Y477087D01*
X112346Y477022D01*
X111831Y477000D01*
X111084Y477256D01*
X105051Y486737D01*
X104665Y487141D01*
X104355Y487605D01*
X103984Y487852D01*
X103676Y488175D01*
X103165Y488400D01*
X102701Y488710D01*
X102264Y488797D01*
X101856Y488977D01*
X101298Y488989D01*
X100750Y489098D01*
X96750D01*
X94799Y488710D01*
X93145Y487605D01*
X90895Y485355D01*
X89790Y483701D01*
X89402Y481750D01*
Y477798D01*
X84237D01*
X83583Y477668D01*
X82917Y477624D01*
X82616Y477476D01*
X82286Y477410D01*
X81732Y477039D01*
X81133Y476744D01*
X80787Y476635D01*
X80113Y476603D01*
X79764Y476805D01*
X76430Y480138D01*
X72270Y483330D01*
X67730Y485952D01*
X62885Y487958D01*
X57820Y489316D01*
X52622Y490000D01*
X47378D01*
X42180Y489316D01*
X37115Y487958D01*
X32271Y485952D01*
X27729Y483330D01*
X23570Y480138D01*
X19862Y476430D01*
X16670Y472271D01*
X14048Y467729D01*
X12041Y462885D01*
X10684Y457820D01*
X10000Y452622D01*
Y447378D01*
X10684Y442180D01*
X12041Y437115D01*
X14048Y432271D01*
X16670Y427729D01*
X19862Y423570D01*
X23570Y419862D01*
X27729Y416670D01*
X32271Y414048D01*
X37115Y412042D01*
X42180Y410684D01*
X44644Y410360D01*
X44902Y410000D01*
X44902Y345000D01*
X45290Y343049D01*
X46395Y341395D01*
X57272Y330519D01*
X56889Y329595D01*
X53700D01*
X50828Y329217D01*
X48152Y328108D01*
X45855Y326345D01*
X45500Y325883D01*
X44500D01*
X44145Y326345D01*
X41848Y328108D01*
X39172Y329217D01*
X36300Y329595D01*
X28300D01*
X25428Y329217D01*
X22752Y328108D01*
X20455Y326345D01*
X18692Y324047D01*
X17583Y321371D01*
X17205Y318500D01*
X17583Y315628D01*
X18692Y312952D01*
X20455Y310655D01*
X22752Y308892D01*
X25428Y307783D01*
X28300Y307405D01*
X36300D01*
X39172Y307783D01*
X41848Y308892D01*
X44145Y310655D01*
X44500Y311117D01*
X45500D01*
X45855Y310655D01*
X48152Y308892D01*
X50828Y307783D01*
X53700Y307405D01*
X61700D01*
X64571Y307783D01*
X67247Y308892D01*
X69545Y310655D01*
X69776Y310956D01*
X70992Y311023D01*
X81245Y300770D01*
X80851Y299892D01*
X80774Y299827D01*
X79000Y300060D01*
X70224D01*
X69545Y300945D01*
X67248Y302708D01*
X64572Y303817D01*
X61700Y304195D01*
X53700D01*
X50828Y303817D01*
X48152Y302708D01*
X45855Y300945D01*
X45500Y300483D01*
X44500D01*
X44145Y300945D01*
X41848Y302708D01*
X39172Y303817D01*
X36300Y304195D01*
X28300D01*
X25428Y303817D01*
X22753Y302708D01*
X20455Y300945D01*
X18692Y298647D01*
X17583Y295972D01*
X17205Y293100D01*
X17583Y290228D01*
X18692Y287553D01*
X20455Y285255D01*
X22753Y283491D01*
X25428Y282383D01*
X28300Y282005D01*
X36300D01*
X39172Y282383D01*
X41848Y283491D01*
X44145Y285255D01*
X44500Y285717D01*
X45500D01*
X45855Y285255D01*
X48152Y283491D01*
X50828Y282383D01*
X53700Y282005D01*
X61700D01*
X64572Y282383D01*
X67248Y283491D01*
X69545Y285255D01*
X70071Y285940D01*
X76076D01*
X88739Y273276D01*
X88671Y272729D01*
X87618Y272367D01*
X87292Y272692D01*
X85830Y273814D01*
X84127Y274520D01*
X82300Y274760D01*
X70148D01*
X69545Y275545D01*
X67247Y277308D01*
X64572Y278417D01*
X61700Y278795D01*
X53700D01*
X50828Y278417D01*
X48152Y277308D01*
X45855Y275545D01*
X45500Y275083D01*
X44500Y275083D01*
X44145Y275545D01*
X41848Y277308D01*
X39172Y278417D01*
X36300Y278795D01*
X28300D01*
X25429Y278417D01*
X22753Y277308D01*
X20455Y275545D01*
X18692Y273247D01*
X17583Y270571D01*
X17205Y267700D01*
X17583Y264828D01*
X18692Y262153D01*
X20455Y259855D01*
X22753Y258092D01*
X25429Y256983D01*
X28300Y256605D01*
X34480D01*
X36801Y254284D01*
X36455Y253583D01*
X36276Y253395D01*
X28300D01*
X25428Y253017D01*
X22753Y251908D01*
X20455Y250145D01*
X18692Y247847D01*
X17583Y245172D01*
X17205Y242300D01*
X17583Y239428D01*
X18692Y236752D01*
X20455Y234455D01*
X22753Y232691D01*
X25428Y231583D01*
X28300Y231205D01*
X36300D01*
X39172Y231583D01*
X41848Y232691D01*
X44145Y234455D01*
X44500Y234917D01*
X45500D01*
X45855Y234455D01*
X48153Y232691D01*
X50828Y231583D01*
X53700Y231205D01*
X61700D01*
X64572Y231583D01*
X67248Y232691D01*
X69545Y234455D01*
X71308Y236752D01*
X72417Y239428D01*
X72795Y242300D01*
X72556Y244115D01*
X73503Y244582D01*
X74696Y243389D01*
Y82599D01*
X73799Y82157D01*
X72270Y83330D01*
X67730Y85952D01*
X62885Y87958D01*
X57820Y89316D01*
X52622Y90000D01*
X47378D01*
X42180Y89316D01*
X37115Y87958D01*
X32271Y85952D01*
X27729Y83330D01*
X23570Y80138D01*
X19862Y76430D01*
X16670Y72270D01*
X14048Y67730D01*
X12041Y62885D01*
X10684Y57820D01*
X10000Y52622D01*
Y47378D01*
X10684Y42180D01*
X12041Y37115D01*
X14048Y32271D01*
X16670Y27729D01*
X19862Y23570D01*
X23570Y19862D01*
X27729Y16670D01*
X32271Y14048D01*
X37115Y12041D01*
X42180Y10684D01*
X47378Y10000D01*
X52622D01*
X57820Y10684D01*
X62885Y12041D01*
X67730Y14048D01*
X69160Y14874D01*
X70088Y14255D01*
X69922Y13000D01*
X70232Y10651D01*
X71139Y8461D01*
X71525Y7957D01*
X71083Y7060D01*
X50000D01*
X49734Y7025D01*
X44388Y7376D01*
X38873Y8473D01*
X33548Y10280D01*
X28504Y12768D01*
X23828Y15892D01*
X19600Y19600D01*
X15892Y23828D01*
X12768Y28504D01*
X10280Y33548D01*
X8473Y38873D01*
X7376Y44388D01*
X7025Y49734D01*
X7060Y50000D01*
Y450000D01*
X7025Y450266D01*
X7376Y455612D01*
X8473Y461127D01*
X10280Y466452D01*
X12768Y471496D01*
X15892Y476172D01*
X19600Y480400D01*
X23828Y484108D01*
X28504Y487232D01*
X33548Y489720D01*
X38873Y491527D01*
X44388Y492624D01*
X49734Y492975D01*
X50000Y492940D01*
X700000D01*
X700266Y492975D01*
X705612Y492624D01*
D02*
G37*
G36*
X639000Y466000D02*
Y447250D01*
X636750Y445000D01*
X633250D01*
X630500Y447750D01*
Y466000D01*
X633000Y468500D01*
X636500Y468500D01*
X639000Y466000D01*
D02*
G37*
G36*
X109500Y470250D02*
X109500Y464500D01*
X109500Y447750D01*
X105750Y444000D01*
X102000D01*
X99750Y446250D01*
Y472500D01*
X94500Y477750D01*
Y481750D01*
X96750Y484000D01*
X100750D01*
X109500Y470250D01*
D02*
G37*
G36*
X165000Y463000D02*
Y441000D01*
X167750Y438250D01*
Y434454D01*
X166982Y432599D01*
X166672Y430250D01*
X166982Y427901D01*
X167750Y426046D01*
Y424750D01*
X165000Y422000D01*
X152750D01*
Y459500D01*
X159250Y466000D01*
X163250D01*
X165000Y463000D01*
D02*
G37*
G36*
X495000Y425500D02*
X485500Y416000D01*
X473000D01*
X470000Y419000D01*
Y430000D01*
X470500Y430500D01*
X478500D01*
X484000Y436000D01*
Y438939D01*
X484617Y440428D01*
X484995Y443300D01*
Y451300D01*
X484617Y454172D01*
X484000Y455661D01*
Y464339D01*
X484617Y465828D01*
X484995Y468700D01*
Y475592D01*
X489403Y480000D01*
X495000D01*
Y425500D01*
D02*
G37*
G36*
X166800Y472700D02*
X171138Y468362D01*
X171232Y467650D01*
X172139Y465461D01*
X173581Y463581D01*
X175461Y462138D01*
X177651Y461232D01*
X178362Y461138D01*
X181903Y457597D01*
Y437550D01*
X181081Y436919D01*
X179639Y435039D01*
X178732Y432850D01*
X178422Y430500D01*
X178732Y428150D01*
X179639Y425961D01*
X179992Y425500D01*
X179639Y425039D01*
X178732Y422850D01*
X178422Y420500D01*
X178732Y418150D01*
X179639Y415961D01*
X181081Y414081D01*
X181903Y413450D01*
X181903Y407667D01*
X180979Y407284D01*
X172810Y415453D01*
Y424561D01*
X172848Y424750D01*
Y426046D01*
X172810Y426234D01*
Y434266D01*
X172848Y434454D01*
Y438250D01*
X172460Y440201D01*
X171355Y441855D01*
X170098Y443112D01*
Y463000D01*
X170030Y463341D01*
X170051Y463688D01*
X169838Y464308D01*
X169710Y464951D01*
X169517Y465240D01*
X169403Y465569D01*
X168920Y466398D01*
X168862Y466539D01*
X168762Y466669D01*
X167654Y468569D01*
X167219Y469060D01*
X166855Y469605D01*
X166566Y469798D01*
X166335Y470058D01*
X165746Y470346D01*
X165201Y470710D01*
X164860Y470778D01*
X164547Y470930D01*
X163893Y470970D01*
X163250Y471098D01*
X159250D01*
X157299Y470710D01*
X155645Y469605D01*
X149145Y463105D01*
X148040Y461451D01*
X147652Y459500D01*
Y422000D01*
X147690Y421811D01*
Y410250D01*
X147690Y410250D01*
X147931Y407800D01*
X148646Y405443D01*
X149806Y403272D01*
X151368Y401368D01*
X166690Y386047D01*
Y378750D01*
X166689Y378750D01*
X166931Y376300D01*
X167646Y373943D01*
X168806Y371772D01*
X170368Y369868D01*
X181903Y358334D01*
Y358097D01*
X195000Y345000D01*
Y325210D01*
X194638Y324738D01*
X193731Y322548D01*
X193422Y320199D01*
X193731Y317850D01*
X194638Y315660D01*
X195000Y315188D01*
Y302499D01*
X227313Y270186D01*
X245414D01*
X265000Y250600D01*
Y196411D01*
X252542Y183954D01*
X251541Y182648D01*
X250911Y181128D01*
X250696Y179496D01*
Y92000D01*
X250911Y90368D01*
X251541Y88848D01*
X252542Y87542D01*
X280696Y59389D01*
Y52611D01*
X251085Y23000D01*
X145833D01*
X120060Y48772D01*
Y79000D01*
X119820Y80827D01*
X119115Y82530D01*
X117992Y83992D01*
X111060Y90925D01*
Y186115D01*
X112060Y186623D01*
X114149Y185757D01*
X116760Y185414D01*
X125164D01*
Y180500D01*
Y94500D01*
X125507Y91889D01*
X126515Y89457D01*
X128118Y87368D01*
X145368Y70118D01*
X147457Y68515D01*
X149889Y67507D01*
X152500Y67164D01*
X164914D01*
Y51000D01*
X165257Y48390D01*
X166265Y45957D01*
X167868Y43868D01*
X169957Y42265D01*
X172390Y41257D01*
X175000Y40914D01*
X177610Y41257D01*
X180043Y42265D01*
X182132Y43868D01*
X183735Y45957D01*
X184743Y48390D01*
X185086Y51000D01*
Y67164D01*
X193072D01*
X199914Y60322D01*
Y51000D01*
X200257Y48390D01*
X201265Y45957D01*
X202868Y43868D01*
X204957Y42265D01*
X207390Y41257D01*
X210000Y40914D01*
X212610Y41257D01*
X215043Y42265D01*
X217132Y43868D01*
X218735Y45957D01*
X219743Y48390D01*
X220086Y51000D01*
Y64500D01*
X219743Y67111D01*
X218735Y69543D01*
X217132Y71632D01*
X204382Y84382D01*
X202293Y85985D01*
X199860Y86993D01*
X197250Y87336D01*
X156678D01*
X145336Y98678D01*
Y170316D01*
X212918D01*
Y142500D01*
X213244Y140020D01*
X214202Y137709D01*
X215725Y135725D01*
X217709Y134202D01*
X220020Y133245D01*
X222500Y132918D01*
X224980Y133245D01*
X227291Y134202D01*
X229275Y135725D01*
X230798Y137709D01*
X231755Y140020D01*
X232082Y142500D01*
Y170327D01*
X234610Y170660D01*
X237042Y171668D01*
X239131Y173270D01*
X240734Y175359D01*
X241742Y177792D01*
X242085Y180403D01*
X241742Y183013D01*
X240734Y185446D01*
X239131Y187535D01*
X237042Y189137D01*
X234610Y190145D01*
X231999Y190489D01*
X145336D01*
Y195250D01*
Y230500D01*
Y238600D01*
X243814D01*
X246425Y238943D01*
X248857Y239951D01*
X250946Y241554D01*
X252549Y243643D01*
X253557Y246075D01*
X253900Y248686D01*
X253557Y251297D01*
X252549Y253729D01*
X250946Y255818D01*
X248857Y257421D01*
X246425Y258428D01*
X243814Y258772D01*
X145336D01*
Y279500D01*
X144993Y282111D01*
X143985Y284543D01*
X142382Y286632D01*
X115086Y313928D01*
Y325316D01*
X181903D01*
X184514Y325660D01*
X186946Y326668D01*
X189035Y328270D01*
X190638Y330359D01*
X191646Y332792D01*
X191989Y335402D01*
X191646Y338013D01*
X190638Y340446D01*
X189035Y342535D01*
X186946Y344137D01*
X184514Y345145D01*
X181903Y345489D01*
X115086D01*
Y350500D01*
Y371000D01*
X114743Y373610D01*
X114086Y375195D01*
Y445614D01*
X114210Y445799D01*
X114598Y447750D01*
X114598Y464500D01*
X114598Y470250D01*
X114511Y470687D01*
X114521Y471133D01*
X114319Y471653D01*
X114309Y471700D01*
X114944Y472636D01*
X115052Y472700D01*
X166800D01*
D02*
G37*
G36*
X582000Y435000D02*
Y401000D01*
X555000D01*
X553000Y403000D01*
Y431000D01*
X530069Y453931D01*
X530078Y454000D01*
X529768Y456349D01*
X528862Y458539D01*
X527419Y460419D01*
X527000Y460740D01*
Y463000D01*
X531000Y467000D01*
X550000D01*
X582000Y435000D01*
D02*
G37*
G36*
X520914Y393195D02*
X520257Y391610D01*
X519914Y389000D01*
X520257Y386390D01*
X521265Y383957D01*
X522868Y381868D01*
X524957Y380265D01*
X527389Y379257D01*
X530000Y378914D01*
X532611Y379257D01*
X535043Y380265D01*
X537132Y381868D01*
X538132Y382868D01*
X539735Y384957D01*
X540743Y387389D01*
X541086Y390000D01*
Y395164D01*
X564914D01*
Y390000D01*
X565257Y387389D01*
X566265Y384957D01*
X567868Y382868D01*
X569957Y381265D01*
X572389Y380257D01*
X575000Y379914D01*
X577611Y380257D01*
X580043Y381265D01*
X582132Y382868D01*
X583735Y384957D01*
X584743Y387389D01*
X585086Y390000D01*
Y395164D01*
X588566D01*
Y379742D01*
Y272579D01*
X581547Y265560D01*
X567749D01*
X567749Y265560D01*
X565299Y265318D01*
X562943Y264604D01*
X560771Y263443D01*
X558868Y261881D01*
X497118Y200132D01*
X495556Y198228D01*
X494396Y196057D01*
X493681Y193700D01*
X493439Y191250D01*
X493440Y191250D01*
Y125750D01*
X493623Y123886D01*
X487041Y117304D01*
X447144D01*
Y124221D01*
X447844Y125910D01*
X448153Y128259D01*
X447844Y130609D01*
X446937Y132798D01*
X445494Y134678D01*
X443614Y136120D01*
X441425Y137027D01*
X439075Y137337D01*
X436726Y137027D01*
X434536Y136120D01*
X432656Y134678D01*
X431214Y132798D01*
X430307Y130609D01*
X429998Y128259D01*
X430307Y125910D01*
X431006Y124221D01*
Y117304D01*
X381489D01*
Y128744D01*
X381146Y131355D01*
X380138Y133787D01*
X378535Y135876D01*
X376446Y137479D01*
X374014Y138487D01*
X371403Y138830D01*
X368792Y138487D01*
X366360Y137479D01*
X364271Y135876D01*
X362668Y133787D01*
X361660Y131355D01*
X361317Y128744D01*
Y117304D01*
X306403D01*
X303953Y117063D01*
X301596Y116348D01*
X299425Y115188D01*
X297521Y113626D01*
X295959Y111722D01*
X294799Y109551D01*
X294084Y107194D01*
X293843Y104744D01*
X294084Y102294D01*
X294799Y99937D01*
X295959Y97766D01*
X297521Y95862D01*
X299425Y94300D01*
X301596Y93140D01*
X303953Y92425D01*
X306403Y92184D01*
X492244D01*
X492244Y92184D01*
X494694Y92425D01*
X497051Y93140D01*
X499222Y94300D01*
X501126Y95862D01*
X515285Y110021D01*
X515285Y110021D01*
X516847Y111925D01*
X518007Y114096D01*
X518722Y116453D01*
X518964Y118903D01*
Y128744D01*
X518722Y131194D01*
X518560Y131727D01*
Y186047D01*
X572952Y240439D01*
X586749D01*
X586749Y240439D01*
X589200Y240680D01*
X591556Y241395D01*
X593727Y242556D01*
X595631Y244118D01*
X610008Y258495D01*
X610008Y258495D01*
X611570Y260399D01*
X612731Y262570D01*
X613446Y264926D01*
X613687Y267377D01*
Y379742D01*
Y395164D01*
X633822D01*
X646118Y382868D01*
X648207Y381265D01*
X650639Y380257D01*
X653250Y379914D01*
X667500D01*
X670110Y380257D01*
X672543Y381265D01*
X674632Y382868D01*
X676235Y384957D01*
X676636Y385925D01*
X677617Y386120D01*
X682940Y380797D01*
Y269181D01*
X638037D01*
X635586Y268940D01*
X633230Y268225D01*
X631058Y267064D01*
X629155Y265502D01*
X629155Y265502D01*
X624368Y260715D01*
X622806Y258812D01*
X621645Y256640D01*
X620930Y254284D01*
X620689Y251833D01*
X620041Y251085D01*
X616749D01*
X614139Y250742D01*
X611706Y249734D01*
X609617Y248131D01*
X608014Y246042D01*
X607007Y243610D01*
X606663Y240999D01*
X607007Y238389D01*
X608014Y235956D01*
X609617Y233867D01*
X611706Y232264D01*
X614139Y231257D01*
X616749Y230913D01*
X620689D01*
Y227036D01*
X617155Y223503D01*
X615593Y221599D01*
X614432Y219428D01*
X613717Y217071D01*
X613476Y214621D01*
X613476Y214621D01*
Y210061D01*
X606000D01*
X603550Y209819D01*
X601193Y209104D01*
X599022Y207944D01*
X597118Y206382D01*
X597118Y206381D01*
X572368Y181632D01*
X572368Y181632D01*
X556047Y165310D01*
X536169D01*
X533718Y165069D01*
X531362Y164354D01*
X529191Y163194D01*
X527287Y161632D01*
X527287Y161632D01*
X525021Y159366D01*
X523459Y157462D01*
X522299Y155291D01*
X521584Y152935D01*
X521343Y150484D01*
X521584Y148034D01*
X522299Y145677D01*
X523459Y143506D01*
X525021Y141603D01*
X526925Y140041D01*
X529096Y138880D01*
X531453Y138165D01*
X533903Y137924D01*
X536353Y138165D01*
X537136Y138403D01*
X537939Y137807D01*
Y110453D01*
X513047Y85561D01*
X297203D01*
X282560Y100203D01*
Y165797D01*
X298249Y181486D01*
X328868Y150868D01*
X328868Y150868D01*
X336868Y142868D01*
X338957Y141265D01*
X341390Y140257D01*
X344000Y139914D01*
X401000D01*
X402000Y140045D01*
X403000Y139914D01*
X461157D01*
X463768Y140257D01*
X466200Y141265D01*
X468289Y142868D01*
X475804Y150383D01*
X477407Y152472D01*
X478415Y154904D01*
X478758Y157515D01*
X478415Y160126D01*
X477407Y162558D01*
X475804Y164647D01*
X473715Y166250D01*
X471283Y167258D01*
X468672Y167601D01*
X466062Y167258D01*
X463629Y166250D01*
X461540Y164647D01*
X456979Y160086D01*
X410812D01*
X410743Y160611D01*
X409735Y163043D01*
X408132Y165132D01*
X406043Y166735D01*
X403610Y167743D01*
X401000Y168086D01*
X398389Y167743D01*
X395957Y166735D01*
X393868Y165132D01*
X392265Y163043D01*
X391257Y160611D01*
X391188Y160086D01*
X348178D01*
X343132Y165132D01*
X343132Y165132D01*
X312514Y195751D01*
X321301Y204538D01*
X325044Y200794D01*
X326716Y199512D01*
X328662Y198706D01*
X330750Y198431D01*
X375712D01*
X377401Y197732D01*
X379750Y197422D01*
X382099Y197732D01*
X384289Y198638D01*
X386169Y200081D01*
X387611Y201961D01*
X388518Y204151D01*
X388828Y206500D01*
X388518Y208850D01*
X387611Y211039D01*
X386169Y212919D01*
X384289Y214361D01*
X384100Y214440D01*
X384299Y215439D01*
X435599D01*
X447307Y203732D01*
X449210Y202170D01*
X451382Y201009D01*
X453738Y200294D01*
X456189Y200053D01*
X458639Y200294D01*
X460995Y201009D01*
X463167Y202170D01*
X465070Y203732D01*
X466632Y205635D01*
X467793Y207807D01*
X468508Y210163D01*
X468749Y212613D01*
X468508Y215064D01*
X467793Y217420D01*
X466632Y219592D01*
X465070Y221495D01*
X449684Y236882D01*
X447780Y238444D01*
X445609Y239604D01*
X445306Y239696D01*
X445455Y240696D01*
X466000D01*
X467632Y240911D01*
X469152Y241541D01*
X470457Y242542D01*
X523611Y295696D01*
X548389D01*
X560985Y283100D01*
X561469Y281931D01*
X562912Y280051D01*
X564792Y278609D01*
X566981Y277702D01*
X569331Y277393D01*
X571680Y277702D01*
X573870Y278609D01*
X575750Y280051D01*
X577192Y281931D01*
X578099Y284121D01*
X578408Y286470D01*
X578099Y288820D01*
X577192Y291009D01*
X576272Y292208D01*
X576410Y293574D01*
X576419Y293581D01*
X577862Y295461D01*
X578768Y297651D01*
X579078Y300000D01*
X578768Y302349D01*
X577862Y304539D01*
X576419Y306419D01*
X574539Y307861D01*
X572350Y308768D01*
X571045Y308940D01*
X566992Y312992D01*
X565530Y314114D01*
X563827Y314820D01*
X562000Y315060D01*
X523280D01*
X522897Y315984D01*
X524813Y317900D01*
X525895Y319310D01*
X526575Y320952D01*
X526807Y322714D01*
Y331088D01*
X527860Y332461D01*
X528767Y334650D01*
X529077Y336999D01*
X528767Y339349D01*
X527860Y341538D01*
X526418Y343418D01*
X524538Y344861D01*
X522348Y345768D01*
X519999Y346077D01*
X517649Y345768D01*
X515460Y344861D01*
X513580Y343418D01*
X512137Y341538D01*
X511675Y340422D01*
X510501Y340577D01*
X508151Y340268D01*
X507272Y339903D01*
X506486Y341802D01*
X505153Y343539D01*
X505860Y344460D01*
X506767Y346650D01*
X507077Y348999D01*
X506767Y351349D01*
X505860Y353538D01*
X504418Y355418D01*
X502538Y356861D01*
X500349Y357768D01*
X497999Y358077D01*
X495649Y357768D01*
X493460Y356861D01*
X491580Y355418D01*
X490138Y353538D01*
X489231Y351349D01*
X489005Y349633D01*
X462180Y322808D01*
X397000D01*
X395238Y322576D01*
X393596Y321896D01*
X392186Y320814D01*
X387984Y316613D01*
X387060Y316995D01*
Y328319D01*
X419045Y360303D01*
X420350Y360475D01*
X422539Y361382D01*
X424419Y362824D01*
X425862Y364704D01*
X426768Y366894D01*
X427078Y369243D01*
X426845Y371011D01*
X427792Y371478D01*
X433672Y365598D01*
X435575Y364036D01*
X437747Y362876D01*
X440103Y362161D01*
X442553Y361920D01*
X445004Y362161D01*
X447360Y362876D01*
X449532Y364036D01*
X451435Y365598D01*
X452997Y367502D01*
X454158Y369673D01*
X454873Y372030D01*
X455114Y374480D01*
X454873Y376930D01*
X454158Y379287D01*
X452997Y381458D01*
X451435Y383362D01*
X440057Y394740D01*
X440440Y395664D01*
X520914D01*
Y393195D01*
D02*
G37*
G36*
X294826Y382374D02*
X293581Y381419D01*
X292139Y379539D01*
X291232Y377350D01*
X290922Y375000D01*
X291232Y372650D01*
X292139Y370461D01*
X293581Y368581D01*
X293696Y368493D01*
Y326507D01*
X293581Y326419D01*
X292139Y324539D01*
X291923Y324017D01*
X290942Y323822D01*
X287433Y327331D01*
X285344Y328934D01*
X282911Y329942D01*
X280301Y330285D01*
X216499D01*
X213889Y329942D01*
X211456Y328934D01*
X209367Y327331D01*
X207764Y325242D01*
X206757Y322809D01*
X206413Y320199D01*
X206757Y317589D01*
X207764Y315156D01*
X209367Y313067D01*
X211456Y311464D01*
X213889Y310456D01*
X216499Y310113D01*
X276123D01*
X286868Y299368D01*
X288957Y297765D01*
X291390Y296757D01*
X294000Y296414D01*
X315440D01*
Y295250D01*
X315439Y295250D01*
X315681Y292800D01*
X316396Y290443D01*
X317556Y288272D01*
X319118Y286368D01*
X334702Y270785D01*
X334637Y269787D01*
X333848Y269182D01*
X332405Y267302D01*
X331498Y265112D01*
X331189Y262763D01*
X331208Y262619D01*
X271022Y202433D01*
X270098Y202816D01*
Y250600D01*
X269710Y252551D01*
X268605Y254205D01*
X249019Y273791D01*
X247365Y274896D01*
X245414Y275284D01*
X229425D01*
X200098Y304611D01*
Y315188D01*
X199968Y315842D01*
X199924Y316507D01*
X199776Y316809D01*
X199710Y317139D01*
X199340Y317693D01*
X199178Y318022D01*
X198698Y319180D01*
X198563Y320199D01*
X198698Y321218D01*
X199178Y322376D01*
X199340Y322705D01*
X199710Y323259D01*
X199776Y323589D01*
X199924Y323890D01*
X199968Y324556D01*
X200098Y325210D01*
Y341282D01*
X200901Y341878D01*
X201550Y341681D01*
X204000Y341440D01*
X237000D01*
X237000Y341440D01*
X239450Y341681D01*
X241807Y342396D01*
X243978Y343556D01*
X245882Y345118D01*
X284137Y383374D01*
X294486D01*
X294826Y382374D01*
D02*
G37*
G36*
X92340Y472700D02*
X94652Y470388D01*
Y451562D01*
X94257Y450609D01*
X93914Y447998D01*
Y372000D01*
X94257Y369390D01*
X94914Y367805D01*
Y360329D01*
X63563D01*
X60953Y359986D01*
X58520Y358978D01*
X56431Y357375D01*
X54828Y355286D01*
X53821Y352854D01*
X53477Y350243D01*
X53821Y347633D01*
X54828Y345200D01*
X56431Y343111D01*
X58520Y341508D01*
X60953Y340501D01*
X63563Y340157D01*
X94914D01*
Y336000D01*
Y309750D01*
X95105Y308294D01*
X94158Y307827D01*
X78492Y323492D01*
X77030Y324614D01*
X75327Y325320D01*
X73500Y325560D01*
X70148D01*
X69545Y326345D01*
X67247Y328108D01*
X66640Y328360D01*
X50000Y345000D01*
X50000Y410000D01*
X52622D01*
X57820Y410684D01*
X62885Y412042D01*
X67730Y414048D01*
X72270Y416670D01*
X76430Y419862D01*
X80138Y423570D01*
X83330Y427729D01*
X85952Y432271D01*
X87958Y437115D01*
X89316Y442180D01*
X90000Y447378D01*
Y452622D01*
X89316Y457820D01*
X87958Y462885D01*
X85952Y467729D01*
X83659Y471700D01*
X84237Y472700D01*
X92340D01*
D02*
G37*
G36*
X410164Y373815D02*
X410139Y373782D01*
X409232Y371593D01*
X409060Y370288D01*
X375008Y336236D01*
X373885Y334773D01*
X373180Y333071D01*
X372940Y331243D01*
Y286032D01*
X372016Y285649D01*
X369059Y288606D01*
X369078Y288750D01*
X368768Y291099D01*
X367861Y293289D01*
X366419Y295169D01*
X364539Y296611D01*
X362350Y297518D01*
X360000Y297828D01*
X357650Y297518D01*
X355461Y296611D01*
X353581Y295169D01*
X352138Y293289D01*
X351232Y291099D01*
X351226Y291056D01*
X350279Y290734D01*
X340560Y300453D01*
Y306000D01*
Y373797D01*
X341475Y374712D01*
X409722D01*
X410164Y373815D01*
D02*
G37*
G36*
X125164Y275322D02*
Y248750D01*
Y240586D01*
X116760D01*
X114149Y240243D01*
X112060Y239377D01*
X111060Y239885D01*
Y288000D01*
X111047Y288099D01*
X111944Y288542D01*
X125164Y275322D01*
D02*
G37*
G36*
X114149Y220757D02*
X116760Y220414D01*
X125164D01*
Y205586D01*
X116760D01*
X114149Y205243D01*
X112060Y204377D01*
X111060Y204885D01*
Y221115D01*
X112060Y221623D01*
X114149Y220757D01*
D02*
G37*
%LPC*%
G36*
X448500Y487795D02*
X445628Y487417D01*
X442953Y486309D01*
X440655Y484545D01*
X438892Y482247D01*
X437783Y479572D01*
X437405Y476700D01*
Y468700D01*
X437783Y465828D01*
X438892Y463153D01*
X440655Y460855D01*
X442953Y459091D01*
X445628Y457983D01*
X448500Y457605D01*
X451372Y457983D01*
X454048Y459091D01*
X456345Y460855D01*
X458108Y463153D01*
X459217Y465828D01*
X459595Y468700D01*
Y476700D01*
X459217Y479572D01*
X458108Y482247D01*
X456345Y484545D01*
X454048Y486309D01*
X451372Y487417D01*
X448500Y487795D01*
D02*
G37*
G36*
X61700Y227995D02*
X53700D01*
X50828Y227617D01*
X48153Y226509D01*
X45855Y224745D01*
X45500Y224283D01*
X44500D01*
X44145Y224745D01*
X41848Y226509D01*
X39172Y227617D01*
X36300Y227995D01*
X28300D01*
X25428Y227617D01*
X22753Y226509D01*
X20455Y224745D01*
X18692Y222447D01*
X17583Y219772D01*
X17205Y216900D01*
X17583Y214028D01*
X18692Y211353D01*
X20455Y209055D01*
X22753Y207292D01*
X25428Y206183D01*
X28300Y205805D01*
X36300D01*
X39172Y206183D01*
X41848Y207292D01*
X44145Y209055D01*
X44500Y209517D01*
X45500D01*
X45855Y209055D01*
X48153Y207292D01*
X50828Y206183D01*
X53700Y205805D01*
X61700D01*
X64572Y206183D01*
X67248Y207292D01*
X69545Y209055D01*
X71308Y211353D01*
X72417Y214028D01*
X72795Y216900D01*
X72417Y219772D01*
X71308Y222447D01*
X69545Y224745D01*
X67248Y226509D01*
X64572Y227617D01*
X61700Y227995D01*
D02*
G37*
G36*
X61700Y202595D02*
X53700D01*
X50828Y202217D01*
X48300Y201169D01*
X47300Y201562D01*
Y202500D01*
X17300D01*
Y180500D01*
X47300D01*
Y181437D01*
X48300Y181830D01*
X50828Y180783D01*
X53700Y180405D01*
X61700D01*
X64572Y180783D01*
X67248Y181891D01*
X69545Y183655D01*
X71308Y185952D01*
X72417Y188628D01*
X72795Y191500D01*
X72417Y194371D01*
X71308Y197047D01*
X69545Y199345D01*
X67248Y201108D01*
X64572Y202217D01*
X61700Y202595D01*
D02*
G37*
G36*
X686572Y241122D02*
X661572D01*
Y222698D01*
X661519Y222297D01*
Y215547D01*
X661730Y213948D01*
X662300Y212572D01*
X661730Y211196D01*
X661519Y209597D01*
Y202847D01*
X661730Y201248D01*
X662300Y199872D01*
X661730Y198496D01*
X661519Y196897D01*
Y190147D01*
X661730Y188548D01*
X662347Y187058D01*
X663329Y185779D01*
X664608Y184797D01*
X666098Y184180D01*
X667697Y183969D01*
X680447D01*
X682046Y184180D01*
X683536Y184797D01*
X684816Y185779D01*
X685797Y187058D01*
X686414Y188548D01*
X686625Y190147D01*
Y196897D01*
X686414Y198496D01*
X685844Y199872D01*
X686414Y201248D01*
X686625Y202847D01*
Y209597D01*
X686414Y211196D01*
X685844Y212572D01*
X686414Y213948D01*
X686625Y215547D01*
Y222297D01*
X686572Y222699D01*
Y241122D01*
D02*
G37*
G36*
X680447Y177675D02*
X667697D01*
X666098Y177465D01*
X664608Y176847D01*
X663329Y175866D01*
X662347Y174586D01*
X661730Y173096D01*
X661519Y171497D01*
Y164747D01*
X661730Y163148D01*
X662347Y161658D01*
X663329Y160379D01*
X664608Y159397D01*
X666098Y158780D01*
X667697Y158569D01*
X680447D01*
X682046Y158780D01*
X683536Y159397D01*
X684816Y160379D01*
X685797Y161658D01*
X686414Y163148D01*
X686625Y164747D01*
Y171497D01*
X686414Y173096D01*
X685797Y174586D01*
X684816Y175866D01*
X683536Y176847D01*
X682046Y177465D01*
X680447Y177675D01*
D02*
G37*
G36*
X702622Y90000D02*
X697378D01*
X692180Y89316D01*
X687115Y87958D01*
X682271Y85952D01*
X677729Y83330D01*
X673570Y80138D01*
X669862Y76430D01*
X666670Y72270D01*
X664048Y67730D01*
X662041Y62885D01*
X660684Y57820D01*
X660000Y52622D01*
Y47378D01*
X660684Y42180D01*
X662041Y37115D01*
X664048Y32271D01*
X666670Y27729D01*
X669862Y23570D01*
X673570Y19862D01*
X677729Y16670D01*
X682271Y14048D01*
X687115Y12041D01*
X692180Y10684D01*
X697378Y10000D01*
X702622D01*
X707820Y10684D01*
X712885Y12041D01*
X717729Y14048D01*
X722271Y16670D01*
X726430Y19862D01*
X730138Y23570D01*
X733330Y27729D01*
X735952Y32271D01*
X737959Y37115D01*
X739316Y42180D01*
X740000Y47378D01*
Y52622D01*
X739316Y57820D01*
X737959Y62885D01*
X735952Y67730D01*
X733330Y72270D01*
X730138Y76430D01*
X726430Y80138D01*
X722271Y83330D01*
X717729Y85952D01*
X712885Y87958D01*
X707820Y89316D01*
X702622Y90000D01*
D02*
G37*
%LPD*%
D10*
X257000Y179496D02*
X338890Y261386D01*
X257000Y92000D02*
Y179496D01*
X566530Y286470D02*
X569331D01*
X551000Y302000D02*
X566530Y286470D01*
X521000Y302000D02*
X551000D01*
X338890Y261386D02*
Y264140D01*
X257000Y92000D02*
X287000Y62000D01*
X79750Y12250D02*
X249250D01*
X287000Y50000D02*
Y62000D01*
X249250Y12250D02*
X287000Y50000D01*
X81000Y80000D02*
Y246000D01*
X70000Y257000D02*
X81000Y246000D01*
Y80000D02*
X91000Y70000D01*
X374250Y266618D02*
Y274500D01*
X360000Y288750D02*
X374250Y274500D01*
Y266618D02*
X393868Y247000D01*
X466000D01*
X521000Y302000D01*
X91000Y21000D02*
Y70000D01*
Y21000D02*
X92000Y20000D01*
X79000Y13000D02*
X79750Y12250D01*
X43000Y257000D02*
X70000D01*
X38118Y261882D02*
X43000Y257000D01*
X32300Y267700D02*
X33729D01*
X38118Y263312D01*
Y261882D02*
Y263312D01*
X300000Y320000D02*
Y375000D01*
D11*
X401000Y150000D02*
Y152000D01*
Y148000D02*
X403000Y150000D01*
X438750Y104744D02*
X439075Y105069D01*
Y128259D01*
X318125Y219125D02*
X330750Y206500D01*
X379750D01*
D70*
X485985Y302000D02*
X510501Y326516D01*
Y331499D01*
X498624Y323124D02*
Y337263D01*
X484500Y309000D02*
X498624Y323124D01*
X489635Y292350D02*
X519999Y322714D01*
X414666Y292350D02*
X489635D01*
X519999Y322714D02*
Y336999D01*
X465000Y316000D02*
X497999Y348999D01*
X397000Y316000D02*
X465000D01*
X408000Y302000D02*
X485985D01*
X400000Y309000D02*
X484500D01*
X387300Y306300D02*
X397000Y316000D01*
X387300Y272700D02*
Y306300D01*
Y272700D02*
X397000Y263000D01*
X408689D01*
X414666Y268977D01*
X403163Y287500D02*
Y297164D01*
X394000Y282990D02*
X403163Y273827D01*
X394000Y303000D02*
X400000Y309000D01*
X394000Y282990D02*
Y303000D01*
X403163Y297164D02*
X408000Y302000D01*
D71*
X104000Y88000D02*
Y288000D01*
X96000Y85000D02*
Y276000D01*
X89000Y82808D02*
Y261000D01*
X57700Y267700D02*
X82300D01*
X104000Y88000D02*
X113000Y79000D01*
X73500Y318500D02*
X104000Y288000D01*
X79000Y293000D02*
X96000Y276000D01*
X89000Y82808D02*
X98000Y73808D01*
X96000Y85000D02*
X104500Y76500D01*
X82300Y267700D02*
X89000Y261000D01*
X396000Y253000D02*
X463650D01*
X380000Y269000D02*
X396000Y253000D01*
X562000Y308000D02*
X570000Y300000D01*
X518650Y308000D02*
X562000D01*
X463650Y253000D02*
X518650Y308000D01*
X380000Y269000D02*
Y331243D01*
X418000Y369243D01*
X103000Y23000D02*
Y24021D01*
X98000Y29021D02*
X103000Y24021D01*
X98000Y29021D02*
Y73808D01*
X104500Y38979D02*
Y76500D01*
Y38979D02*
X109479Y34000D01*
X113000Y42500D02*
Y79000D01*
X109479Y34000D02*
X109657D01*
X57700Y293100D02*
X57800Y293000D01*
X79000D01*
X109657Y34000D02*
X113657Y30000D01*
X114000D01*
X57700Y318500D02*
X73500D01*
D75*
X565000Y405250D02*
X638000D01*
X533500D02*
X565000D01*
Y420000D02*
Y427000D01*
Y405250D02*
Y420000D01*
X531000Y461000D02*
X565000Y427000D01*
X344000Y150000D02*
X401000D01*
X401000Y152000D02*
Y158000D01*
X401000Y158000D02*
X401000Y158000D01*
X336000Y158000D02*
X344000Y150000D01*
X461157D02*
X468672Y157515D01*
X403000Y150000D02*
X461157D01*
X336000Y158000D02*
Y158000D01*
X296500Y197500D02*
X336000Y158000D01*
X222500Y180403D02*
X231999D01*
X135347D02*
X222500D01*
X135250Y180500D02*
Y195250D01*
Y94500D02*
Y180500D01*
X135347Y180403D01*
X135250Y248750D02*
Y279500D01*
Y230500D02*
Y248750D01*
X135314Y248686D01*
X243814D01*
X105000Y350500D02*
Y371000D01*
Y336000D02*
Y350500D01*
X104743Y350243D02*
X105000Y350500D01*
X63563Y350243D02*
X104743D01*
X105000Y309750D02*
Y336000D01*
X105597Y335402D01*
X181903D01*
X105000Y309750D02*
X135250Y279500D01*
Y195250D02*
Y230500D01*
X135250Y230500D02*
X135250Y230500D01*
X116760Y230500D02*
X135250D01*
X135000Y195500D02*
X135250Y195250D01*
X116760Y195500D02*
X135000D01*
X175000Y77250D02*
X197250D01*
X152500D02*
X175000D01*
Y51000D02*
Y77250D01*
X210000Y51000D02*
Y64500D01*
X197250Y77250D02*
X210000Y64500D01*
X135250Y94500D02*
X152500Y77250D01*
X104000Y372000D02*
X105000Y371000D01*
X104000Y372000D02*
Y447998D01*
X327500Y306500D02*
X328000Y306000D01*
X294000Y306500D02*
X327500D01*
X280301Y320199D02*
X294000Y306500D01*
X216499Y320199D02*
X280301D01*
X310500Y426500D02*
X331250Y405750D01*
X287500Y426500D02*
X310500D01*
X331250Y405750D02*
X531000Y405750D01*
X274500Y439500D02*
X287500Y426500D01*
X277500Y442750D02*
Y467000D01*
X632748Y240999D02*
X633249Y241500D01*
X616749Y240999D02*
X632748D01*
X581250Y172750D02*
X628500Y125500D01*
X687500D01*
X653250Y390000D02*
X667500D01*
X638000Y405250D02*
X653250Y390000D01*
X531000Y405750D02*
X533000D01*
X531000Y390000D02*
Y405750D01*
X530000Y389000D02*
X531000Y390000D01*
X533000Y405750D02*
X533500Y405250D01*
X371403Y104841D02*
X371500Y104744D01*
X371403Y104841D02*
Y128744D01*
X575000Y390000D02*
Y404750D01*
D76*
X321500Y472700D02*
D03*
X346900D02*
D03*
X372300Y472700D02*
D03*
X473900Y472700D02*
D03*
X448500D02*
D03*
X397700D02*
D03*
X423100D02*
D03*
Y447300D02*
D03*
X397700D02*
D03*
X448500D02*
D03*
X473900Y447300D02*
D03*
X372300D02*
D03*
X346900Y447300D02*
D03*
X296100D02*
D03*
X321500D02*
D03*
X361900Y27300D02*
D03*
X336500D02*
D03*
X387300D02*
D03*
X412700Y27300D02*
D03*
Y52700D02*
D03*
X387300Y52700D02*
D03*
X361900D02*
D03*
X438100D02*
D03*
Y27300D02*
D03*
X463500Y52700D02*
D03*
Y27300D02*
D03*
D77*
X296100Y472700D02*
D03*
X336500Y52700D02*
D03*
D78*
X57700Y318500D02*
D03*
X32300Y318500D02*
D03*
X57700Y293100D02*
D03*
X32300D02*
D03*
Y216900D02*
D03*
Y242300D02*
D03*
X32300Y267700D02*
D03*
X57700Y267700D02*
D03*
X57700Y242300D02*
D03*
Y191500D02*
D03*
X57700Y216900D02*
D03*
D79*
X32300Y191500D02*
D03*
D80*
X674072Y168122D02*
D03*
Y180822D02*
D03*
Y193522D02*
D03*
X674072Y206222D02*
D03*
X674072Y218922D02*
D03*
D81*
X674072Y231622D02*
D03*
D82*
X50000Y450000D02*
D03*
X700000D02*
D03*
Y50000D02*
D03*
X50000D02*
D03*
D83*
X218000Y263000D02*
D03*
X467959Y201844D02*
D03*
X569331Y286470D02*
D03*
X584999Y329999D02*
D03*
X510501Y331499D02*
D03*
X498624Y337263D02*
D03*
X519999Y336999D02*
D03*
X497999Y348999D02*
D03*
X521000Y454000D02*
D03*
X523000Y433000D02*
D03*
X158000Y349000D02*
D03*
X579999Y308999D02*
D03*
X500000Y369000D02*
D03*
X30000Y150000D02*
D03*
Y167246D02*
D03*
X40000Y360000D02*
D03*
X30000Y340000D02*
D03*
X650000Y335243D02*
D03*
X680000Y110000D02*
D03*
X650000D02*
D03*
X667500Y90000D02*
D03*
X650000Y150000D02*
D03*
X560000Y335243D02*
D03*
X626286Y423000D02*
D03*
X668000Y488000D02*
D03*
X430000Y489000D02*
D03*
X410000D02*
D03*
X390000D02*
D03*
X370000D02*
D03*
X350000D02*
D03*
X330000D02*
D03*
X191000Y450000D02*
D03*
X180000Y470000D02*
D03*
X200000D02*
D03*
X220000D02*
D03*
X230000Y489000D02*
D03*
X210000D02*
D03*
X190000D02*
D03*
X170000D02*
D03*
X80000D02*
D03*
X20000Y380000D02*
D03*
Y400000D02*
D03*
X11000Y410000D02*
D03*
Y390000D02*
D03*
Y369000D02*
D03*
Y290000D02*
D03*
Y270000D02*
D03*
Y250000D02*
D03*
X321500Y195500D02*
D03*
X346900Y170000D02*
D03*
X480000D02*
D03*
X470000Y180000D02*
D03*
X480000Y200000D02*
D03*
X520000Y280000D02*
D03*
Y270000D02*
D03*
X570000D02*
D03*
X680000Y320000D02*
D03*
X670000Y300000D02*
D03*
X679334Y272445D02*
D03*
X659724Y271904D02*
D03*
X700000Y220000D02*
D03*
X690000Y190000D02*
D03*
Y170000D02*
D03*
X700000Y110000D02*
D03*
X720000Y100000D02*
D03*
Y120000D02*
D03*
Y140000D02*
D03*
Y160000D02*
D03*
Y180000D02*
D03*
Y200000D02*
D03*
Y220000D02*
D03*
Y280000D02*
D03*
Y300000D02*
D03*
Y320000D02*
D03*
Y340000D02*
D03*
Y360000D02*
D03*
Y380000D02*
D03*
Y400000D02*
D03*
X739000Y430000D02*
D03*
Y410000D02*
D03*
Y390000D02*
D03*
Y370000D02*
D03*
Y350000D02*
D03*
Y330000D02*
D03*
Y310000D02*
D03*
Y290000D02*
D03*
Y270000D02*
D03*
Y250000D02*
D03*
Y230000D02*
D03*
Y210000D02*
D03*
Y190000D02*
D03*
Y170000D02*
D03*
Y150000D02*
D03*
Y130000D02*
D03*
Y110000D02*
D03*
Y90000D02*
D03*
Y70000D02*
D03*
X650000Y50000D02*
D03*
X640000Y40000D02*
D03*
X650000Y30000D02*
D03*
X630000D02*
D03*
X620000Y20000D02*
D03*
X640000D02*
D03*
X660000D02*
D03*
X670000Y11000D02*
D03*
X650000D02*
D03*
X630000D02*
D03*
X610000D02*
D03*
X430000D02*
D03*
X400000D02*
D03*
X370000D02*
D03*
X350000D02*
D03*
X330000D02*
D03*
X310000D02*
D03*
X50000Y100000D02*
D03*
X30000D02*
D03*
Y120000D02*
D03*
X11000D02*
D03*
Y100000D02*
D03*
Y80000D02*
D03*
X120000Y95000D02*
D03*
Y105000D02*
D03*
Y120000D02*
D03*
Y135000D02*
D03*
Y150484D02*
D03*
X170000Y195500D02*
D03*
X178650Y205000D02*
D03*
X187500Y212613D02*
D03*
X170000D02*
D03*
X130000Y55000D02*
D03*
X145000D02*
D03*
X210000Y100000D02*
D03*
X190000Y90000D02*
D03*
X195000Y104744D02*
D03*
X220000Y85000D02*
D03*
X150000Y140000D02*
D03*
Y130000D02*
D03*
Y150000D02*
D03*
X175750Y420250D02*
D03*
Y430250D02*
D03*
X277000Y57000D02*
D03*
X243814Y248686D02*
D03*
X315750Y398250D02*
D03*
X161000Y448000D02*
D03*
X350500Y369000D02*
D03*
X340267Y262763D02*
D03*
X360000Y288750D02*
D03*
X456189Y212613D02*
D03*
X379750Y192500D02*
D03*
Y206500D02*
D03*
X709500Y256250D02*
D03*
X635000Y449000D02*
D03*
X634750Y464500D02*
D03*
X578500Y237750D02*
D03*
X565000Y420000D02*
D03*
X531000Y461000D02*
D03*
X478000Y423000D02*
D03*
X490500Y475000D02*
D03*
X491000Y461000D02*
D03*
X570000Y300000D02*
D03*
X418000Y369243D02*
D03*
X626037Y214621D02*
D03*
X626286Y167246D02*
D03*
X626037Y183401D02*
D03*
X687500Y125500D02*
D03*
X602749Y240999D02*
D03*
X638037Y256621D02*
D03*
X92000Y20000D02*
D03*
X103000Y23000D02*
D03*
X79000Y13000D02*
D03*
X300000Y320000D02*
D03*
X113000Y42500D02*
D03*
X143000Y37500D02*
D03*
X114000Y30000D02*
D03*
X221000Y42000D02*
D03*
X210000Y51000D02*
D03*
X191000D02*
D03*
X175000D02*
D03*
X309000Y142500D02*
D03*
X487403Y128744D02*
D03*
X506403D02*
D03*
X533903Y150484D02*
D03*
X439075Y128259D02*
D03*
X439075Y163259D02*
D03*
X420075Y128259D02*
D03*
X371403Y128744D02*
D03*
X352403Y128744D02*
D03*
X468672Y157515D02*
D03*
X401000Y158000D02*
D03*
X371403Y163744D02*
D03*
X287403Y104744D02*
D03*
X336000Y158000D02*
D03*
X306403Y104744D02*
D03*
X403163Y287500D02*
D03*
Y273827D02*
D03*
X300000Y375000D02*
D03*
X414666Y268977D02*
D03*
X414666Y292350D02*
D03*
X657500Y310000D02*
D03*
X530000Y389000D02*
D03*
X645000Y379742D02*
D03*
X601127D02*
D03*
X505000Y379742D02*
D03*
X575000Y390000D02*
D03*
X550000Y380000D02*
D03*
X667500Y390000D02*
D03*
X624501Y391744D02*
D03*
X274050Y418500D02*
D03*
X616749Y240999D02*
D03*
X528750Y292350D02*
D03*
X576751Y252999D02*
D03*
X442553Y374480D02*
D03*
X98499Y479999D02*
D03*
X104000Y461998D02*
D03*
Y447998D02*
D03*
X161000Y462000D02*
D03*
X121000Y375000D02*
D03*
X105000Y371000D02*
D03*
X202499Y375516D02*
D03*
Y320199D02*
D03*
X216499D02*
D03*
X220500Y455000D02*
D03*
X277500Y467000D02*
D03*
X187500Y430500D02*
D03*
Y420500D02*
D03*
X205000Y442500D02*
D03*
X132500D02*
D03*
X63563Y369243D02*
D03*
Y350243D02*
D03*
X71063Y335243D02*
D03*
X181903Y335402D02*
D03*
X154404Y287402D02*
D03*
X231999Y180403D02*
D03*
X207999Y194403D02*
D03*
X190000Y286902D02*
D03*
X115500Y180000D02*
D03*
X116760Y249500D02*
D03*
Y230500D02*
D03*
Y214500D02*
D03*
Y195500D02*
D03*
X207999Y141999D02*
D03*
X178650Y125000D02*
D03*
X120500Y85000D02*
D03*
X222500Y142500D02*
D03*
D84*
X518250Y73000D02*
X550500Y105250D01*
X292000Y73000D02*
X518250D01*
X270000Y95000D02*
X292000Y73000D01*
X204000Y354000D02*
X237000D01*
X179250Y378750D02*
X204000Y354000D01*
X179250Y378750D02*
Y391250D01*
X278934Y395934D02*
X314934D01*
X237000Y354000D02*
X278934Y395934D01*
X160250Y410250D02*
X179250Y391250D01*
X315684Y391316D02*
X328000Y379000D01*
X270000Y95000D02*
Y171000D01*
X296500Y197500D01*
X318125Y219125D01*
X315684Y391316D02*
Y395184D01*
X160250Y410250D02*
Y434500D01*
X328000Y306000D02*
Y379000D01*
Y295250D02*
Y306000D01*
X354500Y255500D02*
Y268750D01*
X328000Y295250D02*
X354500Y268750D01*
X429761Y387272D02*
X442553Y374480D01*
X336272Y387272D02*
X429761D01*
X328000Y379000D02*
X336272Y387272D01*
X506000Y125750D02*
Y191250D01*
X567749Y252999D02*
X576751D01*
X506000Y191250D02*
X567749Y252999D01*
X345250Y228000D02*
X440802D01*
X336125Y237125D02*
X354500Y255500D01*
X318125Y219125D02*
X336125Y237125D01*
X440802Y228000D02*
X456189Y212613D01*
X336125Y237125D02*
X345250Y228000D01*
X340750Y423000D02*
X478000D01*
X321500Y442250D02*
X340750Y423000D01*
X321500Y442250D02*
Y447300D01*
X550500Y152750D02*
X561250D01*
X536169D02*
X550500D01*
Y105250D02*
Y152750D01*
X633249Y241500D02*
Y251833D01*
Y221833D02*
Y241500D01*
X581250Y172750D02*
X606000Y197500D01*
X561250Y152750D02*
X581250Y172750D01*
X695500Y256621D02*
X709129D01*
X638037D02*
X695500D01*
X709129D02*
X709500Y256250D01*
X695500Y256621D02*
Y386000D01*
X626037Y197500D02*
Y214621D01*
Y183401D02*
Y197500D01*
X533903Y150484D02*
X536169Y152750D01*
X606000Y197500D02*
X626037D01*
Y214621D02*
X633249Y221833D01*
Y251833D02*
X638037Y256621D01*
X635000Y446500D02*
X695500Y386000D01*
X635000Y446500D02*
Y449000D01*
X208000Y439500D02*
X274500D01*
X205000Y442500D02*
X208000Y439500D01*
X371500Y104744D02*
X438750D01*
X306403D02*
X371500D01*
X438750D02*
X492244D01*
X506403Y118903D02*
Y128744D01*
X492244Y104744D02*
X506403Y118903D01*
X601127Y267377D02*
Y379742D01*
X586749Y252999D02*
X601127Y267377D01*
X576751Y252999D02*
X586749D01*
X601127Y379742D02*
Y402250D01*
D85*
X222500Y180403D02*
X222500Y180403D01*
X222500Y142500D02*
Y180403D01*
M02*
