M48
;Layer_Color=9474304
;FILE_FORMAT=4:4
METRIC,LZ
;TYPE=PLATED
T1F00S00C0.4000
T2F00S00C0.6500
T3F00S00C1.0000
T4F00S00C3.5000
%
T01
X00011Y0008
Y001
X0003
Y0012
X00011
X0005Y001
X0012Y00105
Y00095
X001205Y00085
X0012Y0012
X00113Y000425
X00114Y0003
X00103Y00023
X00092Y0002
X00079Y00013
X00143Y000375
X00145Y00055
X0013
X00175Y00051
X00191
X0021
X00221Y00042
X0022Y00085
X0021Y001
X00195Y00104744
X0019Y0009
X00287403Y00104744
X00306403
X00277Y00057
X0031Y00011
X0033
X0035
X0037
X004
X0043
X0061
X0062Y0002
X0063Y00011
Y0003
X0064Y0002
X0065Y00011
Y0003
X0066Y0002
X0067Y00011
X0065Y0005
X0064Y0004
X006675Y0009
X0068Y0011
X007
X0072Y0012
Y001
X00739Y0011
Y0009
Y0007
X0065Y0011
Y0015
X00626286Y00167246
X00626037Y00183401
Y00214621
X00616749Y00240999
X00602749Y00240999
X005785Y0023775
X00576751Y00252999
X0057Y0027
X00569331Y0028647
X0057Y003
X00579999Y00308999
X00584999Y00329999
X0056Y00335243
X00519999Y00336999
X0052875Y0029235
X0052Y0028
Y0027
X0053Y00389
X0055Y0038
X00575Y0039
X00601127Y00379742
X00624501Y00391744
X00645Y00379742
X006675Y0039
X0072Y004
Y0038
Y0036
Y0034
Y0032
Y003
Y0028
X00739Y0029
Y0031
Y0033
Y0035
Y0037
Y0039
Y0041
Y0043
X00626286Y00423
X00635Y00449
X0063475Y004645
X00668Y00488
X00531Y00461
X00521Y00454
X00523Y00433
X00565Y0042
X0065Y00335243
X006575Y0031
X0067Y003
X0068Y0032
X00679334Y00272445
X00659724Y00271904
X00638037Y00256621
X007095Y0025625
X00739Y0025
Y0027
Y0023
Y0021
Y0019
Y0017
Y0015
Y0013
X0072Y0014
Y0016
Y0018
Y002
Y0022
X007
X0069Y0019
Y0017
X006875Y001255
X00533903Y00150484
X00506403Y00128744
X00487403
X00468672Y00157515
X0048Y0017
X0047Y0018
X00467959Y00201844
X0048Y002
X00456189Y00212613
X00439075Y00163259
X00439075Y00128259
X00420075Y00128259
X00401Y00158
X00371403Y00163744
X003469Y0017
X00336Y00158
X00309Y001425
X00352403Y00128744
X00371403Y00128744
X0037975Y001925
Y002065
X003215Y001955
X00340267Y00262763
X0036Y0028875
X00403163Y002875
Y00273827
X00414666Y00268977
X00414666Y0029235
X00418Y00369243
X00442553Y0037448
X005Y00369
X00505Y00379742
X00497999Y00348999
X00498624Y00337263
X00510501Y00331499
X00478Y00423
X00491Y00461
X004905Y00475
X0043Y00489
X0041
X0039
X0037
X0035
X0033
X002775Y00467
X0027405Y004185
X0031575Y0039825
X003Y00375
Y0032
X00216499Y00320199
X00202499
X00181903Y00335402
X00158Y00349
X00154404Y00287402
X0019Y00286902
X00218Y00263
X00243814Y00248686
X00231999Y00180403
X00207999Y00194403
X001875Y00212613
X0017865Y00205
X0017Y00212613
Y001955
X0015Y0015
Y0014
Y0013
X0017865Y00125
X00207999Y00141999
X002225Y001425
X00202499Y00375516
X001875Y004205
Y004305
X0017575Y0043025
Y0042025
X00161Y00448
Y00462
X0018Y0047
X002
X0022
X002205Y00455
X00205Y004425
X00191Y0045
X0019Y00489
X0021
X0023
X0017
X001325Y004425
X003505Y00369
X00121Y00375
X00105Y00371
X00063563Y00369243
Y00350243
X00071063Y00335243
X0003Y0034
X0004Y0036
X00011Y00369
X0002Y0038
X00011Y0039
X0002Y004
X00011Y0041
Y0029
Y0027
Y0025
X0003Y00167246
Y0015
X0012Y00150484
Y00135
X001155Y0018
X0011676Y001955
Y002145
Y002305
Y002495
X00104Y00447998
Y00461998
X00098499Y00479999
X0008Y00489
T02
X00674072Y00168122
Y00180822
Y00193522
X00674072Y00206222
X00674072Y00218922
X00674072Y00231622
T03
X003365Y000273
X003619
X003873
Y000527
X003619
X003365
X004127Y000527
Y000273
X004381Y000273
Y000527
X004635Y000527
Y000273
X004739Y004473
Y004727
X004485
X004231
X003977
X003723Y004727
X003723Y004473
X003977Y004473
X004231
X004485
X003469
X003215
Y004727
X003469
X002961
Y004473
X000577Y003185
X000323Y003185
X000323Y002931
X000577
Y002677
X000323Y002677
X000323Y002423
Y002169
Y001915
X000577
X000577Y002169
X000577Y002423
T04
X0005Y0005
X007
Y0045
X0005
M30
