CAMtasticDXP Drill Report
Serial Number:0000-00-00000
Drill File: D:\Repository\PCB\Gerbers\BD81870rev0.0\Drill\cam.drl
Format: 2.4
Units: English (Inch)
Step & Repeat Codes Used: NO


TOOL		SIZE		COUNT
====		======		=====

 1 		0.0157		298
 2 		0.0276		6
 3 		0.0394		4
 4 		0.0551		6
 5 		0.1378		4
