LSM6DS0.c:40:6:Init_HW_I2C_LSM6DS0	8	static
LSM6DS0.c:47:13:I2C_GPIO_Init	40	static
LSM6DS0.c:72:13:Peripheral_I2C	8	static
LSM6DS0.c:112:13:LSM6DS0_IO_Write	40	static
LSM6DS0.c:123:16:LSM6DS0_IO_Read	40	static
LSM6DS0.c:138:6:LSM6DS0_ACCEL_Init_HRW	24	static
LSM6DS0.c:177:6:LSM6DS0_GYRO_Init_HRW	24	static
LSM6DS0.c:238:9:check_LSM6DS0_ID	16	static
LSM6DS0.c:249:6:LSM6DS0_Gyro_GetXYZ	24	static
LSM6DS0.c:271:6:LSM6DS0_Accel_GetXYZ	24	static
LSM6DS0.c:295:6:Init_LSM6DS0	24	static
LSM6DS0.c:330:6:LSM6DS0_Gyro_Calibration	24	static
LSM6DS0.c:355:6:LSM6DS0_Accel_Calibration	24	static
