Removed Pin From Net: NetName=MES_W Pin=R6-2
Removed Pin From Net: NetName=SENSE_VP Pin=R8-2
Removed Pin From Net: NetName=MPU_PHW Pin=XS3-13
Removed Pin From Net: NetName=MPU_POWER Pin=XS3-18
Added Pin To Net: NetName=SENSE_VP Pin=R6-2
Added Pin To Net: NetName=MES_W Pin=R8-2
Added Pin To Net: NetName=MPU_POWER Pin=XS3-13
Added Pin To Net: NetName=MPU_PHW Pin=XS3-18
Change Net Name : Old Net Name=MPU_PHW New Net Name=MPU_POWER
Change Net Name : Old Net Name=MPU_POWER New Net Name=MPU_PHW
