Removed Pin From Net: NetName=MES_U Pin=R2-2
Removed Pin From Net: NetName=MES_V Pin=R4-2
Removed Pin From Net: NetName=MPU_PHU Pin=XS3-12
Removed Pin From Net: NetName=MPU_PHV Pin=XS3-14
Added Pin To Net: NetName=MES_V Pin=R2-2
Added Pin To Net: NetName=MES_U Pin=R4-2
Added Pin To Net: NetName=MPU_PHV Pin=XS3-12
Added Pin To Net: NetName=MPU_PHU Pin=XS3-14
Change Net Name : Old Net Name=MPU_PHU New Net Name=MPU_PHV
Change Net Name : Old Net Name=MPU_PHV New Net Name=MPU_PHU
