RS485Prot.c:41:6:HAL_UART_RxCpltCallback	16	static
RS485Prot.c:49:6:HAL_UART_ErrorCallback	16	static
RS485Prot.c:58:6:RS485_RessiveData_Starthelper	8	static
RS485Prot.c:65:6:Set_ID_device	16	static
RS485Prot.c:72:6:UART_Init_HW	48	static
RS485Prot.c:123:6:Transmit_Packet	56	static
RS485Prot.c:144:17:RS485_checkId	16	static
RS485Prot.c:160:13:RS485_RessiveData_helper	16	static
RS485Prot.c:184:6:Get_RS485RxMessage	24	static
RS485Prot.c:191:10:RS485_rxPkgAvailable	4	static
RS485Prot.c:197:6:SetPkgAvailable	16	static
RS485Prot.c:204:10:Calculate_CRC16	24	static
RS485Prot.c:220:9:checkCRC16	24	static
