Removed Pin From Net: NetName=MCU_AIN5 Pin=DA7-1
Removed Pin From Net: NetName=MCU_AIN6 Pin=DA7-7
Removed Pin From Net: NetName=MCU_AIN6 Pin=R25-1
Removed Pin From Net: NetName=MCU_AIN5 Pin=R26-1
Added Pin To Net: NetName=MCU_AIN6 Pin=DA7-1
Added Pin To Net: NetName=MCU_AIN5 Pin=DA7-7
Added Pin To Net: NetName=MCU_AIN5 Pin=R25-1
Added Pin To Net: NetName=MCU_AIN6 Pin=R26-1
