mpu6050.c:39:13:mpu6050_I2C_HW_Init	40	static
mpu6050.c:96:9:MPU6050_Init	32	static
mpu6050.c:126:6:MPU6050_Read_Accel	48	static
mpu6050.c:144:6:MPU6050_Read_Gyro	48	static
mpu6050.c:165:6:MPU6050_Read_Temp	40	static
mpu6050.c:179:6:MPU6050_Read_All	112	static
mpu6050.c:229:8:Kalman_getAngle	88	static
mpu6050.c:260:9:GetId_mpu6050	32	static
