Added Component: Designator=VD1(DO-214AA)
Add component. Clean all parameters for all variants
Add component (AddParameter): Name = "Documentation"; Value = "https://static.chipdip.ru/lib/057/DOC000057299.pdf"; VariantName = "[No Variations]"
Add component (AddParameter): Name = "Manufacturer"; Value = "Diotec Semiconductor"; VariantName = "[No Variations]"
Add component (AddParameter): Name = "Package"; Value = "DO-214AA"; VariantName = "[No Variations]"
Add component (AddParameter): Name = "Part Number"; Value = "SK56"; VariantName = "[No Variations]"
Add component (AddParameter): Name = "Power"; Value = "5A,60V"; VariantName = "[No Variations]"
Add component (AddParameter): Name = "Price"; Value = "0,14"; VariantName = "[No Variations]"
Add component (AddParameter): Name = "Quantity"; Value = "1"; VariantName = "[No Variations]"
Add component (AddParameter): Name = "ShoppingPlace"; Value = "https://www.chipdip.by/product/sk56"; VariantName = "[No Variations]"
Add component (AddParameter): Name = "Tolerance"; Value = ""; VariantName = "[No Variations]"
Add component (AddParameter): Name = "Value"; Value = "SK56"; VariantName = "[No Variations]"
Added Pin To Net: NetName=SW Pin=VD1-1
Added Pin To Net: NetName=VCC_OUT Pin=VD1-2
Added Member To Class: ClassName=E3_P0 Member=Component VD1 SK56
