G04*
G04 #@! TF.GenerationSoftware,Altium Limited,Altium Designer,19.0.10 (269)*
G04*
G04 Layer_Physical_Order=2*
G04 Layer_Color=16711680*
%FSLAX24Y24*%
%MOIN*%
G70*
G01*
G75*
G04:AMPARAMS|DCode=54|XSize=78.7mil|YSize=110.2mil|CornerRadius=19.7mil|HoleSize=0mil|Usage=FLASHONLY|Rotation=180.000|XOffset=0mil|YOffset=0mil|HoleType=Round|Shape=RoundedRectangle|*
%AMROUNDEDRECTD54*
21,1,0.0787,0.0709,0,0,180.0*
21,1,0.0394,0.1102,0,0,180.0*
1,1,0.0394,-0.0197,0.0354*
1,1,0.0394,0.0197,0.0354*
1,1,0.0394,0.0197,-0.0354*
1,1,0.0394,-0.0197,-0.0354*
%
%ADD54ROUNDEDRECTD54*%
%ADD55R,0.0787X0.1102*%
%ADD56C,0.0551*%
%ADD57C,0.0787*%
%ADD58C,0.2559*%
%ADD59C,0.0315*%
G36*
X20819Y21422D02*
X20963Y21378D01*
X21096Y21307D01*
X21212Y21212D01*
X21307Y21096D01*
X21378Y20963D01*
X21422Y20819D01*
X21436Y20676D01*
X21435Y20669D01*
Y984D01*
X21436Y977D01*
X21422Y835D01*
X21378Y691D01*
X21307Y558D01*
X21212Y442D01*
X21096Y346D01*
X20963Y275D01*
X20819Y232D01*
X20676Y217D01*
X20669Y218D01*
X984D01*
X977Y217D01*
X835Y232D01*
X691Y275D01*
X558Y346D01*
X442Y442D01*
X346Y558D01*
X275Y691D01*
X232Y835D01*
X217Y977D01*
X218Y984D01*
X218Y20591D01*
X218Y20592D01*
X218Y20669D01*
X224Y20746D01*
X232Y20819D01*
X275Y20963D01*
X346Y21096D01*
X442Y21212D01*
X558Y21307D01*
X691Y21378D01*
X835Y21422D01*
X977Y21436D01*
X984Y21435D01*
X20669D01*
X20676Y21436D01*
X20819Y21422D01*
D02*
G37*
%LPC*%
G36*
X19685Y21165D02*
X19492Y21152D01*
X19302Y21114D01*
X19119Y21052D01*
X18945Y20966D01*
X18784Y20859D01*
X18639Y20731D01*
X18511Y20586D01*
X18404Y20425D01*
X18318Y20251D01*
X18256Y20068D01*
X18218Y19878D01*
X18205Y19685D01*
X18218Y19492D01*
X18256Y19302D01*
X18318Y19119D01*
X18404Y18945D01*
X18511Y18784D01*
X18639Y18639D01*
X18784Y18511D01*
X18945Y18404D01*
X19119Y18318D01*
X19302Y18256D01*
X19492Y18218D01*
X19685Y18205D01*
X19878Y18218D01*
X20068Y18256D01*
X20251Y18318D01*
X20425Y18404D01*
X20586Y18511D01*
X20731Y18639D01*
X20859Y18784D01*
X20966Y18945D01*
X21052Y19119D01*
X21114Y19302D01*
X21152Y19492D01*
X21165Y19685D01*
X21152Y19878D01*
X21114Y20068D01*
X21052Y20251D01*
X20966Y20425D01*
X20859Y20586D01*
X20731Y20731D01*
X20586Y20859D01*
X20425Y20966D01*
X20251Y21052D01*
X20068Y21114D01*
X19878Y21152D01*
X19685Y21165D01*
D02*
G37*
G36*
X1969D02*
X1775Y21152D01*
X1586Y21114D01*
X1402Y21052D01*
X1229Y20966D01*
X1068Y20859D01*
X922Y20731D01*
X795Y20586D01*
X687Y20425D01*
X602Y20251D01*
X539Y20068D01*
X502Y19878D01*
X489Y19685D01*
X502Y19492D01*
X539Y19302D01*
X602Y19119D01*
X687Y18945D01*
X795Y18784D01*
X922Y18639D01*
X1068Y18511D01*
X1229Y18404D01*
X1402Y18318D01*
X1586Y18256D01*
X1775Y18218D01*
X1969Y18205D01*
X2162Y18218D01*
X2351Y18256D01*
X2535Y18318D01*
X2708Y18404D01*
X2869Y18511D01*
X3015Y18639D01*
X3142Y18784D01*
X3250Y18945D01*
X3335Y19119D01*
X3398Y19302D01*
X3435Y19492D01*
X3448Y19685D01*
X3435Y19878D01*
X3398Y20068D01*
X3335Y20251D01*
X3250Y20425D01*
X3142Y20586D01*
X3015Y20731D01*
X2869Y20859D01*
X2708Y20966D01*
X2535Y21052D01*
X2351Y21114D01*
X2162Y21152D01*
X1969Y21165D01*
D02*
G37*
G36*
X16043Y18858D02*
X14862D01*
Y17362D01*
X16043D01*
Y18858D01*
D02*
G37*
G36*
X12008D02*
X10827D01*
Y17362D01*
X12008D01*
Y18858D01*
D02*
G37*
G36*
X8169D02*
X6988D01*
Y17362D01*
X8169D01*
Y18858D01*
D02*
G37*
G36*
X8907Y15781D02*
X8815Y15768D01*
X8729Y15733D01*
X8706Y15715D01*
X8683Y15733D01*
X8596Y15768D01*
X8504Y15781D01*
X8411Y15768D01*
X8325Y15733D01*
X8251Y15676D01*
X8194Y15602D01*
X8159Y15516D01*
X8147Y15423D01*
X8159Y15331D01*
X8194Y15245D01*
X8197Y15241D01*
X8194Y15238D01*
X8159Y15152D01*
X8147Y15059D01*
X8159Y14967D01*
X8194Y14880D01*
X8226Y14839D01*
Y10472D01*
X8226Y10472D01*
X8235Y10426D01*
X8261Y10387D01*
X8306Y10342D01*
X8306Y10341D01*
X8342Y10254D01*
X8399Y10180D01*
X8473Y10124D01*
X8559Y10088D01*
X8652Y10076D01*
X8744Y10088D01*
X8830Y10124D01*
X8853Y10141D01*
X8876Y10124D01*
X8963Y10088D01*
X9055Y10076D01*
X9148Y10088D01*
X9234Y10124D01*
X9308Y10180D01*
X9365Y10254D01*
X9400Y10341D01*
X9413Y10433D01*
X9400Y10526D01*
X9365Y10612D01*
X9351Y10630D01*
X9365Y10648D01*
X9400Y10734D01*
X9413Y10827D01*
X9400Y10919D01*
X9365Y11005D01*
X9308Y11079D01*
X9234Y11136D01*
X9176Y11160D01*
Y14826D01*
X9217Y14880D01*
X9253Y14967D01*
X9265Y15059D01*
X9253Y15152D01*
X9217Y15238D01*
X9214Y15241D01*
X9217Y15245D01*
X9253Y15331D01*
X9265Y15423D01*
X9253Y15516D01*
X9217Y15602D01*
X9160Y15676D01*
X9086Y15733D01*
X9000Y15768D01*
X8907Y15781D01*
D02*
G37*
G36*
X13337Y13152D02*
X13221Y13141D01*
X13110Y13107D01*
X13007Y13052D01*
X12917Y12979D01*
X12843Y12889D01*
X12788Y12786D01*
X12755Y12675D01*
X12743Y12559D01*
X12755Y12443D01*
X12788Y12332D01*
X12843Y12229D01*
X12917Y12139D01*
X13007Y12066D01*
X13110Y12011D01*
X13221Y11977D01*
X13337Y11966D01*
X13452Y11977D01*
X13564Y12011D01*
X13666Y12066D01*
X13756Y12139D01*
X13830Y12229D01*
X13885Y12332D01*
X13919Y12443D01*
X13930Y12559D01*
X13919Y12675D01*
X13885Y12786D01*
X13830Y12889D01*
X13756Y12979D01*
X13666Y13052D01*
X13564Y13107D01*
X13452Y13141D01*
X13337Y13152D01*
D02*
G37*
G36*
X13898Y14245D02*
X13805Y14233D01*
X13761Y14215D01*
X13740D01*
X13694Y14206D01*
X13655Y14180D01*
X13629Y14141D01*
X13623Y14112D01*
X13588Y14066D01*
X13552Y13980D01*
X13540Y13888D01*
X13552Y13795D01*
X13588Y13709D01*
X13645Y13635D01*
X13719Y13578D01*
X13741Y13569D01*
X13962Y13348D01*
X13967Y13335D01*
X14024Y13261D01*
X14098Y13204D01*
X14111Y13199D01*
X14368Y12942D01*
Y10249D01*
X14289Y10229D01*
X14283Y10241D01*
X14209Y10331D01*
X14119Y10405D01*
X14016Y10460D01*
X13905Y10493D01*
X13789Y10505D01*
X13730Y10499D01*
X13715Y10577D01*
X13770Y10593D01*
X13873Y10648D01*
X13963Y10722D01*
X14037Y10812D01*
X14092Y10915D01*
X14125Y11026D01*
X14137Y11142D01*
X14125Y11257D01*
X14092Y11369D01*
X14037Y11471D01*
X13963Y11561D01*
X13873Y11635D01*
X13770Y11690D01*
X13659Y11724D01*
X13543Y11735D01*
X13428Y11724D01*
X13316Y11690D01*
X13214Y11635D01*
X13124Y11561D01*
X13050Y11471D01*
X12995Y11369D01*
X12961Y11257D01*
X12950Y11142D01*
X12961Y11026D01*
X12995Y10915D01*
X13050Y10812D01*
X13124Y10722D01*
X13214Y10648D01*
X13316Y10593D01*
X13428Y10560D01*
X13543Y10548D01*
X13603Y10554D01*
X13618Y10477D01*
X13562Y10460D01*
X13460Y10405D01*
X13370Y10331D01*
X13296Y10241D01*
X13241Y10138D01*
X13207Y10027D01*
X13196Y9911D01*
X13207Y9796D01*
X13241Y9684D01*
X13296Y9582D01*
X13370Y9492D01*
X13460Y9418D01*
X13562Y9363D01*
X13674Y9329D01*
X13789Y9318D01*
X13905Y9329D01*
X14016Y9363D01*
X14119Y9418D01*
X14209Y9492D01*
X14283Y9582D01*
X14289Y9593D01*
X14368Y9574D01*
Y8979D01*
X14289Y8960D01*
X14283Y8971D01*
X14209Y9061D01*
X14119Y9135D01*
X14016Y9190D01*
X13905Y9224D01*
X13789Y9235D01*
X13674Y9224D01*
X13562Y9190D01*
X13460Y9135D01*
X13370Y9061D01*
X13296Y8971D01*
X13241Y8869D01*
X13207Y8758D01*
X13196Y8642D01*
X13207Y8526D01*
X13241Y8415D01*
X13296Y8312D01*
X13370Y8222D01*
X13460Y8148D01*
X13562Y8093D01*
X13674Y8060D01*
X13789Y8048D01*
X13905Y8060D01*
X14016Y8093D01*
X14119Y8148D01*
X14209Y8222D01*
X14283Y8312D01*
X14289Y8324D01*
X14368Y8304D01*
Y8199D01*
X14045Y7876D01*
X14012D01*
X14004Y7883D01*
X13922Y7927D01*
X13833Y7954D01*
X13740Y7963D01*
X13648Y7954D01*
X13558Y7927D01*
X13476Y7883D01*
X13404Y7824D01*
X13345Y7752D01*
X13302Y7670D01*
X13275Y7581D01*
X13265Y7488D01*
X13275Y7396D01*
X13302Y7307D01*
X13345Y7224D01*
X13404Y7153D01*
X13476Y7093D01*
X13558Y7050D01*
X13648Y7023D01*
X13740Y7013D01*
X13833Y7023D01*
X13922Y7050D01*
X13987Y7084D01*
X14409D01*
X14409Y7084D01*
X14456Y7093D01*
X14495Y7120D01*
X14495Y7120D01*
X15085Y7710D01*
X15111Y7749D01*
X15120Y7795D01*
X15120Y7795D01*
Y12234D01*
X15164Y12277D01*
X15190Y12316D01*
X15199Y12362D01*
X15199Y12362D01*
Y13583D01*
X15190Y13629D01*
X15164Y13668D01*
X14652Y14180D01*
X14613Y14206D01*
X14567Y14215D01*
X14567Y14215D01*
X14034D01*
X13990Y14233D01*
X13898Y14245D01*
D02*
G37*
G36*
X4913Y8168D02*
X4821Y8159D01*
X4732Y8131D01*
X4650Y8088D01*
X4578Y8029D01*
X4519Y7957D01*
X4475Y7875D01*
X4448Y7786D01*
X4439Y7693D01*
X4448Y7600D01*
X4475Y7511D01*
X4519Y7429D01*
X4578Y7357D01*
X4650Y7298D01*
X4732Y7254D01*
X4821Y7227D01*
X4913Y7218D01*
X5006Y7227D01*
X5095Y7254D01*
X5177Y7298D01*
X5249Y7357D01*
X5308Y7429D01*
X5352Y7511D01*
X5379Y7600D01*
X5388Y7693D01*
X5379Y7786D01*
X5352Y7875D01*
X5308Y7957D01*
X5249Y8029D01*
X5177Y8088D01*
X5095Y8131D01*
X5006Y8159D01*
X4913Y8168D01*
D02*
G37*
G36*
X18740Y7963D02*
X18648Y7954D01*
X18558Y7927D01*
X18476Y7883D01*
X18404Y7824D01*
X18345Y7752D01*
X18302Y7670D01*
X18275Y7581D01*
X18265Y7488D01*
X18275Y7396D01*
X18302Y7307D01*
X18345Y7224D01*
X18404Y7153D01*
X18476Y7093D01*
X18558Y7050D01*
X18648Y7023D01*
X18740Y7013D01*
X18833Y7023D01*
X18922Y7050D01*
X19004Y7093D01*
X19076Y7153D01*
X19135Y7224D01*
X19179Y7307D01*
X19206Y7396D01*
X19215Y7488D01*
X19206Y7581D01*
X19179Y7670D01*
X19135Y7752D01*
X19076Y7824D01*
X19004Y7883D01*
X18922Y7927D01*
X18833Y7954D01*
X18740Y7963D01*
D02*
G37*
G36*
X7913Y7168D02*
X7821Y7159D01*
X7732Y7132D01*
X7650Y7088D01*
X7578Y7029D01*
X7519Y6957D01*
X7475Y6875D01*
X7448Y6786D01*
X7439Y6693D01*
X7448Y6600D01*
X7475Y6511D01*
X7519Y6429D01*
X7578Y6357D01*
X7650Y6298D01*
X7732Y6254D01*
X7821Y6227D01*
X7913Y6218D01*
X8006Y6227D01*
X8095Y6254D01*
X8177Y6298D01*
X8249Y6357D01*
X8308Y6429D01*
X8352Y6511D01*
X8379Y6600D01*
X8388Y6693D01*
X8379Y6786D01*
X8352Y6875D01*
X8308Y6957D01*
X8249Y7029D01*
X8177Y7088D01*
X8095Y7132D01*
X8006Y7159D01*
X7913Y7168D01*
D02*
G37*
G36*
X2913D02*
X2821Y7159D01*
X2732Y7132D01*
X2650Y7088D01*
X2578Y7029D01*
X2519Y6957D01*
X2475Y6875D01*
X2448Y6786D01*
X2439Y6693D01*
X2448Y6600D01*
X2475Y6511D01*
X2519Y6429D01*
X2578Y6357D01*
X2650Y6298D01*
X2732Y6254D01*
X2821Y6227D01*
X2913Y6218D01*
X3006Y6227D01*
X3095Y6254D01*
X3177Y6298D01*
X3249Y6357D01*
X3308Y6429D01*
X3352Y6511D01*
X3379Y6600D01*
X3388Y6693D01*
X3379Y6786D01*
X3352Y6875D01*
X3308Y6957D01*
X3249Y7029D01*
X3177Y7088D01*
X3095Y7132D01*
X3006Y7159D01*
X2913Y7168D01*
D02*
G37*
G36*
X16740Y6963D02*
X16648Y6954D01*
X16558Y6927D01*
X16476Y6883D01*
X16404Y6824D01*
X16345Y6752D01*
X16302Y6670D01*
X16275Y6581D01*
X16265Y6488D01*
X16275Y6396D01*
X16302Y6307D01*
X16345Y6224D01*
X16404Y6153D01*
X16476Y6093D01*
X16558Y6050D01*
X16648Y6023D01*
X16740Y6013D01*
X16833Y6023D01*
X16922Y6050D01*
X17004Y6093D01*
X17076Y6153D01*
X17135Y6224D01*
X17179Y6307D01*
X17206Y6396D01*
X17215Y6488D01*
X17206Y6581D01*
X17179Y6670D01*
X17135Y6752D01*
X17076Y6824D01*
X17004Y6883D01*
X16922Y6927D01*
X16833Y6954D01*
X16740Y6963D01*
D02*
G37*
G36*
X19685Y3448D02*
X19492Y3435D01*
X19302Y3398D01*
X19119Y3335D01*
X18945Y3250D01*
X18784Y3142D01*
X18639Y3015D01*
X18511Y2869D01*
X18404Y2708D01*
X18318Y2535D01*
X18256Y2351D01*
X18218Y2162D01*
X18205Y1969D01*
X18218Y1775D01*
X18256Y1586D01*
X18318Y1402D01*
X18404Y1229D01*
X18511Y1068D01*
X18639Y922D01*
X18784Y795D01*
X18945Y687D01*
X19119Y602D01*
X19302Y539D01*
X19492Y502D01*
X19685Y489D01*
X19878Y502D01*
X20068Y539D01*
X20251Y602D01*
X20425Y687D01*
X20586Y795D01*
X20731Y922D01*
X20859Y1068D01*
X20966Y1229D01*
X21052Y1402D01*
X21114Y1586D01*
X21152Y1775D01*
X21165Y1969D01*
X21152Y2162D01*
X21114Y2351D01*
X21052Y2535D01*
X20966Y2708D01*
X20859Y2869D01*
X20731Y3015D01*
X20586Y3142D01*
X20425Y3250D01*
X20251Y3335D01*
X20068Y3398D01*
X19878Y3435D01*
X19685Y3448D01*
D02*
G37*
G36*
X1969Y3448D02*
X1775Y3435D01*
X1586Y3398D01*
X1402Y3335D01*
X1229Y3250D01*
X1068Y3142D01*
X922Y3015D01*
X795Y2869D01*
X687Y2708D01*
X602Y2535D01*
X539Y2351D01*
X502Y2162D01*
X489Y1969D01*
X502Y1775D01*
X539Y1586D01*
X602Y1402D01*
X687Y1229D01*
X795Y1068D01*
X922Y922D01*
X1068Y795D01*
X1229Y687D01*
X1402Y602D01*
X1586Y539D01*
X1775Y502D01*
X1969Y489D01*
X2162Y502D01*
X2351Y539D01*
X2535Y602D01*
X2708Y687D01*
X2869Y795D01*
X3015Y922D01*
X3142Y1068D01*
X3250Y1229D01*
X3335Y1402D01*
X3398Y1586D01*
X3435Y1775D01*
X3448Y1969D01*
X3435Y2162D01*
X3398Y2351D01*
X3335Y2535D01*
X3250Y2708D01*
X3142Y2869D01*
X3015Y3015D01*
X2869Y3142D01*
X2708Y3250D01*
X2535Y3335D01*
X2351Y3398D01*
X2162Y3435D01*
X1969Y3448D01*
D02*
G37*
%LPD*%
G36*
X9055Y11063D02*
X9213Y10906D01*
Y10276D01*
X8543D01*
X8346Y10472D01*
Y15591D01*
X9055D01*
Y11063D01*
D02*
G37*
G36*
X15079Y13583D02*
Y12362D01*
X15000Y12283D01*
Y7795D01*
X14409Y7205D01*
X13622D01*
X13465Y7362D01*
Y7638D01*
X13583Y7756D01*
X14094D01*
X14488Y8150D01*
Y12992D01*
X13740Y13740D01*
Y14094D01*
X14567D01*
X15079Y13583D01*
D02*
G37*
D54*
X14075Y18110D02*
D03*
X10039D02*
D03*
X6201D02*
D03*
D55*
X15453D02*
D03*
X11417D02*
D03*
X7579D02*
D03*
D56*
X7913Y6693D02*
D03*
X2913D02*
D03*
X4913Y7693D02*
D03*
X13740Y7488D02*
D03*
X18740D02*
D03*
X16740Y6488D02*
D03*
D57*
X13337Y12559D02*
D03*
X13543Y11142D02*
D03*
X13789Y9911D02*
D03*
Y8642D02*
D03*
D58*
X1969Y19685D02*
D03*
X19685D02*
D03*
Y1969D02*
D03*
X1969Y1969D02*
D03*
D59*
X20079Y15354D02*
D03*
Y10630D02*
D03*
Y5906D02*
D03*
X18898Y12992D02*
D03*
X16535Y17717D02*
D03*
Y12992D02*
D03*
Y8268D02*
D03*
X15354Y5906D02*
D03*
X16535Y3543D02*
D03*
X12992Y5906D02*
D03*
X14173Y3543D02*
D03*
X10630Y5906D02*
D03*
X11811Y3543D02*
D03*
X9449Y8268D02*
D03*
X8268Y5906D02*
D03*
X9449Y3543D02*
D03*
X5906Y5906D02*
D03*
X7087Y3543D02*
D03*
X4724Y17717D02*
D03*
X3543Y15354D02*
D03*
Y10630D02*
D03*
X4724Y3543D02*
D03*
X2362Y12992D02*
D03*
Y8268D02*
D03*
X13898Y13888D02*
D03*
X20669Y18307D02*
D03*
X20965Y17717D02*
D03*
X20669Y17126D02*
D03*
X20965Y16535D02*
D03*
X20669Y15945D02*
D03*
X20965Y15354D02*
D03*
X20669Y14764D02*
D03*
X20965Y14173D02*
D03*
X20669Y13583D02*
D03*
X20965Y12992D02*
D03*
X20669Y12402D02*
D03*
X20965Y11811D02*
D03*
X20669Y11220D02*
D03*
X20965Y10630D02*
D03*
X20669Y10039D02*
D03*
X20965Y9449D02*
D03*
X20669Y8858D02*
D03*
X20965Y8268D02*
D03*
X20669Y7677D02*
D03*
X20965Y7087D02*
D03*
X20669Y6496D02*
D03*
X20965Y5906D02*
D03*
X20669Y5315D02*
D03*
X20965Y4724D02*
D03*
X20669Y4134D02*
D03*
X20965Y3543D02*
D03*
X20669Y591D02*
D03*
X20374Y17717D02*
D03*
X20079Y17126D02*
D03*
X20374Y16535D02*
D03*
X20079Y15945D02*
D03*
Y14764D02*
D03*
X20374Y14173D02*
D03*
X20079Y13583D02*
D03*
X20374Y12992D02*
D03*
X20079Y12402D02*
D03*
X20374Y11811D02*
D03*
X20079Y11220D02*
D03*
Y10039D02*
D03*
X20374Y9449D02*
D03*
X20079Y8858D02*
D03*
X20374Y8268D02*
D03*
X20079Y7677D02*
D03*
X20374Y7087D02*
D03*
X20079Y6496D02*
D03*
Y5315D02*
D03*
X20374Y4724D02*
D03*
X20079Y4134D02*
D03*
X20374Y3543D02*
D03*
X19193D02*
D03*
X18307Y20669D02*
D03*
Y2953D02*
D03*
Y591D02*
D03*
X17717Y20669D02*
D03*
X18012Y20079D02*
D03*
Y2362D02*
D03*
X17717Y1772D02*
D03*
Y591D02*
D03*
X17126Y20669D02*
D03*
X17421Y20079D02*
D03*
X17126Y1772D02*
D03*
X17421Y1181D02*
D03*
X17126Y591D02*
D03*
X16535Y20669D02*
D03*
X16831Y20079D02*
D03*
X16535Y1772D02*
D03*
X16831Y1181D02*
D03*
X16535Y591D02*
D03*
X15945Y20669D02*
D03*
X16240Y20079D02*
D03*
X15945Y1772D02*
D03*
X16240Y1181D02*
D03*
X15945Y591D02*
D03*
X15354Y20669D02*
D03*
X15650Y20079D02*
D03*
X15354Y1772D02*
D03*
X15650Y1181D02*
D03*
X15354Y591D02*
D03*
X14764Y20669D02*
D03*
X15059Y20079D02*
D03*
X14764Y1772D02*
D03*
X15059Y1181D02*
D03*
X14764Y591D02*
D03*
X14173Y20669D02*
D03*
X14468Y20079D02*
D03*
X14173Y1772D02*
D03*
X14468Y1181D02*
D03*
X14173Y591D02*
D03*
X13583Y20669D02*
D03*
X13878Y20079D02*
D03*
X13583Y1772D02*
D03*
X13878Y1181D02*
D03*
X13583Y591D02*
D03*
X12992Y20669D02*
D03*
X13287Y20079D02*
D03*
X12992Y1772D02*
D03*
X13287Y1181D02*
D03*
X12992Y591D02*
D03*
X12402Y20669D02*
D03*
X12697Y20079D02*
D03*
X12402Y1772D02*
D03*
X12697Y1181D02*
D03*
X12402Y591D02*
D03*
X11811Y20669D02*
D03*
X12106Y20079D02*
D03*
X11811Y1772D02*
D03*
X12106Y1181D02*
D03*
X11811Y591D02*
D03*
X11220Y20669D02*
D03*
X11516Y20079D02*
D03*
X11220Y1772D02*
D03*
X11516Y1181D02*
D03*
X11220Y591D02*
D03*
X10630Y20669D02*
D03*
X10925Y20079D02*
D03*
X10630Y1772D02*
D03*
X10925Y1181D02*
D03*
X10630Y591D02*
D03*
X10039Y20669D02*
D03*
X10335Y20079D02*
D03*
X10039Y1772D02*
D03*
X10335Y1181D02*
D03*
X10039Y591D02*
D03*
X9449Y20669D02*
D03*
X9744Y20079D02*
D03*
X9449Y1772D02*
D03*
X9744Y1181D02*
D03*
X9449Y591D02*
D03*
X8858Y20669D02*
D03*
X9154Y20079D02*
D03*
X8858Y1772D02*
D03*
X9154Y1181D02*
D03*
X8858Y591D02*
D03*
X8268Y20669D02*
D03*
X8563Y20079D02*
D03*
X8268Y1772D02*
D03*
X8563Y1181D02*
D03*
X8268Y591D02*
D03*
X7677Y20669D02*
D03*
X7972Y20079D02*
D03*
X7677Y1772D02*
D03*
X7972Y1181D02*
D03*
X7677Y591D02*
D03*
X7087Y20669D02*
D03*
X7382Y20079D02*
D03*
X7087Y1772D02*
D03*
X7382Y1181D02*
D03*
X7087Y591D02*
D03*
X6496Y20669D02*
D03*
X6791Y20079D02*
D03*
X6496Y1772D02*
D03*
X6791Y1181D02*
D03*
X6496Y591D02*
D03*
X5906Y20669D02*
D03*
X6201Y20079D02*
D03*
X5906Y1772D02*
D03*
X6201Y1181D02*
D03*
X5906Y591D02*
D03*
X5315Y20669D02*
D03*
X5610Y20079D02*
D03*
X5315Y1772D02*
D03*
X5610Y1181D02*
D03*
X5315Y591D02*
D03*
X4724Y20669D02*
D03*
X5020Y20079D02*
D03*
X4724Y1772D02*
D03*
X5020Y1181D02*
D03*
X4724Y591D02*
D03*
X4134Y20669D02*
D03*
X4429Y20079D02*
D03*
X4134Y1772D02*
D03*
X4429Y1181D02*
D03*
X4134Y591D02*
D03*
X3543Y20669D02*
D03*
X2953Y18307D02*
D03*
Y591D02*
D03*
X2657Y3543D02*
D03*
X1772Y17126D02*
D03*
Y15945D02*
D03*
Y14764D02*
D03*
Y13583D02*
D03*
Y12402D02*
D03*
Y11220D02*
D03*
Y10039D02*
D03*
Y8858D02*
D03*
Y7677D02*
D03*
Y6496D02*
D03*
Y5315D02*
D03*
Y4134D02*
D03*
X1476Y17717D02*
D03*
X1181Y17126D02*
D03*
X1476Y16535D02*
D03*
X1181Y15945D02*
D03*
X1476Y15354D02*
D03*
X1181Y14764D02*
D03*
X1476Y14173D02*
D03*
X1181Y13583D02*
D03*
X1476Y12992D02*
D03*
X1181Y12402D02*
D03*
X1476Y11811D02*
D03*
X1181Y11220D02*
D03*
X1476Y10630D02*
D03*
X1181Y10039D02*
D03*
X1476Y9449D02*
D03*
X1181Y8858D02*
D03*
X1476Y8268D02*
D03*
X1181Y7677D02*
D03*
X1476Y7087D02*
D03*
X1181Y6496D02*
D03*
X1476Y5906D02*
D03*
X1181Y5315D02*
D03*
X1476Y4724D02*
D03*
X1181Y4134D02*
D03*
X1476Y3543D02*
D03*
X591Y20669D02*
D03*
Y18307D02*
D03*
X886Y17717D02*
D03*
X591Y17126D02*
D03*
X886Y16535D02*
D03*
X591Y15945D02*
D03*
X886Y15354D02*
D03*
X591Y14764D02*
D03*
X886Y14173D02*
D03*
X591Y13583D02*
D03*
X886Y12992D02*
D03*
X591Y12402D02*
D03*
X886Y11811D02*
D03*
X591Y11220D02*
D03*
X886Y10630D02*
D03*
X591Y10039D02*
D03*
X886Y9449D02*
D03*
X591Y8858D02*
D03*
X886Y8268D02*
D03*
X591Y7677D02*
D03*
X886Y7087D02*
D03*
X591Y6496D02*
D03*
X886Y5906D02*
D03*
X591Y5315D02*
D03*
X886Y4724D02*
D03*
X591Y4134D02*
D03*
X886Y3543D02*
D03*
X591Y2953D02*
D03*
Y591D02*
D03*
X14277Y13514D02*
D03*
X9449Y12603D02*
D03*
Y12997D02*
D03*
X10236Y12603D02*
D03*
Y12997D02*
D03*
Y13386D02*
D03*
Y13780D02*
D03*
Y14173D02*
D03*
X9843Y12603D02*
D03*
Y12997D02*
D03*
X9449Y13386D02*
D03*
Y13780D02*
D03*
Y14173D02*
D03*
X9843D02*
D03*
Y13780D02*
D03*
Y13386D02*
D03*
X8907Y15059D02*
D03*
X8504D02*
D03*
X8907Y15423D02*
D03*
X8504D02*
D03*
X8652Y10827D02*
D03*
Y10433D02*
D03*
X9055D02*
D03*
Y10827D02*
D03*
X1969Y17771D02*
D03*
X3937Y19685D02*
D03*
X17717D02*
D03*
X19685Y17717D02*
D03*
X18012Y984D02*
D03*
X3642D02*
D03*
M02*
