M48
;Layer_Color=9474304
;FILE_FORMAT=2:4
INCH,LZ
;TYPE=PLATED
T1F00S00C0.0157
T2F00S00C0.0276
T3F00S00C0.0394
T4F00S00C0.0551
T5F00S00C0.1378
%
T01
X000591Y000591
X002953
X003642Y000984
X004134Y000591
X004724
X004429Y001181
X004134Y001772
X004724
X004724Y003543
X002657Y003543
X001476
X000886
X000591Y004134
X001181
X001772
X001476Y004724
X000886
X000591Y002953
X005315Y001772
X005906
X006496
X007087
X007677
X008268
X008858
X009449
X010039
X01063
X01122
X011811
X012402
X012992
X013583
X014173
X014764
X015354
X015945
X016535
X017126
X017717
X018012Y002362
X018307Y002953
X019193Y003543
X020374
X020079Y004134
X020374Y004724
X016535Y003543
X014173
X011811
X009449
X007087
X007382Y001181
X007972
X008563
X009154
X009744
X010335
X010925
X011516
X012106
X012697
X013287
X013878
X014468
X015059
X01565
X01624
X016831
X017421
X018012Y000984
X018307Y000591
X017717
X017126
X016535
X015945
X015354
X014764
X014173
X013583
X012992
X012402
X011811
X01122
X01063
X010039
X009449
X008858
X008268
X007677
X007087
X006496
X005906
X005315
X00561Y001181
X006201
X006791
X00502
X020669Y000591
X020965Y003543
X020669Y004134
X020965Y004724
X020669Y005315
X020965Y005906
X020669Y006496
X020965Y007087
X020669Y007677
X020965Y008268
X020669Y008858
X020965Y009449
X020669Y010039
X020965Y01063
X020669Y01122
X020965Y011811
X020669Y012402
X020965Y012992
X020669Y013583
X020965Y014173
X020669Y014764
X020965Y015354
X020669Y015945
X020965Y016535
X020669Y017126
X020965Y017717
X020669Y018307
X020374Y017717
X019685Y017717
X020079Y017126
X020374Y016535
X020079Y015945
X020079Y015354
X020079Y014764
X020374Y014173
X020079Y013583
X020374Y012992
X020079Y012402
X020374Y011811
X020079Y01122
X020079Y01063
X020079Y010039
X020374Y009449
X020079Y008858
X020374Y008268
X020079Y007677
X020374Y007087
X020079Y006496
X020079Y005906
X020079Y005315
X015354Y005906
X012992
X01063
X008268
X005906
X009449Y008268
X009055Y010433
Y010827
X008652
Y010433
X009449Y012603
Y012997
Y013386
Y01378
Y014173
X009843
X010236
Y01378
Y013386
Y012997
Y012603
X009843
Y012997
Y013386
Y01378
X008907Y015059
Y015423
X008504
Y015059
X008563Y020079
X009154
X009744
X010335
X010925
X011516
X012106
X012697
X013287
X013878
X014468
X015059
X01565
X01624
X016831
X017421
X018012
X017717Y019685
X016535Y017717
Y012992
X018898
X014277Y013514
X013898Y013888
X016535Y008268
X007972Y020079
X007382
X006791
X006201
X00561
X00502
X004429
X003937Y019685
X002953Y018307
X001969Y017771
X001476Y017717
X000886
X000591Y018307
Y017126
X001181
X001772
X001476Y016535
X000886
X000591Y015945
X001181
X001772
X001476Y015354
X000886
X000591Y014764
X001181
X001772
X001476Y014173
X000886
X000591Y013583
X001181
X001772
X001476Y012992
X000886
X000591Y012402
X001181
X001772
X001476Y011811
X000886
X000591Y01122
X001181
X001772
X001476Y01063
X000886
X000591Y010039
X001181
X001772
X001476Y009449
X000886
X000591Y008858
X001181
X001772
X001476Y008268
X000886
X000591Y007677
X001181
X001772
X001476Y007087
X000886
X000591Y006496
X001181
X001772
X001476Y005906
X000886
X000591Y005315
X001181
X001772
X002362Y008268
X003543Y01063
X002362Y012992
X003543Y015354
X004724Y017717
X004724Y020669
X004134
X003543
X000591
X005315
X005906
X006496
X007087
X007677
X008268
X008858
X009449
X010039
X01063
X01122
X011811
X012402
X012992
X013583
X014173
X014764
X015354
X015945
X016535
X017126
X017717
X018307
T02
X007913Y006693
X01374Y007488
X01674Y006488
X01874Y007488
X004913Y007693
X002913Y006693
T03
X013789Y008642
Y009911
X013543Y011142
X013337Y012559
T04
X006201Y01811
X007579
X010039
X011417
X014075
X015453
T05
X001969Y001969
X019685Y001969
Y019685
X001969
M30
