Removed Pin From Net: NetName=PWMC_EXT_P Pin=XP1-1
Removed Pin From Net: NetName=PWMC_EXT_N Pin=XP1-2
Removed Pin From Net: NetName=PWMA_EXT_P Pin=XP1-5
Removed Pin From Net: NetName=PWMA_EXT_N Pin=XP1-6
Added Pin To Net: NetName=PWMA_EXT_P Pin=XP1-1
Added Pin To Net: NetName=PWMA_EXT_N Pin=XP1-2
Added Pin To Net: NetName=PWMC_EXT_P Pin=XP1-5
Added Pin To Net: NetName=PWMC_EXT_N Pin=XP1-6
