Removed Pin From Net: NetName=MCU_OUT4 Pin=DD3-13
Removed Pin From Net: NetName=MCU_OUT3 Pin=DD3-14
Removed Pin From Net: NetName=MCU_OUT2 Pin=DD3-15
Removed Pin From Net: NetName=MCU_OUT1 Pin=DD3-16
Removed Pin From Net: NetName=MCU_IN2 Pin=DD3-17
Removed Pin From Net: NetName=MCU_IN1 Pin=DD3-18
Removed Pin From Net: NetName=MCU_IN3 Pin=DD3-23
Removed Pin From Net: NetName=MCU_IN4 Pin=DD3-24
Added Pin To Net: NetName=MCU_IN2 Pin=DD3-13
Added Pin To Net: NetName=MCU_IN1 Pin=DD3-14
Added Pin To Net: NetName=MCU_IN3 Pin=DD3-15
Added Pin To Net: NetName=MCU_IN4 Pin=DD3-16
Added Pin To Net: NetName=MCU_OUT1 Pin=DD3-17
Added Pin To Net: NetName=MCU_OUT2 Pin=DD3-18
Added Pin To Net: NetName=MCU_OUT3 Pin=DD3-23
Added Pin To Net: NetName=MCU_OUT4 Pin=DD3-24
