G04*
G04 #@! TF.GenerationSoftware,Altium Limited,Altium Designer,19.0.10 (269)*
G04*
G04 Layer_Physical_Order=2*
G04 Layer_Color=16711680*
%FSLAX25Y25*%
%MOIN*%
G70*
G01*
G75*
%ADD60C,0.07874*%
%ADD61R,0.11024X0.07874*%
G04:AMPARAMS|DCode=62|XSize=78.74mil|YSize=110.24mil|CornerRadius=19.68mil|HoleSize=0mil|Usage=FLASHONLY|Rotation=90.000|XOffset=0mil|YOffset=0mil|HoleType=Round|Shape=RoundedRectangle|*
%AMROUNDEDRECTD62*
21,1,0.07874,0.07087,0,0,90.0*
21,1,0.03937,0.11024,0,0,90.0*
1,1,0.03937,0.03543,0.01968*
1,1,0.03937,0.03543,-0.01968*
1,1,0.03937,-0.03543,-0.01968*
1,1,0.03937,-0.03543,0.01968*
%
%ADD62ROUNDEDRECTD62*%
%ADD63O,0.08268X0.11024*%
%ADD64O,0.09843X0.04724*%
%ADD65R,0.09843X0.04724*%
%ADD66O,0.07087X0.11811*%
%ADD67O,0.08268X0.05906*%
G04:AMPARAMS|DCode=68|XSize=59.06mil|YSize=82.68mil|CornerRadius=14.76mil|HoleSize=0mil|Usage=FLASHONLY|Rotation=90.000|XOffset=0mil|YOffset=0mil|HoleType=Round|Shape=RoundedRectangle|*
%AMROUNDEDRECTD68*
21,1,0.05906,0.05315,0,0,90.0*
21,1,0.02953,0.08268,0,0,90.0*
1,1,0.02953,0.02657,0.01476*
1,1,0.02953,0.02657,-0.01476*
1,1,0.02953,-0.02657,-0.01476*
1,1,0.02953,-0.02657,0.01476*
%
%ADD68ROUNDEDRECTD68*%
%ADD69C,0.25591*%
%ADD70O,0.09449X0.07874*%
%ADD71C,0.03150*%
G36*
X9843Y194666D02*
X16042D01*
X16119Y193879D01*
X15754Y193806D01*
X13872Y193168D01*
X12090Y192289D01*
X10438Y191185D01*
X8944Y189875D01*
X7634Y188381D01*
X6530Y186729D01*
X5651Y184947D01*
X5013Y183065D01*
X4625Y181117D01*
X4495Y179134D01*
X4625Y177151D01*
X5013Y175202D01*
X5651Y173321D01*
X6530Y171539D01*
X7634Y169887D01*
X8944Y168393D01*
X10438Y167083D01*
X12090Y165979D01*
X13872Y165100D01*
X15754Y164462D01*
X17702Y164074D01*
X19685Y163944D01*
X21668Y164074D01*
X23617Y164462D01*
X25498Y165100D01*
X27280Y165979D01*
X28932Y167083D01*
X30426Y168393D01*
X31736Y169887D01*
X32840Y171539D01*
X33719Y173321D01*
X34357Y175202D01*
X34745Y177151D01*
X34875Y179134D01*
X34745Y181117D01*
X34357Y183065D01*
X33719Y184947D01*
X32840Y186729D01*
X31736Y188381D01*
X30426Y189875D01*
X28932Y191185D01*
X27280Y192289D01*
X25498Y193168D01*
X23617Y193806D01*
X23251Y193879D01*
X23328Y194666D01*
X126397D01*
X131693Y189370D01*
Y185039D01*
X119193D01*
Y175591D01*
X131693D01*
Y119522D01*
X130958Y119312D01*
X130905Y119316D01*
X130180Y120200D01*
X129281Y120938D01*
X128255Y121486D01*
X127142Y121824D01*
X125984Y121938D01*
X124827Y121824D01*
X123713Y121486D01*
X122687Y120938D01*
X121788Y120200D01*
X121050Y119301D01*
X120502Y118275D01*
X120164Y117162D01*
X120050Y116004D01*
Y111279D01*
X120164Y110122D01*
X120502Y109009D01*
X121050Y107983D01*
X121788Y107083D01*
X122687Y106345D01*
X123713Y105797D01*
X124827Y105459D01*
X125984Y105345D01*
X127142Y105459D01*
X128255Y105797D01*
X129281Y106345D01*
X130180Y107083D01*
X130905Y107967D01*
X130958Y107971D01*
X131693Y107762D01*
Y68996D01*
X120276Y57579D01*
Y2184D01*
X9843D01*
X9772Y2175D01*
X8345Y2315D01*
X6905Y2752D01*
X5579Y3461D01*
X4416Y4416D01*
X3461Y5579D01*
X2752Y6905D01*
X2315Y8345D01*
X2175Y9772D01*
X2184Y9843D01*
Y187008D01*
X2175Y187079D01*
X2315Y188505D01*
X2752Y189945D01*
X3461Y191272D01*
X4416Y192435D01*
X5579Y193389D01*
X6905Y194098D01*
X8345Y194535D01*
X9772Y194676D01*
X9843Y194666D01*
D02*
G37*
G36*
X173819Y168110D02*
X176870Y165059D01*
X176870Y161516D01*
Y132874D01*
X172539Y128543D01*
X165354D01*
X162205Y131693D01*
Y156398D01*
X160728Y157874D01*
X153445D01*
X152067Y159252D01*
Y160925D01*
X153740Y162598D01*
X167717Y162598D01*
X168209Y163091D01*
X168209Y165829D01*
X170997Y168110D01*
X173819Y168110D01*
D02*
G37*
G36*
X283465Y132874D02*
X283465Y117224D01*
X285531Y115157D01*
X297835D01*
Y80610D01*
X295965Y78740D01*
X278570Y78740D01*
X264173Y85068D01*
X264173Y135335D01*
X257185Y142323D01*
X205807D01*
X181496Y166634D01*
Y171457D01*
X175000Y177953D01*
X154232D01*
X152953Y179232D01*
Y181890D01*
X153740Y182677D01*
X233661D01*
X283465Y132874D01*
D02*
G37*
%LPC*%
G36*
X24606Y160168D02*
X23371Y160047D01*
X22184Y159686D01*
X21090Y159101D01*
X20131Y158314D01*
X19343Y157355D01*
X18758Y156261D01*
X18398Y155073D01*
X18277Y153839D01*
X18398Y152604D01*
X18758Y151416D01*
X19343Y150322D01*
X20131Y149363D01*
X21090Y148576D01*
X22184Y147991D01*
X23371Y147631D01*
X24606Y147509D01*
X25841Y147631D01*
X27029Y147991D01*
X28123Y148576D01*
X29082Y149363D01*
X29869Y150322D01*
X30454Y151416D01*
X30814Y152604D01*
X30936Y153839D01*
X30814Y155073D01*
X30454Y156261D01*
X29869Y157355D01*
X29082Y158314D01*
X28123Y159101D01*
X27029Y159686D01*
X25841Y160047D01*
X24606Y160168D01*
D02*
G37*
G36*
X19783Y89297D02*
X17421D01*
X16379Y89195D01*
X15378Y88891D01*
X14454Y88397D01*
X13645Y87733D01*
X12981Y86924D01*
X12487Y86001D01*
X12183Y84999D01*
X12081Y83957D01*
X12183Y82915D01*
X12487Y81913D01*
X12981Y80990D01*
X13645Y80180D01*
X14206Y79720D01*
X14162Y78959D01*
X14088Y78819D01*
X14009Y78786D01*
X13207Y78171D01*
X12592Y77369D01*
X12205Y76435D01*
X12073Y75433D01*
Y72480D01*
X12205Y71478D01*
X12592Y70544D01*
X13207Y69743D01*
X14009Y69127D01*
X14943Y68740D01*
X15945Y68609D01*
X21260D01*
X22262Y68740D01*
X23196Y69127D01*
X23998Y69743D01*
X24613Y70544D01*
X25000Y71478D01*
X25131Y72480D01*
Y75433D01*
X25000Y76435D01*
X24613Y77369D01*
X23998Y78171D01*
X23196Y78786D01*
X23117Y78819D01*
X23043Y78959D01*
X22999Y79720D01*
X23560Y80180D01*
X24224Y80990D01*
X24718Y81913D01*
X25021Y82915D01*
X25124Y83957D01*
X25021Y84999D01*
X24718Y86001D01*
X24224Y86924D01*
X23560Y87733D01*
X22751Y88397D01*
X21827Y88891D01*
X20825Y89195D01*
X19783Y89297D01*
D02*
G37*
G36*
X111378Y65315D02*
X96811D01*
Y55866D01*
X99939D01*
X100056Y55079D01*
X99719Y54976D01*
X98898Y54538D01*
X98179Y53947D01*
X97588Y53228D01*
X97149Y52407D01*
X96879Y51517D01*
X96788Y50591D01*
X96879Y49664D01*
X97149Y48774D01*
X97588Y47953D01*
X98179Y47234D01*
X98898Y46643D01*
X99719Y46205D01*
X100399Y45998D01*
Y45183D01*
X99719Y44976D01*
X98898Y44538D01*
X98179Y43947D01*
X97588Y43228D01*
X97149Y42407D01*
X96879Y41517D01*
X96788Y40591D01*
X96879Y39664D01*
X97149Y38774D01*
X97588Y37953D01*
X98179Y37234D01*
X98898Y36643D01*
X99719Y36205D01*
X100609Y35934D01*
X101535Y35843D01*
X106654D01*
X107580Y35934D01*
X108470Y36205D01*
X109291Y36643D01*
X110010Y37234D01*
X110601Y37953D01*
X111039Y38774D01*
X111310Y39664D01*
X111401Y40591D01*
X111310Y41517D01*
X111039Y42407D01*
X110601Y43228D01*
X110010Y43947D01*
X109291Y44538D01*
X108470Y44976D01*
X107790Y45183D01*
Y45998D01*
X108470Y46205D01*
X109291Y46643D01*
X110010Y47234D01*
X110601Y47953D01*
X111039Y48774D01*
X111310Y49664D01*
X111401Y50591D01*
X111310Y51517D01*
X111039Y52407D01*
X110601Y53228D01*
X110010Y53947D01*
X109291Y54538D01*
X108470Y54976D01*
X108133Y55079D01*
X108250Y55866D01*
X111378D01*
Y65315D01*
D02*
G37*
G36*
X19685Y34875D02*
X17702Y34745D01*
X15754Y34357D01*
X13872Y33719D01*
X12090Y32840D01*
X10438Y31736D01*
X8944Y30426D01*
X7634Y28932D01*
X6530Y27280D01*
X5651Y25498D01*
X5013Y23617D01*
X4625Y21668D01*
X4495Y19685D01*
X4625Y17702D01*
X5013Y15754D01*
X5651Y13872D01*
X6530Y12090D01*
X7634Y10438D01*
X8944Y8944D01*
X10438Y7634D01*
X12090Y6530D01*
X13872Y5651D01*
X15754Y5013D01*
X17702Y4625D01*
X19685Y4495D01*
X21668Y4625D01*
X23617Y5013D01*
X25498Y5651D01*
X27280Y6530D01*
X28932Y7634D01*
X30426Y8944D01*
X31736Y10438D01*
X32840Y12090D01*
X33719Y13872D01*
X34357Y15754D01*
X34745Y17702D01*
X34875Y19685D01*
X34745Y21668D01*
X34357Y23617D01*
X33719Y25498D01*
X32840Y27280D01*
X31736Y28932D01*
X30426Y30426D01*
X28932Y31736D01*
X27280Y32840D01*
X25498Y33719D01*
X23617Y34357D01*
X21668Y34745D01*
X19685Y34875D01*
D02*
G37*
%LPD*%
D60*
X24606Y153839D02*
D03*
X255906Y19094D02*
D03*
Y108858D02*
D03*
X172146Y165650D02*
D03*
X261910D02*
D03*
D61*
X292323Y111221D02*
D03*
Y68898D02*
D03*
D62*
Y125000D02*
D03*
Y82677D02*
D03*
D63*
X182126Y27854D02*
D03*
X192126D02*
D03*
X202126D02*
D03*
D64*
X156201Y160236D02*
D03*
X156398Y180315D02*
D03*
X126279Y160236D02*
D03*
X134095Y40591D02*
D03*
Y50591D02*
D03*
Y60590D02*
D03*
X104095Y40591D02*
D03*
Y50591D02*
D03*
D65*
X126476Y180315D02*
D03*
X104095Y60590D02*
D03*
D66*
X125984Y74272D02*
D03*
Y113642D02*
D03*
D67*
X18602Y93957D02*
D03*
Y83957D02*
D03*
D68*
Y73957D02*
D03*
D69*
X19685Y179134D02*
D03*
X295276D02*
D03*
Y19685D02*
D03*
X19685D02*
D03*
D70*
X172146Y132480D02*
D03*
X254921D02*
D03*
D71*
X122047Y173228D02*
D03*
X116142Y185039D02*
D03*
X110236Y173228D02*
D03*
X116142Y161417D02*
D03*
Y90551D02*
D03*
X110236Y78740D02*
D03*
X116142Y43307D02*
D03*
X110236Y31496D02*
D03*
X116142Y19685D02*
D03*
X110236Y7874D02*
D03*
X104331Y185039D02*
D03*
X98425Y125984D02*
D03*
X104331Y90551D02*
D03*
X98425Y78740D02*
D03*
Y31496D02*
D03*
X104331Y19685D02*
D03*
X98425Y7874D02*
D03*
X92520Y185039D02*
D03*
Y137795D02*
D03*
X86614Y125984D02*
D03*
X92520Y114173D02*
D03*
Y90551D02*
D03*
X86614Y78740D02*
D03*
X92520Y43307D02*
D03*
X86614Y31496D02*
D03*
X92520Y19685D02*
D03*
X86614Y7874D02*
D03*
X80709Y185039D02*
D03*
Y161417D02*
D03*
Y137795D02*
D03*
X74803Y125984D02*
D03*
X80709Y90551D02*
D03*
Y43307D02*
D03*
X74803Y31496D02*
D03*
X80709Y19685D02*
D03*
X74803Y7874D02*
D03*
X68897Y185039D02*
D03*
Y137795D02*
D03*
X62992Y102362D02*
D03*
Y78740D02*
D03*
X68897Y43307D02*
D03*
X62992Y31496D02*
D03*
X68897Y19685D02*
D03*
X62992Y7874D02*
D03*
X57086Y185039D02*
D03*
Y161417D02*
D03*
Y43307D02*
D03*
X51181Y31496D02*
D03*
X57086Y19685D02*
D03*
X51181Y7874D02*
D03*
X45276Y185039D02*
D03*
X39370Y173228D02*
D03*
Y149606D02*
D03*
Y55118D02*
D03*
X45276Y43307D02*
D03*
X39370Y31496D02*
D03*
X45276Y19685D02*
D03*
X39370Y7874D02*
D03*
X33465Y161417D02*
D03*
Y137795D02*
D03*
X27559Y55118D02*
D03*
X33465Y43307D02*
D03*
X21654Y161417D02*
D03*
X15748Y149606D02*
D03*
Y102362D02*
D03*
X21654Y66929D02*
D03*
X15748Y55118D02*
D03*
X21654Y43307D02*
D03*
X3937Y173228D02*
D03*
X9842Y161417D02*
D03*
X3937Y149606D02*
D03*
Y102362D02*
D03*
X9842Y90551D02*
D03*
X3937Y78740D02*
D03*
X9842Y66929D02*
D03*
X3937Y55118D02*
D03*
X9842Y43307D02*
D03*
X3937Y31496D02*
D03*
M02*
