M48
;Layer_Color=9474304
;FILE_FORMAT=2:4
INCH,LZ
;TYPE=PLATED
T1F00S00C0.0157
T2F00S00C0.0315
T3F00S00C0.0394
T4F00S00C0.0433
T5F00S00C0.0472
T6F00S00C0.0551
T7F00S00C0.1378
T8F00S00C0.1969
%
T01
X006299Y000787
X00748
X008661
X009843
X011024
X011614Y001969
X010433
X009252
X008071
X00689
X005709
X006299Y00315
X00748
X008661
X009843
X011024
X011614Y004331
X009252
X008071
X00689
X005709
X006299Y007874
X008661
X009843
X011024
X011614Y009055
X010433
X009252
X008071
X000984
X000394Y007874
X000984Y006693
X002165
X002756Y005512
X003937
X004528Y004331
X003346
X002165
X000984
X001575Y005512
X000394
Y00315
X003937
X005118
X004528Y001969
X005118Y000787
X003937
X001575Y010236
X000394
Y014961
X001575
X002165Y016142
X003346
X003937Y017323
X004528Y018504
X003937Y014961
X003346Y01378
X000984Y016142
X000394Y017323
X005709Y018504
X00689
X008071
X009252
X010433
X011614
X012205Y017323
X011024
X011614Y016142
X008071
Y01378
X009252
X009843Y012598
X008661
X00748
X00689Y01378
X005709Y016142
X006299Y010236
X009252Y011417
T02
X010409Y004059
Y005059
Y006059
X013409
Y005059
Y004059
X012628Y016024
X012648Y018032
X01564
X01562Y016024
T03
X025591Y001909
X002461Y015384
X017215Y016565
X026191
X025591Y010886
T04
X00186Y007396
Y008396
Y009396
X017215Y013248
X025492
T05
X012598Y007427
Y011364
T06
X029232Y00689
Y008268
X020213Y002785
X019213
X018213
X029232Y011122
Y0125
T07
X029528Y001969
X001969
Y017913
X029528
T08
X019213Y009341
M30
