CAMtasticDXP Drill Report
Serial Number:0000-00-00000
Drill File: D:\Repository\PCB\PBBLDC\PCB\GERBER\DRILL\cam.drl
Format: 4.3
Units: Metric (mm.)
Step & Repeat Codes Used: NO


TOOL		SIZE		COUNT
====		======		=====

 1 		0.4000		1806
 2 		0.7000		15
 3 		0.8000		4
 4 		0.9000		48
 5 		1.0000		8
 6 		1.2000		18
 7 		1.4000		4
 8 		2.2000		5
 9 		3.5000		8
