Circuit: * D:\MyRepository\project_temp\pELECTRONICS\ISCV\Modeling\Draft1.asc

WARNING: Less than two connections to node N001.  This node is used by V1.
WARNING: Less than two connections to node NC_01.  This node is used by V3.
Direct Newton iteration for .op point succeeded.

Date: Thu Feb 18 09:27:35 2021
Total elapsed time: 0.126 seconds.

tnom = 27
temp = 27
method = modified trap
totiter = 2091
traniter = 2088
tranpoints = 1045
accept = 1045
rejected = 0
matrix size = 6
fillins = 0
solver = Normal
Matrix Compiler1:       6 opcodes  0.1/[0.0]/0.0
Matrix Compiler2: 272 bytes object code size  0.0/0.1/[0.0]

