%FSTAX24Y24*%
%MOIN*%
%SFA1B1*%

%IPPOS*%
%ADD10C,0.009800*%
%ADD11C,0.023600*%
%ADD15C,0.015700*%
%ADD89C,0.011800*%
%ADD90C,0.029500*%
%ADD91C,0.039400*%
%ADD92C,0.019700*%
%ADD93C,0.059100*%
%ADD94R,0.070900X0.082700*%
%ADD95O,0.070900X0.082700*%
%ADD96C,0.070900*%
%ADD97R,0.070900X0.070900*%
%ADD98C,0.255900*%
%ADD99C,0.031500*%
%LNmpspcb-1*%
%LPD*%
G36*
X03263Y021422D02*
X032774Y021378D01*
X032907Y021307*
X033023Y021212*
X033118Y021096*
X033189Y020963*
X033233Y020819*
X033247Y020676*
X033246Y020669*
Y000984*
X033247Y000977*
X033233Y000835*
X033189Y000691*
X033118Y000558*
X033023Y000442*
X032907Y000346*
X032774Y000275*
X03263Y000232*
X032487Y000217*
X03248Y000218*
X02882*
X028805Y000255*
X029191Y000641*
X029231Y000693*
X029255Y000753*
X029264Y000817*
Y00375*
X029255Y003814*
X029231Y003874*
X029191Y003925*
X027203Y005914*
X027152Y005953*
X027092Y005978*
X027028Y005986*
X023272*
X022069Y007189*
Y010669*
X022061Y010733*
X022036Y010793*
X021996Y010844*
X021232Y011608*
Y011763*
X02124Y01177*
X021918*
X021935Y011734*
X021927Y011724*
X021897Y011652*
X021887Y011575*
X021897Y011498*
X021927Y011426*
X021974Y011364*
X023766Y009573*
X023828Y009526*
X023899Y009496*
X023976Y009486*
X025516*
X026207Y008795*
X027955Y007047*
Y005802*
X027965Y005725*
X027995Y005653*
X028042Y005592*
X029799Y003835*
X029861Y003787*
X029933Y003758*
X03001Y003747*
X03253*
X032607Y003758*
X032678Y003787*
X03274Y003835*
X033094Y004189*
X033142Y004251*
X033172Y004323*
X033182Y0044*
Y016781*
Y016782*
X033172Y016859*
X033142Y01693*
X033094Y016992*
X03213Y017957*
X032068Y018004*
X031996Y018034*
X031919Y018044*
X031108*
X030826Y018325*
X030849Y018358*
X03093Y018318*
X031113Y018256*
X031303Y018218*
X031496Y018205*
X031689Y018218*
X031879Y018256*
X032062Y018318*
X032236Y018404*
X032397Y018511*
X032542Y018639*
X03267Y018784*
X032777Y018945*
X032863Y019119*
X032925Y019302*
X032963Y019492*
X032976Y019685*
X032963Y019878*
X032925Y020068*
X032863Y020251*
X032777Y020425*
X03267Y020586*
X032542Y020731*
X032397Y020859*
X032236Y020966*
X032062Y021052*
X031879Y021114*
X031689Y021152*
X031496Y021165*
X031303Y021152*
X031113Y021114*
X03093Y021052*
X030756Y020966*
X030595Y020859*
X03045Y020731*
X030322Y020586*
X030215Y020425*
X030129Y020251*
X030067Y020068*
X030029Y019878*
X030017Y019685*
X030028Y019506*
X02999Y019492*
X029974Y019512*
X029913Y019559*
X029841Y019589*
X029764Y019599*
X029687Y019589*
X029615Y019559*
X029553Y019512*
X029506Y01945*
X029483Y019394*
X029442Y019386*
X029439Y019387*
X029395Y019444*
X029178Y019661*
X029096Y019724*
X029Y019763*
X028898Y019777*
X027448*
X026354Y020871*
X026271Y020934*
X026176Y020974*
X026073Y020988*
X015335*
X015281Y020981*
X015226Y020988*
X011198*
X010921Y021265*
X010838Y021328*
X010743Y021368*
X01064Y021381*
X00749*
X007451Y021376*
X007411Y021381*
X00628*
X006177Y021368*
X006081Y021328*
X005999Y021265*
X005974Y021232*
X005128*
X005064Y021224*
X005004Y021199*
X004952Y02116*
X003487Y019694*
X003446Y019709*
X003435Y019878*
X003398Y020068*
X003335Y020251*
X00325Y020425*
X003142Y020586*
X003015Y020731*
X002869Y020859*
X002708Y020966*
X002535Y021052*
X002351Y021114*
X002162Y021152*
X001969Y021165*
X001775Y021152*
X001586Y021114*
X001402Y021052*
X001229Y020966*
X001068Y020859*
X000922Y020731*
X000795Y020586*
X000687Y020425*
X000602Y020251*
X000539Y020068*
X000502Y019878*
X000489Y019685*
X000502Y019492*
X000539Y019302*
X000602Y019119*
X000687Y018945*
X000795Y018784*
X000922Y018639*
X001068Y018511*
X001229Y018404*
X001402Y018318*
X001586Y018256*
X001775Y018218*
X001969Y018205*
X002162Y018218*
X002351Y018256*
X002535Y018318*
X002708Y018404*
X002869Y018511*
X003015Y018639*
X003142Y018784*
X003246Y018939*
X003285Y018937*
Y015856*
X003294Y015792*
X003319Y015732*
X003358Y015681*
X003978Y015061*
X004029Y015021*
X004089Y014996*
X004154Y014988*
X005837*
X005901Y014996*
X005961Y015021*
X006012Y015061*
X006445Y015494*
X006448Y015495*
X006501Y015536*
X006542Y015589*
X006568Y015652*
X006577Y015719*
X006568Y015785*
X006542Y015848*
X006501Y015901*
X006448Y015942*
X006386Y015968*
X006319Y015977*
X006252Y015968*
X00619Y015942*
X006136Y015901*
X006095Y015848*
X006094Y015845*
X005734Y015484*
X004256*
X003782Y015959*
Y019287*
X005231Y020736*
X00552*
X005536Y0207*
X005385Y02055*
X005383Y020549*
X005329Y020508*
X005288Y020454*
X005262Y020392*
X005254Y020325*
X005262Y020258*
X005288Y020196*
X005329Y020142*
X005383Y020101*
X005445Y020076*
X005512Y020067*
X005579Y020076*
X005641Y020101*
X005694Y020142*
X005735Y020196*
X005736Y020199*
X00615Y020612*
X006177Y020601*
X00628Y020587*
X006597*
X006622Y020552*
Y020548*
X006569Y020508*
X006528Y020454*
X006503Y020392*
X006494Y020325*
X006503Y020258*
X006528Y020196*
X006569Y020142*
X006623Y020101*
X006685Y020076*
X006752Y020067*
X006819Y020076*
X006881Y020101*
X006934Y020142*
X006975Y020196*
X006977Y020199*
X007365Y020587*
X007411*
X007451Y020592*
X00749Y020587*
X009033*
X009048Y020551*
X008989Y020491*
X008988Y02049*
X008987*
X008968Y020465*
X008949Y02044*
Y020439*
X008948Y020438*
X008936Y020409*
X008924Y02038*
Y020379*
Y020378*
X00892Y020347*
X008916Y020316*
Y020315*
Y020314*
X008918Y020058*
Y020057*
X008909Y01999*
X008918Y019924*
X008943Y019861*
X008984Y019808*
X009038Y019767*
X0091Y019741*
X009167Y019732*
X009234Y019741*
X009296Y019767*
X009349Y019808*
X00939Y019861*
X009416Y019924*
X009425Y01999*
X009416Y020057*
X009415Y020061*
X009413Y020214*
X009787Y020587*
X00984*
X009855Y020551*
X009697Y020393*
X009658Y020341*
X009654Y020332*
X009649Y020326*
X009624Y020264*
X009615Y020197*
X009624Y02013*
X009649Y020068*
X00969Y020014*
X009744Y019973*
X009806Y019948*
X009873Y019939*
X00994Y019948*
X010002Y019973*
X010055Y020014*
X010096Y020068*
X010112Y020105*
X010534Y020528*
X010753Y02031*
X010835Y020247*
X010931Y020207*
X011033Y020193*
X011297*
X011312Y020157*
X011212Y020057*
X01121Y020056*
X011156Y020015*
X011115Y019962*
X011089Y019899*
X01108Y019833*
X011089Y019766*
X011115Y019704*
X011156Y01965*
X01121Y019609*
X011272Y019583*
X011339Y019575*
X011405Y019583*
X011468Y019609*
X011521Y01965*
X011562Y019704*
X011563Y019706*
X01205Y020193*
X014408*
X014422Y020157*
X013823Y019576*
X013818Y019574*
X013764Y019533*
X013723Y019479*
X013698Y019417*
X013689Y01935*
X013698Y019284*
X013723Y019221*
X013764Y019168*
X013818Y019127*
X01388Y019101*
X013947Y019092*
X014014Y019101*
X014076Y019127*
X014129Y019168*
X01417Y019221*
X015173Y020193*
X015226*
X015281Y020201*
X015335Y020193*
X018633*
X018646Y020156*
X018641Y020153*
X017172Y018683*
X014292*
X014289Y018684*
X014222Y018693*
X014156Y018684*
X014093Y018659*
X01404Y018618*
X013999Y018564*
X013973Y018502*
X013964Y018435*
X013973Y018368*
X013999Y018306*
X01404Y018253*
X014093Y018212*
X014156Y018186*
X014222Y018177*
X014289Y018186*
X014292Y018187*
X016624*
X016639Y018151*
X015529Y017041*
X012395*
X011691Y017744*
X01169Y017747*
X011649Y017801*
X011596Y017842*
X011533Y017867*
X011467Y017876*
X0114Y017867*
X011338Y017842*
X011284Y017801*
X011243Y017747*
X011217Y017685*
X011208Y017618*
X011217Y017551*
X011243Y017489*
X011284Y017436*
X011338Y017395*
X01134Y017393*
X011657Y017077*
X011641Y017041*
X011028*
X010344Y017725*
X010342Y017728*
X010301Y017781*
X010248Y017822*
X010186Y017848*
X010119Y017857*
X010052Y017848*
X00999Y017822*
X009936Y017781*
X009895Y017728*
X00987Y017665*
X009861Y017599*
X00987Y017532*
X009895Y01747*
X009936Y017416*
X00999Y017375*
X009993Y017374*
X010289Y017077*
X010274Y017041*
X009482*
X00866Y017863*
X008659Y017865*
X008618Y017919*
X008565Y01796*
X008503Y017986*
X008436Y017995*
X008369Y017986*
X008307Y01796*
X008253Y017919*
X008212Y017865*
X008187Y017803*
X008178Y017736*
X008187Y01767*
X008212Y017607*
X008253Y017554*
X008307Y017513*
X00831Y017512*
X008744Y017077*
X008729Y017041*
X007858*
X007183Y017715*
X007182Y017718*
X007141Y017771*
X007088Y017812*
X007025Y017838*
X006959Y017847*
X006892Y017838*
X00683Y017812*
X006776Y017771*
X006735Y017718*
X006709Y017656*
X006701Y017589*
X006709Y017522*
X006735Y01746*
X006776Y017406*
X00683Y017365*
X006832Y017364*
X007119Y017077*
X007104Y017041*
X00563*
X005589Y017035*
X005543Y017081*
Y017608*
X005545Y017611*
X005553Y017677*
X005545Y017744*
X005519Y017806*
X005478Y01786*
X005424Y017901*
X005362Y017927*
X005295Y017936*
X005228Y017927*
X005166Y017901*
X005113Y01786*
X005072Y017806*
X005046Y017744*
X005037Y017677*
X005046Y017611*
X005047Y017608*
Y016978*
X005056Y016914*
X00508Y016854*
X00512Y016803*
X005238Y016684*
X005233Y016644*
X005246Y016541*
X005286Y016445*
X005349Y016363*
X005431Y0163*
X005527Y01626*
X00563Y016247*
X009032*
Y015502*
Y01485*
X007042Y01286*
X007041Y012858*
X007039Y012857*
X007007Y012824*
X005366*
X005363Y012825*
X005296Y012834*
X005229Y012825*
X005167Y0128*
X005114Y012759*
X005073Y012705*
X005047Y012643*
X005038Y012576*
X005047Y012509*
X005073Y012447*
X005114Y012394*
X005167Y012353*
X005229Y012327*
X005296Y012318*
X005363Y012327*
X005366Y012328*
X006459*
X006474Y012292*
X00532Y011137*
X005257Y011055*
X005217Y010959*
X005203Y010856*
Y009892*
X005205Y009882*
X005203Y009872*
Y008858*
X005208Y008824*
X005203Y008789*
Y008743*
X004706Y008246*
X004704Y008245*
X00465Y008204*
X004609Y00815*
X004583Y008088*
X004575Y008021*
X004583Y007954*
X004609Y007892*
X00465Y007839*
X004704Y007798*
X004766Y007772*
X004833Y007763*
X004899Y007772*
X004962Y007798*
X005015Y007839*
X005056Y007892*
X005057Y007895*
X005167Y008005*
X005203Y007989*
Y006063*
Y005975*
X00485Y005622*
X004786Y005613*
X004723Y005587*
X00467Y005546*
X004629Y005493*
X00459Y005501*
Y006506*
X004577Y006567*
X004543Y006619*
X003224Y007938*
X003172Y007973*
X00311Y007985*
X002945*
X002932Y008025*
X00298Y008115*
X003012Y008219*
X003022Y008327*
X003012Y008435*
X00298Y008539*
X002929Y008634*
X00286Y008718*
X002776Y008787*
X002739Y008807*
Y008846*
X002776Y008866*
X00286Y008935*
X002929Y009019*
X00298Y009115*
X003012Y009219*
X003022Y009327*
X003012Y009435*
X00298Y009539*
X002929Y009634*
X00286Y009718*
X002776Y009787*
X002739Y009807*
Y009846*
X002776Y009866*
X00286Y009935*
X002929Y010019*
X00298Y010115*
X003012Y010219*
X003022Y010327*
X003012Y010435*
X00298Y010539*
X002929Y010634*
X00286Y010718*
X002776Y010787*
X002739Y010807*
Y010846*
X002776Y010866*
X00286Y010935*
X002929Y011019*
X00298Y011115*
X003012Y011219*
X003022Y011327*
X003012Y011435*
X00298Y011539*
X002929Y011634*
X00286Y011718*
X002776Y011787*
X002739Y011807*
Y011846*
X002776Y011866*
X00286Y011935*
X002929Y012019*
X00298Y012115*
X003012Y012219*
X003022Y012327*
X003012Y012435*
X00298Y012539*
X002929Y012634*
X00286Y012718*
X002776Y012787*
X002739Y012807*
Y012846*
X002776Y012866*
X00286Y012935*
X002929Y013019*
X00298Y013115*
X003012Y013219*
X003022Y013327*
X003012Y013435*
X00298Y013539*
X002929Y013634*
X00286Y013718*
X002776Y013787*
X002739Y013807*
Y013846*
X002776Y013866*
X00286Y013935*
X002929Y014019*
X00298Y014115*
X003012Y014219*
X003022Y014327*
X003012Y014435*
X00298Y014539*
X002929Y014634*
X00286Y014718*
X002776Y014787*
X002739Y014807*
Y014846*
X002776Y014866*
X00286Y014935*
X002929Y015019*
X00298Y015115*
X003012Y015219*
X003022Y015327*
X003012Y015435*
X00298Y015539*
X002929Y015634*
X00286Y015718*
X002776Y015787*
X002739Y015807*
Y015846*
X002776Y015866*
X00286Y015935*
X002929Y016019*
X00298Y016115*
X003012Y016219*
X003022Y016327*
X003012Y016435*
X00298Y016539*
X002929Y016634*
X00286Y016718*
X002776Y016787*
X00268Y016838*
X002577Y01687*
X002468Y016881*
X00236Y01687*
X002257Y016838*
X002161Y016787*
X002077Y016718*
X002008Y016634*
X001988Y016597*
X001949*
X001929Y016634*
X00186Y016718*
X001776Y016787*
X00168Y016838*
X001577Y01687*
X001469Y016881*
X00136Y01687*
X001257Y016838*
X001161Y016787*
X001077Y016718*
X001008Y016634*
X000957Y016539*
X000925Y016435*
X000915Y016327*
X000925Y016219*
X000957Y016115*
X001008Y016019*
X001077Y015935*
X001161Y015866*
X001198Y015846*
Y015807*
X001161Y015787*
X001077Y015718*
X001008Y015634*
X000957Y015539*
X000925Y015435*
X000915Y015327*
X000925Y015219*
X000957Y015115*
X001008Y015019*
X001077Y014935*
X001161Y014866*
X001198Y014846*
Y014807*
X001161Y014787*
X001077Y014718*
X001008Y014634*
X000957Y014539*
X000925Y014435*
X000915Y014327*
X000925Y014219*
X000957Y014115*
X001008Y014019*
X001077Y013935*
X001161Y013866*
X001198Y013846*
Y013807*
X001161Y013787*
X001077Y013718*
X001008Y013634*
X000957Y013539*
X000925Y013435*
X000915Y013327*
X000925Y013219*
X000957Y013115*
X001008Y013019*
X001077Y012935*
X001161Y012866*
X001198Y012846*
Y012807*
X001161Y012787*
X001077Y012718*
X001008Y012634*
X000957Y012539*
X000925Y012435*
X000915Y012327*
X000925Y012219*
X000957Y012115*
X001008Y012019*
X001077Y011935*
X001161Y011866*
X001198Y011846*
Y011807*
X001161Y011787*
X001077Y011718*
X001008Y011634*
X000957Y011539*
X000925Y011435*
X000915Y011327*
X000925Y011219*
X000957Y011115*
X001008Y011019*
X001077Y010935*
X001161Y010866*
X001198Y010846*
Y010807*
X001161Y010787*
X001077Y010718*
X001008Y010634*
X000957Y010539*
X000925Y010435*
X000917Y010346*
X000556Y009986*
X000521Y009933*
X000509Y009872*
Y004426*
X000521Y004365*
X000556Y004313*
X000966Y003902*
X001018Y003867*
X00108Y003855*
X002854*
X003245Y003464*
Y002783*
X003207Y002772*
X003142Y002869*
X003015Y003015*
X002869Y003142*
X002708Y00325*
X002535Y003335*
X002351Y003398*
X002162Y003435*
X001969Y003448*
X001775Y003435*
X001586Y003398*
X001402Y003335*
X001229Y00325*
X001068Y003142*
X000922Y003015*
X000795Y002869*
X000687Y002708*
X000602Y002535*
X000539Y002351*
X000502Y002162*
X000489Y001969*
X000502Y001775*
X000539Y001586*
X000602Y001402*
X000687Y001229*
X000795Y001068*
X000922Y000922*
X001068Y000795*
X001229Y000687*
X001402Y000602*
X001586Y000539*
X001775Y000502*
X001969Y000489*
X002162Y000502*
X002351Y000539*
X002535Y000602*
X002708Y000687*
X002869Y000795*
X003015Y000922*
X003142Y001068*
X00325Y001229*
X003335Y001402*
X003398Y001586*
X003435Y001775*
X003439Y001825*
X003475Y001839*
X004503Y000812*
X004555Y000777*
X004616Y000765*
X006784*
X006816Y000733*
X007229Y00032*
X007281Y000285*
X007343Y000272*
Y000273*
X011027*
X011038Y000258*
X011019Y000218*
X001023*
X000984*
X000946Y000221*
X000835Y000232*
X000691Y000275*
X000558Y000346*
X000442Y000442*
X000346Y000558*
X000275Y000691*
X000232Y000835*
X000221Y000946*
X000218Y000984*
Y001023*
Y020669*
X000217Y020676*
X000232Y020819*
X000275Y020963*
X000346Y021096*
X000442Y021212*
X000558Y021307*
X000691Y021378*
X000835Y021422*
X000977Y021436*
X000984Y021435*
X03248*
X032487Y021436*
X03263Y021422*
G37*
G36*
X02748Y019459D02*
Y018632D01*
X026978*
X026703Y018907*
Y019065*
X026752Y019114*
Y019547*
X027392*
X02748Y019459*
G37*
G36*
X028717Y01878D02*
X028731Y018677D01*
X02877Y018581*
X028833Y018499*
X028918Y018414*
X028899Y018377*
X028809Y018389*
X028792Y018387*
X028787Y018389*
X02872Y018398*
X028654Y018389*
X028591Y018363*
X028587Y01836*
X027717*
X027567Y018509*
X02755Y018523*
X027551Y018561*
X027573Y018593*
X027581Y018632*
Y018983*
X028717*
Y01878*
G37*
G36*
X026367Y017993D02*
X026352Y017956D01*
X026052*
X025785Y018224*
X025702Y018287*
X025607Y018326*
X025504Y01834*
X024743*
X024728Y018376*
X024841Y01849*
X02485Y018491*
X024912Y018517*
X024966Y018558*
X025007Y018611*
X025032Y018673*
X025041Y01874*
X025032Y018807*
X025007Y018869*
X024966Y018923*
X024912Y018964*
X02485Y018989*
X024783Y018998*
X024716Y018989*
X024654Y018964*
X024601Y018923*
X02456Y018869*
X024534Y018807*
X024533Y018799*
X024387Y018653*
X022107*
X022104Y018655*
X022037Y018664*
X02197Y018655*
X021908Y018629*
X021854Y018588*
X021813Y018535*
X021788Y018472*
X021779Y018405*
X021788Y018339*
X021813Y018276*
X021854Y018223*
X021908Y018182*
X02197Y018156*
X022037Y018147*
X022104Y018156*
X022166Y018182*
X022211Y018217*
X02256*
X022578Y01818*
X022577Y018177*
X022497Y018115*
X019391Y015009*
X019298Y014917*
X019262Y014932*
Y019035*
X019701Y019475*
X024885*
X026367Y017993*
G37*
G36*
X030774Y017535D02*
X030835Y017488D01*
X030907Y017458*
X030984Y017448*
X031796*
X032586Y016658*
Y016362*
X032547Y01636*
X032539Y016435*
X032508Y016539*
X032457Y016634*
X032388Y016718*
X032304Y016787*
X032208Y016838*
X032104Y01687*
X031996Y016881*
X031888Y01687*
X031784Y016838*
X031688Y016787*
X031604Y016718*
X031536Y016634*
X031516Y016597*
X031476*
X031457Y016634*
X031388Y016718*
X031304Y016787*
X031208Y016838*
X031104Y01687*
X030996Y016881*
X030888Y01687*
X030784Y016838*
X030688Y016787*
X030604Y016718*
X030536Y016634*
X030484Y016539*
X030453Y016435*
X030442Y016327*
X030453Y016219*
X030484Y016115*
X030536Y016019*
X030604Y015935*
X030688Y015866*
X030725Y015846*
Y015807*
X030688Y015787*
X030604Y015718*
X030536Y015634*
X030484Y015539*
X030453Y015435*
X030442Y015327*
X030453Y015219*
X030484Y015115*
X030536Y015019*
X030604Y014935*
X030688Y014866*
X030784Y014815*
X030888Y014784*
X030996Y014773*
X031104Y014784*
X031208Y014815*
X031304Y014866*
X031388Y014935*
X031457Y015019*
X031476Y015056*
X031516*
X031536Y015019*
X031604Y014935*
X031688Y014866*
X031784Y014815*
X031888Y014784*
X031996Y014773*
X032104Y014784*
X032208Y014815*
X032304Y014866*
X032388Y014935*
X032457Y015019*
X032508Y015115*
X032539Y015219*
X032547Y015294*
X032586Y015292*
Y013362*
X032547Y01336*
X032539Y013435*
X032508Y013539*
X032457Y013634*
X032388Y013718*
X032304Y013787*
X032208Y013838*
X032104Y01387*
X031996Y013881*
X031888Y01387*
X031784Y013838*
X031688Y013787*
X031604Y013718*
X031536Y013634*
X031516Y013597*
X031476*
X031457Y013634*
X031388Y013718*
X031304Y013787*
X031208Y013838*
X031104Y01387*
X030996Y013881*
X030888Y01387*
X030784Y013838*
X030688Y013787*
X030604Y013718*
X030536Y013634*
X030514Y013595*
X030475Y013589*
X02766Y016404*
X027679Y016441*
X027738Y016434*
X029183*
X029286Y016447*
X029382Y016487*
X029464Y01655*
X029759Y016845*
X029822Y016927*
X029862Y017023*
X029875Y017126*
Y018378*
X029915Y018394*
X030774Y017535*
G37*
G36*
X019523Y019439D02*
X019191Y019106D01*
X019169Y019074*
X019161Y019035*
Y014932*
X019169Y014893*
X019191Y014861*
X019196Y014854*
X0192Y014818*
X019031Y014649*
X017421*
Y015846*
X016319*
Y015676*
X016282Y015662*
X016262Y015687*
X016178Y015756*
X016082Y015807*
X015978Y015838*
X01587Y015849*
X015762Y015838*
X015658Y015807*
X015562Y015756*
X015478Y015687*
X01541Y015603*
X01539Y015566*
X01535*
X015331Y015603*
X015262Y015687*
X015178Y015756*
X015082Y015807*
X014978Y015838*
X01487Y015849*
X014762Y015838*
X014658Y015807*
X014562Y015756*
X014478Y015687*
X01441Y015603*
X01439Y015566*
X01435*
X014331Y015603*
X014262Y015687*
X014178Y015756*
X014082Y015807*
X013978Y015838*
X01387Y015849*
X013762Y015838*
X013658Y015807*
X013562Y015756*
X013478Y015687*
X01341Y015603*
X013358Y015507*
X013327Y015403*
X013316Y015295*
Y015177*
X013327Y015069*
X013358Y014965*
X01341Y014869*
X013478Y014786*
X013562Y014717*
X013615Y014688*
X013605Y014649*
X012135*
X012125Y014688*
X012178Y014717*
X012262Y014786*
X012331Y014869*
X012382Y014965*
X012413Y015069*
X012424Y015177*
Y015295*
X012413Y015403*
X012382Y015507*
X012331Y015603*
X012262Y015687*
X012178Y015756*
X012082Y015807*
X011978Y015838*
X01187Y015849*
X011762Y015838*
X011658Y015807*
X011562Y015756*
X011478Y015687*
X01141Y015603*
X011358Y015507*
X011327Y015403*
X011316Y015295*
Y015177*
X011327Y015069*
X011358Y014965*
X01141Y014869*
X011478Y014786*
X011562Y014717*
X011615Y014688*
X011605Y014649*
X010927*
X010824Y014636*
X010729Y014596*
X010709Y014581*
X01067Y014601*
X010647Y014657*
X010606Y01471*
X010552Y014751*
X010516Y014766*
X009826Y015456*
Y016247*
X015694*
X015797Y01626*
X015892Y0163*
X015975Y016363*
X0177Y018088*
X019087Y019475*
X019508*
X019523Y019439*
G37*
G36*
X022879Y017318D02*
X022873Y017274D01*
X022882Y017208*
X022908Y017145*
X022949Y017092*
X022956Y017086*
Y017073*
X02295Y017041*
X022561Y016652*
X022521Y0166*
X022496Y016541*
X022488Y016476*
Y015167*
X022496Y015103*
X022521Y015043*
X022561Y014992*
X023045Y014508*
X021994Y013457*
X020959*
X020618Y013798*
X020617Y0138*
X020576Y013854*
X020523Y013895*
X020461Y013921*
X020394Y013929*
X020327Y013921*
X020265Y013895*
X020211Y013854*
X02017Y0138*
X020144Y013738*
X020136Y013671*
X020144Y013604*
X02017Y013542*
X020211Y013489*
X020265Y013448*
X020267Y013447*
X020681Y013033*
X020732Y012994*
X020792Y012969*
X020856Y01296*
X021525*
X02154Y012924*
X020809Y012193*
X020769Y012142*
X020745Y012082*
X020736Y012018*
Y011858*
X020462Y011852*
X020068Y012245*
Y014564*
X022841Y017337*
X022879Y017318*
G37*
G36*
X029321Y013671D02*
Y013487D01*
X029107Y013304*
X028543Y013868*
Y013996*
X028691Y014144*
X028848*
X029321Y013671*
G37*
G36*
X023387Y016589D02*
X023394Y016538D01*
X023419Y016476*
X02346Y016423*
X023514Y016382*
X023576Y016356*
X023643Y016347*
X023661Y016349*
X023819Y016191*
X023877Y016152*
X023946Y016138*
X023966*
X024015Y016148*
X027405*
X027579Y015975*
Y015512*
X027697Y015394*
X02816*
X030167Y013386*
Y012661*
X028307*
X028204Y012647*
X028108Y012608*
X028026Y012545*
X027963Y012462*
X027923Y012367*
X02791Y012264*
X027923Y012161*
X027963Y012065*
X028026Y011983*
X028108Y01192*
X028204Y01188*
X028307Y011867*
X029551*
X029567Y01183*
X029104Y011368*
X028594*
X028592Y011369*
X028561Y011407*
X028567Y011447*
X028558Y011514*
X028532Y011576*
X028491Y01163*
X028438Y011671*
X028375Y011697*
X028308Y011706*
X028242Y011697*
X028179Y011671*
X028126Y01163*
X028085Y011576*
X028059Y011514*
X02805Y011447*
X028056Y011407*
X028025Y011369*
X028023Y011368*
X024172*
X024156Y011387*
X024167Y011433*
X024184Y01144*
X024238Y011481*
X024279Y011534*
X024304Y011597*
X024313Y011663*
X024304Y01173*
X024279Y011792*
X024238Y011846*
X024184Y011887*
X024122Y011913*
X024055Y011921*
X024028Y011918*
X02393Y012015*
Y012202*
X023952Y012219*
X023993Y012273*
X024019Y012335*
X024028Y012402*
X024019Y012468*
X023993Y012531*
X023952Y012584*
X023899Y012625*
X023836Y012651*
X02377Y01266*
X023703Y012651*
X023641Y012625*
X023587Y012584*
X023546Y012531*
X02352Y012468*
X023512Y012402*
X02352Y012335*
X023546Y012273*
X023587Y012219*
X023609Y012202*
Y011949*
X023617Y011909*
X023599Y011879*
X023589Y01187*
X022205*
X022185Y011873*
X022166Y01187*
X02124*
X021234Y011876*
Y011916*
X022277Y012959*
X022316Y013011*
X022341Y013071*
X022346Y013107*
X023396Y014157*
X023506Y014047*
X023557Y014008*
X023617Y013983*
X023681Y013974*
X025252*
X025435Y013791*
X025486Y013752*
X025546Y013727*
X02561Y013718*
X026938*
X026953Y013682*
X026344Y013073*
X025014*
X024752Y013335*
X024751Y013338*
X02471Y013391*
X024657Y013432*
X024594Y013458*
X024528Y013467*
X024461Y013458*
X024399Y013432*
X024345Y013391*
X024304Y013338*
X024278Y013275*
X024269Y013209*
X024278Y013142*
X024304Y01308*
X024345Y013026*
X024399Y012985*
X024401Y012984*
X024736Y012649*
X024787Y01261*
X024847Y012585*
X024911Y012577*
X026447*
X026511Y012585*
X026571Y01261*
X026622Y012649*
X027691Y013718*
X028551*
X029036Y013233*
X02905Y013224*
X029062Y013215*
X029066Y013214*
X029069Y013211*
X029084Y013208*
X0291Y013204*
X029104*
X029107*
X029123Y013207*
X029139Y013209*
X029142Y013211*
X029146*
X029159Y01322*
X029173Y013228*
X029386Y013411*
X029389Y013414*
X029392Y013416*
X029401Y013429*
X02941Y013442*
X029411Y013445*
X029414Y013449*
X029417Y013464*
X029421Y013479*
X02942Y013483*
X029421Y013487*
Y013671*
X029414Y01371*
X029392Y013742*
X028919Y014215*
X028887Y014236*
X028848Y014244*
X028691*
X028653Y014236*
X02862Y014215*
X027986*
Y014252*
X027971Y014329*
X027927Y014394*
X027416Y014906*
X02735Y014949*
X027274Y014964*
X027226*
X027196Y014987*
X027134Y015013*
X027067Y015022*
X027Y015013*
X026938Y014987*
X026884Y014946*
X026843Y014893*
X026818Y014831*
X026809Y014764*
X026818Y014697*
X026843Y014635*
X026884Y014581*
X026938Y01454*
X027Y014514*
X027067Y014506*
X027134Y014514*
X027196Y01454*
X027206Y014548*
X027502Y014251*
X027487Y014215*
X025713*
X02553Y014398*
X025478Y014437*
X025419Y014462*
X025354Y014471*
X023784*
X023623Y014631*
X024033Y015041*
X024036Y015042*
X024089Y015083*
X02413Y015137*
X024156Y015199*
X024165Y015266*
X024156Y015333*
X02413Y015395*
X024089Y015448*
X024036Y015489*
X023974Y015515*
X023907Y015524*
X02384Y015515*
X023778Y015489*
X023724Y015448*
X023683Y015395*
X023682Y015392*
X023272Y014982*
X022984Y01527*
Y016374*
X023234Y016623*
X023338*
X023352Y016625*
X023387Y016589*
G37*
G36*
X012292Y013039D02*
Y012834D01*
X0123Y01277*
X012325Y01271*
X012364Y012659*
X01263Y012393*
X012625Y012352*
X012638Y01225*
X012678Y012154*
X012741Y012072*
X012823Y012008*
X012919Y011969*
X013022Y011955*
X017678*
X017746Y011964*
X017815Y011955*
X018402*
Y01172*
X017357Y010674*
X017324Y010642*
X01616*
X015722Y01108*
X015721Y011083*
X01568Y011136*
X015626Y011177*
X015564Y011203*
X015497Y011212*
X01543Y011203*
X015368Y011177*
X015315Y011136*
X015274Y011083*
X015248Y01102*
X015239Y010954*
X015248Y010887*
X015274Y010825*
X015315Y010771*
X015368Y01073*
X015371Y010729*
X015882Y010218*
X015933Y010179*
X015993Y010154*
X016057Y010146*
X016777*
X016792Y010109*
X016312Y009629*
X013708*
X012987Y01035*
X012905Y010413*
X012809Y010452*
X012707Y010466*
X012604Y010452*
X012508Y010413*
X012426Y01035*
X012401Y010317*
X011919*
X011855Y010309*
X011795Y010284*
X011744Y010244*
X011619Y010119*
X011579Y010068*
X011555Y010008*
X011552Y009988*
X011545Y009971*
X011536Y009905*
X011545Y009838*
X011571Y009775*
X011612Y009722*
X011665Y009681*
X011727Y009655*
X011794Y009646*
X011861Y009655*
X011923Y009681*
X011977Y009722*
X012018Y009775*
X012037Y009821*
X012401*
X012426Y009788*
X012428Y009786*
X01163Y008989*
X011064*
X011061Y00899*
X010995Y008999*
X010928Y00899*
X010925Y008989*
X010489*
X010434Y008996*
X010367Y008987*
X010305Y008961*
X010251Y00892*
X01021Y008867*
X010185Y008805*
X010176Y008738*
X010185Y008671*
X01021Y008609*
X010251Y008555*
X010305Y008514*
X010367Y008489*
X010434Y00848*
X010501Y008489*
X01051Y008492*
X010925*
X010928Y008491*
X010995Y008482*
X011061Y008491*
X011064Y008492*
X01171*
X01173Y00849*
X011765Y008455*
X011761Y00842*
X011769Y008353*
X011795Y008291*
X011836Y008238*
X01189Y008197*
X011952Y008171*
X012019Y008162*
X012086Y008171*
X012148Y008197*
X012201Y008238*
X012242Y008291*
X012243Y008294*
X012933Y008984*
X01323*
X013263Y008951*
X013345Y008888*
X013441Y008849*
X013543Y008835*
X016476*
X016579Y008849*
X016675Y008888*
X016757Y008951*
X017919Y010113*
X018993Y011187*
X019771Y010409*
Y01026*
X019715Y010204*
X019673Y010218*
X019653Y010267*
X019612Y01032*
X019558Y010361*
X019496Y010387*
X019429Y010396*
X019362Y010387*
X0193Y010361*
X019247Y01032*
X01923Y010298*
X01877*
X018708Y010286*
X018656Y010251*
X018302Y009897*
X018267Y009845*
X018255Y009783*
Y008275*
X016525Y006546*
X01649Y006494*
X016478Y006432*
Y006252*
X016456Y006236*
X016415Y006182*
X016389Y00612*
X016381Y006053*
X016389Y005986*
X016415Y005924*
X016453Y005875*
X016445Y005837*
X016444Y005835*
X016279*
X016262Y005857*
X016208Y005898*
X016146Y005924*
X016079Y005933*
X016013Y005924*
X01595Y005898*
X015897Y005857*
X015856Y005804*
X01583Y005742*
X015821Y005675*
X01583Y005608*
X01585Y00556*
X01583Y00552*
X015731*
X015721Y005529*
Y005951*
X016745Y006975*
X016778Y007024*
X016789Y007082*
Y007156*
X016794Y00718*
Y007963*
X016783Y00802*
X01675Y008069*
X016219Y008601*
X01617Y008633*
X016112Y008645*
X015315*
X015291Y008677*
X015237Y008718*
X015175Y008743*
X015108Y008752*
X015041Y008743*
X014979Y008718*
X014926Y008677*
X014885Y008623*
X014859Y008561*
X01485Y008494*
X014851Y00849*
X014813Y008475*
X014779Y008519*
X014726Y00856*
X014663Y008586*
X014596Y008595*
X01453Y008586*
X014467Y00856*
X014414Y008519*
X014373Y008466*
X014347Y008403*
X014338Y008337*
X014347Y00827*
X014373Y008208*
X014414Y008154*
X014467Y008113*
X01453Y008087*
X014596Y008079*
X014636Y008084*
X014746Y007974*
X014795Y007942*
X014846Y007931*
X014866Y007896*
X014754Y007784*
X014712Y007797*
X014692Y007846*
X014651Y007899*
X014598Y00794*
X014535Y007966*
X014468Y007975*
X014402Y007966*
X014339Y00794*
X014286Y007899*
X014285Y007897*
X01377*
X013701Y007883*
X013642Y007844*
X01272Y006923*
X0104*
X009915Y007408*
Y010254*
X009954Y010261*
X009973Y010215*
X010014Y010162*
X010068Y010121*
X01013Y010095*
X010197Y010086*
X010264Y010095*
X010326Y010121*
X010379Y010162*
X01042Y010215*
X010446Y010278*
X010455Y010344*
X010446Y010411*
X01042Y010474*
X010409Y010489*
X012067Y012147*
X012104Y012152*
X012166Y012178*
X01222Y012219*
X012261Y012273*
X012287Y012335*
X012296Y012402*
X012287Y012468*
X012261Y012531*
X01222Y012584*
X012166Y012625*
X012104Y012651*
X012037Y01266*
X011971Y012651*
X011908Y012625*
X011855Y012584*
X011814Y012531*
X011788Y012468*
X011783Y012431*
X010055Y010703*
X010011Y010638*
X009996Y010561*
Y010503*
X009973Y010474*
X009954Y010428*
X009915Y010435*
Y010821*
X012055Y012961*
X012057Y01296*
X012124Y012969*
X012186Y012995*
X01224Y013036*
X012252Y013052*
X012292Y013039*
G37*
G36*
X018402Y012749D02*
X017815D01*
X017746Y01274*
X017678Y012749*
X017631*
X017581Y0128*
Y0131*
X017582Y013102*
X017591Y013169*
X017582Y013236*
X017556Y013298*
X017515Y013352*
X017462Y013393*
X017399Y013419*
X017333Y013427*
X017266Y013419*
X017204Y013393*
X01715Y013352*
X017109Y013298*
X017083Y013236*
X017075Y013169*
X017083Y013102*
X017084Y0131*
Y012749*
X015712*
X015465Y012996*
Y0131*
X015466Y013102*
X015475Y013169*
X015466Y013236*
X01544Y013298*
X015399Y013352*
X015346Y013393*
X015284Y013419*
X015217Y013427*
X01515Y013419*
X015088Y013393*
X015034Y013352*
X014993Y013298*
X014968Y013236*
X014959Y013169*
X014968Y013102*
X014969Y0131*
Y012893*
X014975Y012843*
X014938Y012824*
X014894Y012868*
Y0131*
X014895Y013102*
X014904Y013169*
X014895Y013236*
X01487Y013298*
X014829Y013352*
X014775Y013393*
X014713Y013419*
X014646Y013427*
X014579Y013419*
X014517Y013393*
X014464Y013352*
X014423Y013298*
X014397Y013236*
X014388Y013169*
X014397Y013102*
X014398Y0131*
Y012765*
X014384Y012749*
X013842*
X013316Y013276*
X013314Y013279*
X013273Y013332*
X01322Y013373*
X013158Y013399*
X013091Y013408*
X013024Y013399*
X012962Y013373*
X012908Y013332*
X012867Y013279*
X012842Y013216*
X012835Y013168*
X012795*
X012789Y013216*
X012763Y013279*
X012722Y013332*
X012669Y013373*
X012607Y013399*
X01254Y013408*
X012473Y013399*
X012411Y013373*
X012357Y013332*
X012339Y013309*
X012294Y013315*
X012281Y013348*
X01224Y013401*
X012186Y013442*
X012124Y013468*
X012057Y013477*
X01199Y013468*
X011928Y013442*
X011875Y013401*
X011834Y013348*
X011808Y013285*
X011799Y013218*
Y013216*
X009607Y011023*
X009567Y010965*
X009554Y010896*
Y007333*
X009567Y007264*
X009607Y007205*
X010197Y006614*
X010256Y006575*
X010325Y006561*
X012795*
X012864Y006575*
X012923Y006614*
X013845Y007536*
X014285*
X014286Y007534*
X014339Y007493*
X014402Y007467*
X014435Y007463*
X014458Y007431*
X014456Y007419*
Y007328*
X013587Y00646*
X009163*
X009102Y006448*
X00905Y006413*
X008621Y005984*
X008588Y006006*
X008596Y006026*
X008605Y006093*
X008601Y00612*
X008696Y006215*
X008731Y006267*
X008743Y006329*
Y007163*
X008765Y00718*
X008806Y007233*
X008832Y007295*
X008841Y007362*
X008832Y007429*
X008806Y007491*
X008765Y007545*
X008718Y007581*
X008713Y007606*
X008714Y007628*
X008746Y007652*
X008787Y007706*
X008812Y007768*
X008821Y007835*
X008812Y007901*
X008787Y007964*
X008746Y008017*
X008692Y008058*
X00863Y008084*
X008563Y008093*
X008496Y008084*
X008434Y008058*
X00838Y008017*
X008364Y007995*
X008287*
X008226Y007983*
X008174Y007948*
X007829Y007604*
X007795Y007552*
X007782Y00749*
Y007452*
X007743Y007438*
X007722Y007466*
X007668Y007507*
X007632Y007522*
X007281Y007873*
X007809Y008402*
X007856Y008463*
X007886Y008535*
X007896Y008612*
Y008629*
X007942Y008689*
X007982Y008785*
X007996Y008888*
Y01079*
X010829Y013624*
X01085Y013632*
X010932Y013696*
X011092Y013855*
X018402*
Y012749*
G37*
G36*
X020897Y009309D02*
X020902Y009307D01*
Y00687*
X020916Y006767*
X020955Y006672*
X021018Y006589*
X022879Y004729*
X022895Y004689*
X022935Y004638*
X023236Y004336*
Y003502*
X023235Y003499*
X02323Y003465*
X023189Y003451*
X020057Y006583*
X020008Y006615*
X019951Y006627*
X018175*
X018117Y006615*
X018068Y006583*
X017608Y006123*
X017601Y006125*
X017573Y006144*
X017581Y006201*
X017577Y006228*
X020654Y009305*
X020671Y009298*
X020738Y009289*
X020805Y009298*
X020863Y009322*
X020897Y009309*
G37*
G36*
X010228Y014352D02*
X01028Y014313D01*
X010287Y01431*
X010294Y014304*
X010321Y014293*
X010326Y014282*
X010329Y014247*
X007318Y011236*
X007255Y011153*
X007215Y011057*
X007201Y010955*
Y008888*
X007215Y008785*
X007254Y008689*
X006719Y008154*
X006671Y008092*
X006641Y00802*
X006631Y007943*
X006636Y007909*
X006631Y007874*
Y005722*
X006399Y00549*
X006397Y005489*
X006343Y005448*
X006302Y005395*
X006276Y005333*
X006267Y005266*
X006276Y005199*
X006302Y005137*
X006343Y005083*
X006397Y005042*
X006459Y005016*
X006526Y005008*
X006592Y005016*
X0066Y005017*
X006631Y004993*
Y004818*
X006394Y004581*
X006346Y004519*
X006317Y004447*
X006307Y00437*
Y002691*
X006272Y002656*
X006224Y002594*
X006194Y002522*
X006184Y002445*
X006194Y002368*
X006224Y002296*
X006272Y002234*
X006333Y002187*
X006355Y002178*
X006347Y002139*
X005106*
X004736Y002509*
X004737Y002515*
X004756Y002544*
X004813Y002537*
X00488Y002546*
X004883Y002547*
X005187*
X005251Y002555*
X005311Y00258*
X005362Y002619*
X005776Y003033*
X005815Y003085*
X00584Y003144*
X005849Y003209*
Y003695*
X005881Y00372*
X005944Y003802*
X005984Y003898*
X005997Y004001*
Y006063*
Y008789*
X005993Y008824*
X005997Y008858*
Y009073*
X006034Y009088*
X006557Y008565*
X006558Y008562*
X006599Y008509*
X006652Y008468*
X006715Y008442*
X006781Y008433*
X006848Y008442*
X006911Y008468*
X006964Y008509*
X007005Y008562*
X007031Y008625*
X00704Y008691*
X007031Y008758*
X007005Y00882*
X006964Y008874*
X006911Y008915*
X006908Y008916*
X005997Y009826*
Y009872*
X005996Y009882*
X005997Y009892*
Y010692*
X007601Y012295*
X007602Y012297*
X007604Y012298*
X00971Y014404*
X009773Y014486*
X009813Y014582*
X009826Y014685*
Y014703*
X009863Y014718*
X010228Y014352*
G37*
G36*
X018989Y009938D02*
X018952Y00991D01*
X018947Y009905*
X018945Y009904*
X018891Y009863*
X01885Y009809*
X018824Y009747*
X018816Y00968*
X018824Y009613*
X01885Y009551*
X018891Y009498*
X018945Y009457*
X019007Y009431*
X019074Y009422*
X019141Y009431*
X019203Y009457*
X019241Y009486*
X019596*
X019661Y009495*
X01972Y009519*
X019772Y009559*
X020058Y009845*
X02009Y009824*
X020065Y009762*
X020056Y009695*
X020059Y009668*
X018615Y008224*
X018576Y00824*
Y009717*
X018836Y009977*
X018976*
X018989Y009938*
G37*
G36*
X023801Y011691D02*
X023797Y011663D01*
X023806Y011597*
X023832Y011534*
X023873Y011481*
X023926Y01144*
X023988Y011414*
X024019Y01141*
X024056Y011397*
X024057Y011372*
X02406Y011365*
Y011357*
X024066Y011346*
X024071Y011335*
X024075Y011329*
X024079Y011323*
X024094Y011304*
X024098Y011301*
X024101Y011297*
X024113Y011289*
X024125Y011279*
X024129Y011278*
X024133Y011275*
X024148Y011272*
X024162Y011268*
X024167Y011269*
X024172Y011268*
X028023*
X02805Y011251*
X028057Y011242*
X02806Y011234*
Y007836*
X028024Y007821*
X026705Y00914*
Y010767*
X026706Y01077*
X026715Y010837*
X026706Y010903*
X02668Y010966*
X026639Y011019*
X026586Y01106*
X026523Y011086*
X026457Y011095*
X02639Y011086*
X026328Y01106*
X026274Y011019*
X026233Y010966*
X026207Y010903*
X026199Y010837*
X026207Y01077*
X026209Y010767*
Y009687*
X026172Y009672*
X02585Y009994*
X025789Y010041*
X025717Y010071*
X02564Y010081*
X024699*
X024559Y010221*
Y010865*
X02456Y010868*
X024569Y010935*
X02456Y011002*
X024535Y011064*
X024494Y011118*
X02444Y011159*
X024378Y011184*
X024311Y011193*
X024244Y011184*
X024182Y011159*
X024128Y011118*
X024087Y011064*
X024062Y011002*
X024053Y010935*
X024062Y010868*
X024063Y010865*
Y01017*
X024026Y010155*
X022448Y011733*
X022463Y01177*
X023589*
X023606Y011773*
X023623Y011776*
X023625Y011777*
X023628*
X023642Y011787*
X023657Y011796*
X023667Y011805*
X023685Y011807*
X023801Y011691*
G37*
G36*
X015916Y007362D02*
X01595Y007336D01*
X016013Y00731*
X016079Y007301*
X016146Y00731*
X016208Y007336*
X016257Y007373*
X016296Y007363*
Y007238*
X015287Y006228*
X015255Y00618*
X015243Y006122*
Y005394*
X015255Y005336*
X015287Y005287*
X015488Y005086*
X015537Y005054*
X015595Y005042*
X017141*
X017199Y005054*
X017248Y005086*
X01831Y006149*
X0198*
X023447Y002502*
X023496Y002469*
X023553Y002458*
X024564*
X02512Y001902*
X025111Y001891*
X025085Y001829*
X025077Y001762*
X025085Y001695*
X025111Y001633*
X025152Y001579*
X025206Y001538*
X025268Y001512*
X025335Y001504*
X025401Y001512*
X025464Y001538*
X025508Y001573*
X025539Y001566*
X025551Y001559*
X025554Y001544*
X02544Y00143*
X025033*
X024692Y001771*
X024697Y001811*
X024688Y001878*
X024663Y00194*
X024621Y001994*
X024568Y002035*
X024506Y00206*
X024439Y002069*
X024372Y00206*
X02431Y002035*
X024256Y001994*
X024215Y00194*
X02419Y001878*
X024181Y001811*
X02419Y001744*
X024215Y001682*
X024256Y001629*
X02431Y001587*
X024372Y001562*
X024439Y001553*
X024479Y001558*
X024854Y001183*
X02484Y001144*
X024065*
X024001Y001135*
X023941Y001111*
X023889Y001071*
X02384Y001022*
X023837Y001021*
X023784Y00098*
X023743Y000926*
X023717Y000864*
X023708Y000797*
X023717Y00073*
X023743Y000668*
X023751Y000658*
X023734Y000622*
X015349*
X013596Y002375*
Y002475*
X013597Y002478*
X013606Y002544*
X013597Y002611*
X013571Y002673*
X01353Y002727*
X013477Y002768*
X013414Y002794*
X013348Y002802*
X013281Y002794*
X013218Y002768*
X013165Y002727*
X013124Y002673*
X013098Y002611*
X013089Y002544*
X013098Y002478*
X013099Y002475*
Y002273*
X013108Y002208*
X013133Y002148*
X013172Y002097*
X015014Y000255*
X014999Y000218*
X01145*
X011438Y000258*
X011474Y000304*
X011499Y000366*
X011508Y000433*
X011499Y0005*
X011474Y000562*
X011433Y000616*
X011379Y000657*
X011317Y000682*
X01125Y000691*
X011183Y000682*
X011121Y000657*
X011067Y000616*
X011051Y000594*
X007409*
X007171Y000832*
X006974Y001029*
X008234Y002288*
X008268Y00234*
X008281Y002402*
Y003482*
X008303Y003499*
X008344Y003552*
X008369Y003614*
X008378Y003681*
X008369Y003748*
X008344Y00381*
X008303Y003864*
X008249Y003905*
X008187Y00393*
X00812Y003939*
X008053Y00393*
X007991Y003905*
X007938Y003864*
X007937Y003862*
X007895Y003872*
X007892Y003887*
X009494Y005489*
X014291*
X01436Y005502*
X014419Y005542*
X015352Y006474*
X015354*
X015421Y006483*
X015483Y006509*
X015537Y00655*
X015578Y006603*
X015604Y006665*
X015612Y006732*
X015604Y006799*
X015578Y006861*
X015537Y006915*
X015483Y006956*
X015443Y006972*
X01544Y006976*
X015431Y007018*
X01546Y007056*
X015486Y007118*
X015494Y007185*
X015486Y007252*
X015473Y007281*
X015506Y007306*
X015531Y007287*
X015593Y007261*
X01566Y007252*
X015727Y007261*
X015789Y007287*
X015843Y007328*
X015864Y007355*
X015894Y007375*
X015916Y007362*
G37*
G36*
X005203Y005306D02*
Y004001D01*
X005217Y003898*
X005257Y003802*
X00532Y00372*
X005352Y003695*
Y003311*
X005084Y003043*
X004883*
X00488Y003044*
X004813Y003053*
X004746Y003044*
X004684Y003018*
X00463Y002977*
X004627Y002973*
X00459Y002985*
Y005226*
X004629Y005235*
X00467Y005181*
X004723Y00514*
X004786Y005114*
X004852Y005106*
X004919Y005114*
X004981Y00514*
X005035Y005181*
X005059Y005213*
X005167Y005321*
X005203Y005306*
G37*
G36*
X030355Y013199D02*
X030413Y01316D01*
X030474Y013148*
X030484Y013115*
X030536Y013019*
X030604Y012935*
X030688Y012866*
X030725Y012846*
Y012807*
X030688Y012787*
X030604Y012718*
X030536Y012634*
X030484Y012539*
X030453Y012435*
X030442Y012327*
X030453Y012219*
X030484Y012115*
X030536Y012019*
X030604Y011935*
X030688Y011866*
X030725Y011846*
Y011807*
X030688Y011787*
X030604Y011718*
X030536Y011634*
X030484Y011539*
X030453Y011435*
X030442Y011327*
X030453Y011219*
X030484Y011115*
X030536Y011019*
X030604Y010935*
X030688Y010866*
X030725Y010846*
Y010807*
X030688Y010787*
X030604Y010718*
X030536Y010634*
X030484Y010539*
X030453Y010435*
X030442Y010327*
X030453Y010219*
X030484Y010115*
X030536Y010019*
X030604Y009935*
X030688Y009866*
X030725Y009846*
Y009807*
X030688Y009787*
X030604Y009718*
X030536Y009634*
X030484Y009539*
X030453Y009435*
X030442Y009327*
X030453Y009219*
X030484Y009115*
X030536Y009019*
X030604Y008935*
X030688Y008866*
X030725Y008846*
Y008807*
X030688Y008787*
X030604Y008718*
X030536Y008634*
X030484Y008539*
X030453Y008435*
X030442Y008327*
X030453Y008219*
X030484Y008115*
X030536Y008019*
X030604Y007935*
X030688Y007866*
X030725Y007846*
Y007807*
X030688Y007787*
X030604Y007718*
X030536Y007634*
X030484Y007539*
X030453Y007435*
X030442Y007327*
X030453Y007219*
X030484Y007115*
X030536Y007019*
X030604Y006935*
X030688Y006866*
X030725Y006846*
Y006807*
X030688Y006787*
X030604Y006718*
X030536Y006634*
X030484Y006539*
X030453Y006435*
X030442Y006327*
X030453Y006219*
X030484Y006115*
X030536Y006019*
X030604Y005935*
X030629Y005915*
X030616Y005878*
X030445*
Y004776*
X031547*
Y004946*
X031584Y00496*
X031604Y004935*
X031688Y004866*
X031784Y004815*
X031888Y004784*
X031996Y004773*
X032104Y004784*
X032208Y004815*
X032304Y004866*
X032388Y004935*
X032457Y005019*
X032508Y005115*
X032539Y005219*
X032547Y005294*
X032586Y005292*
Y004523*
X032406Y004343*
X030133*
X028551Y005926*
Y00717*
X02855Y007176*
X028557Y007226*
Y011234*
X02856Y011242*
X028567Y011251*
X028594Y011268*
X029104*
X029143Y011275*
X029175Y011297*
X029637Y011759*
X029659Y011792*
X029667Y01183*
X029659Y011869*
X029644Y011905*
X029622Y011938*
X02959Y011959*
X029551Y011967*
X028313*
X02823Y011978*
X028159Y012008*
X028097Y012055*
X02805Y012116*
X028021Y012187*
X028011Y012264*
X028021Y01234*
X02805Y012412*
X028097Y012473*
X028159Y01252*
X02823Y01255*
X028313Y012561*
X030167*
X030206Y012568*
X030238Y01259*
X03026Y012622*
X030268Y012661*
Y013234*
X030304Y01325*
X030355Y013199*
G37*
%LNmpspcb-2*%
%LPC*%
G36*
X031496Y003448D02*
X031303Y003435D01*
X031113Y003398*
X03093Y003335*
X030756Y00325*
X030595Y003142*
X03045Y003015*
X030322Y002869*
X030215Y002708*
X030129Y002535*
X030067Y002351*
X030029Y002162*
X030017Y001969*
X030029Y001775*
X030067Y001586*
X030129Y001402*
X030215Y001229*
X030322Y001068*
X03045Y000922*
X030595Y000795*
X030756Y000687*
X03093Y000602*
X031113Y000539*
X031303Y000502*
X031496Y000489*
X031689Y000502*
X031879Y000539*
X032062Y000602*
X032236Y000687*
X032397Y000795*
X032542Y000922*
X03267Y001068*
X032777Y001229*
X032863Y001402*
X032925Y001586*
X032963Y001775*
X032976Y001969*
X032963Y002162*
X032925Y002351*
X032863Y002535*
X032777Y002708*
X03267Y002869*
X032542Y003015*
X032397Y003142*
X032236Y00325*
X032062Y003335*
X031879Y003398*
X031689Y003435*
X031496Y003448*
G37*
G36*
X019488Y005514D02*
X019421Y005505D01*
X019359Y005479*
X019306Y005438*
X019265Y005385*
X019239Y005323*
X01923Y005256*
X019239Y005189*
X019265Y005127*
X019306Y005073*
X019311Y005069*
X019298Y00503*
X019247Y005008*
X019195Y004969*
X018703Y004477*
X018701Y004476*
X018647Y004435*
X018606Y004381*
X01858Y004319*
X018572Y004252*
X01858Y004185*
X018606Y004123*
X018647Y00407*
X018701Y004029*
X018763Y004003*
X01883Y003994*
X018896Y004003*
X018959Y004029*
X019012Y00407*
X019053Y004123*
X019054Y004126*
X019474Y004545*
X019848*
X020333Y004061*
Y003872*
X019405Y002945*
X017492*
Y003366*
X017484Y00343*
X017459Y00349*
X01742Y003542*
X016662Y0043*
X01661Y004339*
X01655Y004364*
X016486Y004372*
X014705*
X01464Y004364*
X014581Y004339*
X014529Y0043*
X013578Y003349*
X011313*
X011209Y003453*
X011208Y003456*
X011167Y003509*
X011113Y00355*
X011051Y003576*
X010984Y003585*
X010917Y003576*
X010855Y00355*
X010802Y003509*
X010761Y003456*
X010735Y003394*
X010726Y003327*
X010735Y00326*
X010761Y003198*
X010802Y003144*
X010855Y003103*
X010858Y003102*
X011035Y002925*
X011087Y002885*
X011146Y002861*
X011211Y002852*
X013681*
X013745Y002861*
X013805Y002885*
X013857Y002925*
X014808Y003876*
X016383*
X016996Y003263*
Y002945*
X01624*
X016176Y002937*
X016116Y002912*
X016065Y002872*
X015329Y002137*
X01529Y002086*
X015265Y002026*
X015257Y001962*
Y001781*
X015256Y001778*
X015247Y001711*
X015256Y001644*
X015281Y001582*
X015322Y001529*
X015376Y001488*
X015438Y001462*
X015505Y001453*
X015572Y001462*
X015634Y001488*
X015687Y001529*
X015728Y001582*
X015754Y001644*
X015763Y001711*
X015754Y001778*
X015753Y001781*
Y001859*
X016343Y002449*
X019508*
X019572Y002457*
X019632Y002482*
X019683Y002521*
X020707Y003545*
X02071Y003546*
X020763Y003587*
X020804Y003641*
X02083Y003703*
X020839Y00377*
X02083Y003836*
X020829Y003839*
Y004163*
X02082Y004228*
X020796Y004287*
X020756Y004339*
X020126Y004969*
X019713Y005382*
X019712Y005385*
X019671Y005438*
X019617Y005479*
X019555Y005505*
X019488Y005514*
G37*
%LNmpspcb-3*%
%LPD*%
G54D10*
X015394Y006122D02*
X016447Y007175D01*
X015394Y005394D02*
Y006122D01*
Y005394D02*
X015595Y005193D01*
X019951Y006476D02*
X023553Y002874D01*
X024626Y002608D02*
X025335Y0019D01*
X023553Y002608D02*
X024626D01*
X019862Y006299D02*
X023553Y002608D01*
X025502Y00128D02*
X025719Y001496D01*
X02497Y00128D02*
X025502D01*
X025335Y001762D02*
Y0019D01*
X024654Y002874D02*
X025719Y001809D01*
Y001496D02*
Y001809D01*
X023553Y002874D02*
X024654D01*
X024439Y001811D02*
X02497Y00128D01*
X018175Y006476D02*
X019951D01*
X017141Y005193D02*
X018248Y006299D01*
X019862*
X017068Y00537D02*
X018175Y006476D01*
X016727Y00537D02*
X017068D01*
X016722Y005374D02*
X016727Y00537D01*
X01621Y005374D02*
X016722D01*
X016206Y00537D02*
X01621Y005374D01*
X015668Y00537D02*
X016206D01*
X015571Y005467D02*
X015668Y00537D01*
X015595Y005193D02*
X017141D01*
X015571Y005467D02*
Y006014D01*
X016639Y007082*
Y007175*
X016644Y00718*
Y007963*
X016112Y008494D02*
X016644Y007963D01*
X015108Y008494D02*
X016112D01*
X016447Y007175D02*
Y007717D01*
X016083Y008081D02*
X016447Y007717D01*
X014852Y008081D02*
X016083D01*
X014596Y008337D02*
X014852Y008081D01*
G54D11*
X022037Y018405D02*
X022067Y018435D01*
X024478*
X024783Y01874*
X004901Y005364D02*
X0056Y006063D01*
X004852Y005364D02*
X004901D01*
G54D15*
X023946Y016319D02*
X023966D01*
X02366Y016605D02*
X023946Y016319D01*
X030482Y013327D02*
X030996D01*
X02748Y016329D02*
X030482Y013327D01*
X023976Y016329D02*
X02748D01*
X023643Y016605D02*
X02366D01*
X009734Y007333D02*
Y010896D01*
Y007333D02*
X010325Y006742D01*
X012795*
X01377Y007717*
X014468*
X023966Y016319D02*
X023976Y016329D01*
X007697Y003947D02*
X009419Y005669D01*
X006712Y001339D02*
X007697Y002323D01*
X004816Y001339D02*
X006712D01*
X003819Y002336D02*
X004816Y001339D01*
X003819Y002336D02*
Y00375D01*
X003012Y004557D02*
X003819Y00375D01*
X001469Y00488D02*
Y005327D01*
Y00488D02*
X001791Y004557D01*
X003012*
X007697Y002323D02*
Y003947D01*
X009419Y005669D02*
X014291D01*
X015354Y006732*
X009734Y010896D02*
X012057Y013218D01*
G54D89*
X003406Y002136D02*
Y003531D01*
Y002136D02*
X004616Y000925D01*
X00292Y004016D02*
X003406Y003531D01*
X000866Y008724D02*
X001469Y009327D01*
X000866Y004508D02*
Y008724D01*
X02377Y011949D02*
Y012402D01*
Y011949D02*
X024055Y011663D01*
X007037Y004173D02*
X009163Y006299D01*
X007234Y004078D02*
X009259Y006102D01*
X007431Y003996D02*
X009341Y005906D01*
X008583Y006329D02*
Y007362D01*
X008287Y007835D02*
X008563D01*
X008346Y006093D02*
X008583Y006329D01*
X007343Y000433D02*
X01125D01*
X006929Y000846D02*
X007343Y000433D01*
X00685Y000925D02*
X007057Y000719D01*
X004616Y000925D02*
X00685D01*
X004616D02*
D01*
X006841Y001122D02*
X00812Y002402D01*
X004726Y001122D02*
X006841D01*
X003602Y002246D02*
X004726Y001122D01*
X006622Y001555D02*
X007431Y002364D01*
X004906Y001555D02*
X006622D01*
X004035Y002426D02*
X004906Y001555D01*
X006541Y001752D02*
X007234Y002445D01*
X004987Y001752D02*
X006541D01*
X004232Y002507D02*
X004987Y001752D01*
X006489Y001978D02*
X007037Y002527D01*
X005039Y001978D02*
X006489D01*
X004429Y002589D02*
X005039Y001978D01*
X004035Y002426D02*
Y00502D01*
X004232Y002507D02*
Y005571D01*
X004429Y002589D02*
Y006506D01*
X003602Y002246D02*
Y003612D01*
X00108Y004016D02*
X00292D01*
X000669Y004426D02*
X00108Y004016D01*
X000669Y004426D02*
Y009872D01*
X001124Y010327*
X001469*
X003002Y004213D02*
X003602Y003612D01*
X001161Y004213D02*
X003002D01*
X000866Y004508D02*
X001161Y004213D01*
X001469Y008327D02*
X00197Y007825D01*
X00311*
X004429Y006506*
X003228Y005827D02*
X004035Y00502D01*
X001469Y007327D02*
X001965Y006831D01*
X002972*
X004232Y005571*
X001469Y006327D02*
X001969Y005827D01*
X003228*
X00812Y002402D02*
Y003681D01*
X007943Y005856D02*
Y00749D01*
X008287Y007835*
X016978Y00636D02*
X020314Y009695D01*
X017323Y006201D02*
X020669Y009547D01*
X020738*
X01877Y010138D02*
X019429D01*
X018415Y009783D02*
X01877Y010138D01*
X018415Y008209D02*
Y009783D01*
X016639Y006432D02*
X018415Y008209D01*
X016639Y006053D02*
Y006432D01*
X016978Y005866D02*
Y00636D01*
X016787Y005675D02*
X016978Y005866D01*
X016079Y005675D02*
X016787D01*
X007037Y002527D02*
Y004173D01*
X007234Y002445D02*
Y004078D01*
X007431Y002364D02*
Y003996D01*
X009163Y006299D02*
X013654D01*
X015071Y007874D02*
X015925D01*
X014616Y007419D02*
X015071Y007874D01*
X015548Y007623D02*
X01566Y00751D01*
X015098Y007623D02*
X015548D01*
X014813Y007337D02*
X015098Y007623D01*
X014813Y00718D02*
Y007337D01*
X015196Y007185D02*
X015236D01*
X015146Y007235D02*
X015196Y007185D01*
X001169Y006327D02*
X001469D01*
X009259Y006102D02*
X013735D01*
X013654Y006299D02*
X014616Y007261D01*
Y007419*
X013817Y005906D02*
X015146Y007235D01*
X013735Y006102D02*
X014813Y00718D01*
X015925Y007874D02*
X016079Y00772D01*
Y007559D02*
Y00772D01*
X009341Y005906D02*
X013817D01*
G54D90*
X023967Y000797D02*
X024065Y000896D01*
X027785Y001545D02*
X028159D01*
X027136Y000896D02*
X027785Y001545D01*
X028189Y000817D02*
Y003711D01*
X027874Y004026D02*
X028189Y003711D01*
X028573Y000374D02*
X029016Y000817D01*
Y00375*
X015246Y000374D02*
X028573D01*
X024065Y000896D02*
X027136D01*
X017333Y012697D02*
Y013169D01*
Y012697D02*
X017678Y012352D01*
X018986Y011545D02*
X02002Y010512D01*
X010434Y008738D02*
X010437Y008741D01*
X010995*
X011727*
X01173Y008738*
X004154Y015236D02*
X005837D01*
X003533Y015856D02*
X004154Y015236D01*
X003533Y015856D02*
Y01939D01*
X005837Y015236D02*
X006319Y015719D01*
X005128Y020984D02*
X006171D01*
X003533Y01939D02*
X005128Y020984D01*
X017244Y002697D02*
X019508D01*
X01624D02*
X017244D01*
X010984Y003327D02*
X011211Y0031D01*
X013681*
X014705Y004124*
X016486*
X017244Y003366*
Y002697D02*
Y003366D01*
X019508Y002697D02*
X020581Y00377D01*
X015505Y001962D02*
X01624Y002697D01*
X015505Y001711D02*
Y001962D01*
X019951Y004793D02*
X020581Y004163D01*
X019488Y005256D02*
X019951Y004793D01*
X01883Y004252D02*
X019371Y004793D01*
X019951*
X020581Y00377D02*
Y004163D01*
X02311Y004813D02*
X023484Y004439D01*
Y003433D02*
Y004439D01*
X02372Y004931D02*
X024114Y004537D01*
Y003445D02*
Y004537D01*
X006929Y007874D02*
Y007943D01*
Y007874D02*
X00752Y007283D01*
X007539*
X006929Y005669D02*
Y005699D01*
X006526Y005266D02*
X006929Y005669D01*
X012831Y009232D02*
X013543D01*
X012019Y00842D02*
X012831Y009232D01*
X012707Y009715D02*
Y010069D01*
X01173Y008738D02*
X012707Y009715D01*
X017678Y012352D02*
X017815D01*
X015217Y012893D02*
X015758Y012352D01*
X015217Y012893D02*
Y013169D01*
X014646Y012765D02*
X015059Y012352D01*
X014646Y012765D02*
Y013169D01*
X013809Y012352D02*
Y012431D01*
X013091Y01315D02*
X013809Y012431D01*
X01254Y012834D02*
Y01315D01*
Y012834D02*
X013022Y012352D01*
X016057Y010394D02*
X017638D01*
X015497Y010954D02*
X016057Y010394D01*
X011919Y010069D02*
X012707D01*
X011794Y009944D02*
X011919Y010069D01*
X011794Y009905D02*
Y009944D01*
X02002Y010157D02*
Y010512D01*
X019596Y009734D02*
X02002Y010157D01*
X019128Y009734D02*
X019596D01*
X019074Y00968D02*
X019128Y009734D01*
X015226Y020591D02*
X015335D01*
X013947Y01935D02*
X015226Y020591D01*
X012077Y020571D02*
Y020591D01*
X011339Y019833D02*
X012077Y020571D01*
X009164Y020316D02*
X009833Y020984D01*
X009164Y020316D02*
X009167Y01999D01*
X009873Y020217D02*
X01064Y020984D01*
X009873Y020197D02*
Y020217D01*
X007411Y020984D02*
X00749D01*
X006752Y020325D02*
X007411Y020984D01*
X006171D02*
X00628D01*
X005512Y020325D02*
X006171Y020984D01*
X013348Y002273D02*
Y002544D01*
X020984Y012018D02*
X022101Y013135D01*
X02343Y014473D02*
X023681Y014222D01*
X023268Y014636D02*
X02343Y014473D01*
X023361D02*
X02343D01*
X022096Y013209D02*
X023361Y014473D01*
X013348Y002273D02*
X015246Y000374D01*
X027028Y005738D02*
X029016Y00375D01*
X023169Y005738D02*
X027028D01*
X021821Y007086D02*
X023169Y005738D01*
X021821Y007086D02*
Y010669D01*
X020984Y011505D02*
X021821Y010669D01*
X020984Y011505D02*
Y012018D01*
X028253Y00717D02*
X028308Y007226D01*
Y011447*
X023681Y014222D02*
X025354D01*
X020394Y013671D02*
X020856Y013209D01*
X022096*
X024418Y017009D02*
X024774Y016654D01*
X023476Y017009D02*
X024418D01*
X023338Y016871D02*
X023476Y017009D01*
X023131Y016871D02*
X023338D01*
X023321Y017383D02*
X025267D01*
X025276Y017392*
X023131Y017274D02*
X023213D01*
X023321Y017383*
X022736Y016476D02*
X023131Y016871D01*
X027785Y013967D02*
X02874D01*
X027589D02*
X027785D01*
X022736Y015167D02*
X023268Y014636D01*
X023277*
X023907Y015266*
X026427Y016654D02*
X026781Y017008D01*
X024774Y016654D02*
X026427D01*
X025276Y017392D02*
X025463Y017205D01*
X022736Y015167D02*
Y016476D01*
X025354Y014222D02*
X02561Y013967D01*
X027589*
X024528Y013209D02*
X024911Y012825D01*
X026447*
X027589Y013967*
X0056Y009872D02*
X006781Y008691D01*
X026417Y009006D02*
X026457Y009045D01*
Y010837*
X024311Y010118D02*
X024646Y009783D01*
X024311Y010118D02*
Y010935D01*
X009429Y015502D02*
D01*
X010404Y014528*
X010423*
X00732Y012576D02*
X007323Y012579D01*
X005296Y012576D02*
X00732D01*
X0056Y009872D02*
Y009892D01*
Y008789D02*
Y008858D01*
X004833Y008021D02*
X0056Y008789D01*
Y003209D02*
Y004001D01*
X005187Y002795D02*
X0056Y003209D01*
X004813Y002795D02*
X005187D01*
X017352Y018435D02*
X017419Y018369D01*
X014222Y018435D02*
X017352D01*
X012313Y016644D02*
Y016772D01*
X011467Y017618D02*
X012313Y016772D01*
X011043Y016644D02*
Y016674D01*
X010119Y017599D02*
X011043Y016674D01*
X009429Y016644D02*
Y016743D01*
X008436Y017736D02*
X009429Y016743D01*
X007844Y016644D02*
Y016703D01*
X006959Y017589D02*
X007844Y016703D01*
X005295Y016978D02*
Y017677D01*
Y016978D02*
X00563Y016644D01*
G54D91*
X006482Y002445D02*
X006604Y002567D01*
Y00437*
X030015Y018966D02*
X030062Y01892D01*
X029764Y018966D02*
Y019301D01*
X029936Y018794D02*
X030984Y017746D01*
X006929Y005699D02*
Y007874D01*
Y004695D02*
Y005669D01*
X006604Y00437D02*
X006929Y004695D01*
Y007943D02*
X007598Y008612D01*
Y008888*
X029764Y018966D02*
X030015D01*
X029764Y019301D02*
D01*
X028253Y005802D02*
Y00717D01*
Y005802D02*
X03001Y004045D01*
X023976Y009783D02*
X024646D01*
X022185Y011575D02*
X023976Y009783D01*
X026417Y009006D02*
X028253Y00717D01*
X02564Y009783D02*
X026417Y009006D01*
X024646Y009783D02*
X02564D01*
X03001Y004045D02*
X03253D01*
X032884Y0044*
Y016782*
X031919Y017746D02*
X032884Y016782D01*
X030984Y017746D02*
X031919D01*
G54D92*
X027785Y013967D02*
Y014252D01*
X027274Y014764D02*
X027785Y014252D01*
X027067Y014764D02*
X027274D01*
X010197Y010561D02*
X012037Y012402D01*
X010197Y010344D02*
Y010561D01*
G54D93*
X027552Y017963D02*
X02878D01*
X019671Y012081D02*
X021299Y010453D01*
Y00687D02*
Y010453D01*
Y00687D02*
X023238Y004931D01*
X02372*
X026969*
X019671Y014728D02*
X022778Y017835D01*
X019195Y014252D02*
X019671Y014728D01*
X026969Y004931D02*
X027874Y004026D01*
X019671Y012081D02*
Y014728D01*
X024682Y017943D02*
X025504D01*
X024682D02*
D01*
X023056D02*
X024682D01*
X022947Y017835D02*
X023056Y017943D01*
X022778Y017835D02*
X022947D01*
X019154Y014252D02*
X019195D01*
X018799Y013898D02*
X019154Y014252D01*
X007598Y008888D02*
Y010955D01*
X01062Y013976*
X010652*
X010927Y014252*
X019154*
X018799Y012352D02*
Y013898D01*
X029114Y01878D02*
Y019163D01*
Y01878D02*
X029478Y018415D01*
Y017126D02*
Y018415D01*
X029183Y016831D02*
X029478Y017126D01*
X027738Y016831D02*
X029183D01*
X027009Y017559D02*
X027738Y016831D01*
X017815Y012352D02*
X018799D01*
X015758D02*
X017678D01*
X015059D02*
X015758D01*
X013809D02*
X015059D01*
X013022D02*
X013809D01*
X018799Y011555D02*
Y012352D01*
X017638Y010394D02*
X018799Y011555D01*
X016476Y009232D02*
X017638Y010394D01*
X013543Y009232D02*
X016476D01*
X012707Y010069D02*
X013543Y009232D01*
X025504Y017943D02*
X025888Y017559D01*
X027009*
X028898Y01938D02*
X029114Y019163D01*
X027283Y01938D02*
X028898D01*
X015335Y020591D02*
X026073D01*
X012077D02*
X015226D01*
X011033D02*
X012077D01*
X009833Y020984D02*
X01064D01*
X00749D02*
X009833D01*
X00628D02*
X007411D01*
X01064D02*
X011033Y020591D01*
X026073D02*
X027283Y01938D01*
X028307Y012264D02*
X030189D01*
X025049Y019872D02*
X026693Y018228D01*
X018922Y019872D02*
X025049D01*
X017419Y018369D02*
X018922Y019872D01*
X02878Y017963D02*
X028809Y017992D01*
X027287Y018228D02*
X027552Y017963D01*
X026693Y018228D02*
X027287D01*
X009429Y015502D02*
Y016644D01*
Y014685D02*
Y015502D01*
X007323Y012579D02*
X009429Y014685D01*
X0056Y010856D02*
X00732Y012576D01*
X0056Y009892D02*
Y010856D01*
Y008858D02*
Y009872D01*
Y006063D02*
Y008789D01*
Y004001D02*
Y006063D01*
X015694Y016644D02*
X017419Y018369D01*
X012313Y016644D02*
X015694D01*
X011043D02*
X012313D01*
X009429D02*
X011043D01*
X007844D02*
X009429D01*
X00563D02*
X007844D01*
G54D94*
X01687Y015236D03*
G54D95*
X01587Y015236D03*
X01487D03*
X01287D03*
X01387D03*
X01187D03*
G54D96*
X031996Y006327D03*
Y005327D03*
Y007327D03*
Y008327D03*
Y012327D03*
Y011327D03*
Y009327D03*
Y010327D03*
Y014327D03*
Y013327D03*
Y015327D03*
Y016327D03*
X030996D03*
Y015327D03*
Y013327D03*
Y014327D03*
Y010327D03*
Y009327D03*
Y011327D03*
Y012327D03*
Y008327D03*
Y007327D03*
Y006327D03*
X002468D03*
Y005327D03*
Y007327D03*
Y008327D03*
Y012327D03*
Y011327D03*
Y009327D03*
Y010327D03*
Y014327D03*
Y013327D03*
Y015327D03*
Y016327D03*
X001469D03*
Y015327D03*
Y013327D03*
Y014327D03*
Y010327D03*
Y009327D03*
Y011327D03*
Y012327D03*
Y008327D03*
Y007327D03*
Y006327D03*
G54D97*
X030996Y005327D03*
X001469D03*
G54D98*
X031496Y019685D03*
Y001969D03*
X001969D03*
Y019685D03*
G54D99*
X023258Y001909D03*
X028189Y000817D03*
X017333Y013169D03*
X010995Y008741D03*
X023484Y003433D03*
X024114Y003445D03*
X010434Y008738D03*
X012019Y00842D03*
X01254Y01315D03*
X013091D03*
X014646Y013169D03*
X015217D03*
X007539Y007283D03*
X02687Y018967D03*
X027283Y01938D03*
X019074Y00968D03*
X01883Y004252D03*
X019488Y005256D03*
X015505Y001711D03*
X010984Y003327D03*
X006526Y005266D03*
X006496Y002431D03*
X006319Y015719D03*
X011794Y009905D03*
X015497Y010954D03*
X009873Y020197D03*
X009167Y01999D03*
X006752Y020325D03*
X005512D03*
X011339Y019833D03*
X013947Y01935D03*
X020581Y00377D03*
X023967Y000797D03*
X025374Y002894D03*
X026594D03*
X025374Y003278D03*
X026594D03*
Y003711D03*
X025374Y004094D03*
X025768D03*
X026201D03*
X026594D03*
X025374Y003711D03*
X025768D03*
X026201D03*
X025768Y003278D03*
X026201D03*
X025768Y002894D03*
X026201D03*
X009282Y010541D03*
X032874Y020472D03*
Y01811D03*
X032283Y000394D03*
X031102D03*
X029921Y009843D03*
Y000394D03*
X02874Y009843D03*
X020472Y002756D03*
X019882Y001575D03*
X01811Y016929D03*
X018701Y001575D03*
X016929Y016929D03*
X015748Y019291D03*
X014567D03*
X013386Y000394D03*
X012205D03*
X011614Y011024D03*
X009252Y008661D03*
X00748Y014567D03*
X006299Y009843D03*
X005709Y013386D03*
X003937Y012205D03*
Y009843D03*
X004528Y008661D03*
X003937Y000394D03*
X003346Y020472D03*
X002756Y016929D03*
Y000394D03*
X002165Y01811D03*
X001575Y000394D03*
X000394Y019291D03*
X000984Y01811D03*
X000394Y016929D03*
X000984Y015748D03*
X000394Y014567D03*
Y012205D03*
Y002756D03*
X027904Y009346D03*
X027504Y008959D03*
X025432Y010541D03*
X025502Y00843D03*
X024882Y008471D03*
X025368Y008926D03*
X028957Y015522D03*
X019951Y005709D03*
X020738Y009124D03*
X020384Y007598D03*
X019734Y007589D03*
X020039Y007156D03*
X019734Y006781D03*
X019311Y007224D03*
X017076Y002042D03*
X017904Y00502D03*
X024055Y011663D03*
X023321Y013297D03*
X023238Y013681D03*
X022884Y013366D03*
X02189Y013682D03*
X028308Y011447D03*
X028307Y012264D03*
X025335Y001762D03*
X020394Y013671D03*
X02258Y018858D03*
X023643Y016605D03*
X023131Y017274D03*
X027067Y014764D03*
X02872Y017825D03*
X029764Y018966D03*
X011687Y007992D03*
X011609Y007446D03*
X030108Y018966D03*
X028476Y018652D03*
X02872Y01814D03*
X029764Y019301D03*
X008583Y007362D03*
X007539Y007835D03*
X008563D03*
X008346Y006093D03*
X006781Y008691D03*
X005296Y012576D03*
X027992Y018553D03*
X026781Y017008D03*
X027126Y012618D03*
X024568Y013623D03*
X024528Y013209D03*
X024212Y014833D03*
X027923Y014931D03*
X027495Y015836D03*
X027056Y015867D03*
X024626Y015137D03*
X024576Y015748D03*
X004774Y003297D03*
X005118Y000384D03*
X007885Y000837D03*
X00812Y003681D03*
X007943Y005856D03*
X020314Y009695D03*
X020738Y009547D03*
X019429Y010138D03*
X016639Y006053D03*
X024439Y001811D03*
X015236Y007185D03*
X014468Y007717D03*
X01566Y00751D03*
X015354Y006732D03*
X014596Y008337D03*
X015108Y008494D03*
X012057Y013218D03*
X012037Y012402D03*
X02377D03*
X02874Y013967D03*
X029143Y013543D03*
X025334Y01874D03*
X024783D03*
X025463Y017205D03*
X020915Y01751D03*
X022037Y018405D03*
X021713Y014793D03*
X023907Y015266D03*
X024114Y015994D03*
X026457Y010837D03*
X023248Y008917D03*
X021634Y011575D03*
X02376Y010935D03*
X024311D03*
X022185Y011575D03*
X019104Y003927D03*
X016846Y004823D03*
X015955Y00339D03*
X013828Y001064D03*
X010089Y002274D03*
X009656Y000896D03*
X01125Y000433D03*
X012667Y000689D03*
X012608Y002264D03*
X010433Y003327D03*
X006427Y008002D03*
X004833Y008021D03*
X004764Y005955D03*
X004852Y005364D03*
X006122Y00315D03*
X004813Y002795D03*
X007717Y015699D03*
X014222Y017884D03*
Y018435D03*
X013159Y017471D03*
X013809D03*
X019464Y00929D03*
X017323Y006201D03*
X016079Y005675D03*
Y007559D03*
X013348Y002544D03*
X012977Y003538D03*
X01342Y003991D03*
X013873Y004464D03*
X010197Y010344D03*
X015887Y011343D03*
X010974Y013327D03*
X010423Y015079D03*
Y014528D03*
X010915Y017618D03*
Y019075D03*
X007885Y017736D03*
X007471Y01815D03*
X007885Y019203D03*
X007372Y018553D03*
X004744Y017677D03*
X004754Y019154D03*
X004341Y01874D03*
X004331Y018091D03*
X005295Y017677D03*
X006959Y017589D03*
X008436Y017736D03*
X010119Y017599D03*
X011467Y017618D03*
X022431Y002215D03*
Y002756D03*
X023484Y002234D03*
X024114D03*
M02*