Removed Pin From Net: NetName=PWR_EXT Pin=C20-1
Removed Pin From Net: NetName=GND Pin=C20-2
Removed Pin From Net: NetName=PWR_EXT Pin=C21-1
Removed Pin From Net: NetName=GND Pin=C21-2
Removed Pin From Net: NetName=12V Pin=K1-1
Removed Pin From Net: NetName=PWR_EXT Pin=K1-4
Removed Pin From Net: NetName=GPIO_CTRL1 Pin=R19-2
Removed Pin From Net: NetName=GND Pin=R20-2
Removed Pin From Net: NetName=12V Pin=VD5-2
Removed Pin From Net: NetName=GND Pin=VT4-2
Removed Member From Class: ClassName=SubSystem Push Pull Member=C20
Removed Member From Class: ClassName=SubSystem Push Pull Member=C21
Removed Member From Class: ClassName=SubSystem Push Pull Member=K1
Removed Member From Class: ClassName=SubSystem Push Pull Member=R19
Removed Member From Class: ClassName=SubSystem Push Pull Member=R20
Removed Member From Class: ClassName=SubSystem Push Pull Member=VD5
Removed Member From Class: ClassName=SubSystem Push Pull Member=VT4
Added Pin To Net: NetName=PWR_EXT Pin=B1-4
Added Pin To Net: NetName=PWR_EXT Pin=B1-4
Added Pin To Net: NetName=PWR_EXT Pin=B1-4
Added Pin To Net: NetName=PWR_EXT Pin=B1-4
Added Pin To Net: NetName=PWR_EXT Pin=B1-4
Added Pin To Net: NetName=PWR_EXT Pin=B1-4
Added Pin To Net: NetName=PWR_EXT Pin=B1-4
Added Pin To Net: NetName=PWR_EXT Pin=B1-4
Added Pin To Net: NetName=PWR_EXT Pin=B1-4
Added Pin To Net: NetName=PWR_EXT Pin=B1-4
Added Pin To Net: NetName=PWR_EXT Pin=B1-4
Added Pin To Net: NetName=PWR_EXT Pin=B1-4
Added Pin To Net: NetName=PWR_EXT Pin=B1-4
Added Pin To Net: NetName=PWR_EXT Pin=B1-4
Added Pin To Net: NetName=PWR_EXT Pin=B1-4
Added Pin To Net: NetName=PWR_EXT Pin=B1-4
Added Pin To Net: NetName=PWR_EXT Pin=B1-4
Added Pin To Net: NetName=PWR_EXT Pin=B1-4
