Removed Pin From Net: NetName=Line_VN Pin=NT2-2
Removed Member From Class: ClassName=SINUS GENERATE Member=NT2
Removed Member From Class: ClassName=HV_AC Member=Line_VN
Added Pin To Net: NetName=Line_VN Pin=XS4-20
Change Net Name : Old Net Name=Line_VN New Net Name=Half_VS2
Added Member To Class: ClassName=HV_AC Member=Wire Half_VS2
