Removed Pin From Net: NetName=VBUS+ Pin=VD12-1
Removed Pin From Net: NetName=NetL4_1 Pin=VD12-3
Removed Pin From Net: NetName=NetL4_1 Pin=VD13-1
Removed Pin From Net: NetName=GND_HV Pin=VD13-3
Removed Pin From Net: NetName=VBUS+ Pin=VD14-1
Removed Pin From Net: NetName=Line_VN Pin=VD14-3
Removed Pin From Net: NetName=Line_VN Pin=VD15-1
Removed Pin From Net: NetName=GND_HV Pin=VD15-3
Removed Member From Class: ClassName=SINUS GENERATE Member=VD12
Removed Member From Class: ClassName=SINUS GENERATE Member=VD13
Removed Member From Class: ClassName=SINUS GENERATE Member=VD14
Removed Member From Class: ClassName=SINUS GENERATE Member=VD15
