Removed Pin From Net: NetName=LM_DRV_FB Pin=C32-1
Removed Pin From Net: NetName=LM_DRV_FB Pin=DA6-4
Removed Pin From Net: NetName=LM_DRV_FB Pin=R44-1
Removed Pin From Net: NetName=LM_DRV_FB Pin=R46-1
Added Pin To Net: NetName=LM_DRV_FB2 Pin=C32-1
Added Pin To Net: NetName=LM_DRV_FB2 Pin=DA6-4
Added Pin To Net: NetName=LM_DRV_FB2 Pin=R44-1
Added Pin To Net: NetName=LM_DRV_FB2 Pin=R46-1
Added Net: Name=LM_DRV_FB2
