Change Component Designator: Old Designator=C? New Designator=C38
Change Component Designator: Old Designator=DA? New Designator=DA7
Change Component Designator: Old Designator=R? New Designator=R37
Change Component Designator: Old Designator=R? New Designator=R38
