Removed Pin From Net: NetName=5V Pin=C5-1
Removed Pin From Net: NetName=5V Pin=C6-1
Removed Pin From Net: NetName=5V Pin=C7-1
Removed Pin From Net: NetName=5V Pin=DD9-5
Removed Pin From Net: NetName=5V Pin=DD10-5
Removed Pin From Net: NetName=5V Pin=DD11-5
Added Pin To Net: NetName=3.3V Pin=C5-1
Added Pin To Net: NetName=3.3V Pin=C6-1
Added Pin To Net: NetName=3.3V Pin=C7-1
Added Pin To Net: NetName=3.3V Pin=DD9-5
Added Pin To Net: NetName=3.3V Pin=DD10-5
Added Pin To Net: NetName=3.3V Pin=DD11-5
Change Differential Pair Negative Net Name : Old Net Name=serv_RS485_N New Net Name=serv_RS485_N
