Removed Pin From Net: NetName=AIN0 Pin=XP4-1
Removed Pin From Net: NetName=AIN2 Pin=XP4-2
Removed Pin From Net: NetName=AIN1 Pin=XP4-3
Removed Pin From Net: NetName=AIN3 Pin=XP4-4
Added Pin To Net: NetName=AIN2 Pin=XP4-1
Added Pin To Net: NetName=AIN1 Pin=XP4-2
Added Pin To Net: NetName=AIN3 Pin=XP4-3
Added Pin To Net: NetName=AIN0 Pin=XP4-4
