Removed Pin From Net: NetName=MCU_AIN_16 Pin=DD2-8
Removed Pin From Net: NetName=MCU_AIN_15 Pin=DD2-9
Removed Pin From Net: NetName=EXT_AIN_15 Pin=R86-2
Removed Pin From Net: NetName=EXT_AIN_16 Pin=R106-2
Added Pin To Net: NetName=MCU_AIN_15 Pin=DD2-8
Added Pin To Net: NetName=MCU_AIN_16 Pin=DD2-9
Added Pin To Net: NetName=EXT_AIN_16 Pin=R86-2
Added Pin To Net: NetName=EXT_AIN_15 Pin=R106-2
Change Net Name : Old Net Name=MCU_AIN_15 New Net Name=MCU_AIN_16
Change Net Name : Old Net Name=MCU_AIN_16 New Net Name=MCU_AIN_15
