Removed Pin From Net: NetName=MCU_AIN_17 Pin=DD2-34
Removed Pin From Net: NetName=MCU_AIN_19 Pin=DD2-35
Removed Pin From Net: NetName=EXT_AIN_17 Pin=R86-2
Removed Pin From Net: NetName=EXT_AIN_19 Pin=R89-2
Added Pin To Net: NetName=MCU_AIN_19 Pin=DD2-34
Added Pin To Net: NetName=MCU_AIN_17 Pin=DD2-35
Added Pin To Net: NetName=EXT_AIN_19 Pin=R86-2
Added Pin To Net: NetName=EXT_AIN_17 Pin=R89-2
Change Net Name : Old Net Name=MCU_AIN_17 New Net Name=MCU_AIN_19
Change Net Name : Old Net Name=MCU_AIN_19 New Net Name=MCU_AIN_17
