Removed Pin From Net: NetName=EXT_AIN_16 Pin=XP2-5
Removed Pin From Net: NetName=EXT_AIN_15 Pin=XP2-6
Removed Pin From Net: NetName=EXT_AIN_18 Pin=XP2-10
Added Pin To Net: NetName=EXT_AIN_18 Pin=XP2-5
Added Pin To Net: NetName=EXT_AIN_16 Pin=XP2-6
Added Pin To Net: NetName=EXT_AIN_15 Pin=XP2-10
