Removed Pin From Net: NetName=MCU_AIN_16 Pin=DD2-8
Removed Pin From Net: NetName=MCU_AIN_19 Pin=DD2-35
Removed Pin From Net: NetName=EXT_AIN_16 Pin=R89-2
Removed Pin From Net: NetName=EXT_AIN_19 Pin=R106-2
Added Pin To Net: NetName=MCU_AIN_19 Pin=DD2-8
Added Pin To Net: NetName=MCU_AIN_16 Pin=DD2-35
Added Pin To Net: NetName=EXT_AIN_19 Pin=R89-2
Added Pin To Net: NetName=EXT_AIN_16 Pin=R106-2
Change Net Name : Old Net Name=MCU_AIN_16 New Net Name=MCU_AIN_19
Change Net Name : Old Net Name=MCU_AIN_19 New Net Name=MCU_AIN_16
