Removed Pin From Net: NetName=EXT_AIN_11 Pin=XP2-1
Removed Pin From Net: NetName=EXT_AIN_12 Pin=XP2-2
Removed Pin From Net: NetName=EXT_AIN_1 Pin=XP2-19
Removed Pin From Net: NetName=EXT_AIN_2 Pin=XP2-20
Added Pin To Net: NetName=EXT_AIN_12 Pin=XP2-1
Added Pin To Net: NetName=EXT_AIN_11 Pin=XP2-2
Added Pin To Net: NetName=EXT_AIN_2 Pin=XP2-19
Added Pin To Net: NetName=EXT_AIN_1 Pin=XP2-20
