Added Pin To Net: NetName=GNDA Pin=XP1-5
Added Pin To Net: NetName=GNDA Pin=XP1-6
Added Pin To Net: NetName=GNDA Pin=XP2-5
Added Pin To Net: NetName=GNDA Pin=XP2-6
Change Net Name : Old Net Name=GNDA New Net Name=GND
